rmse_px,rmse_py,rmse_vx,rmse_vy,rmse_ya,rmse_yr,nis_radar,nis_lidar,px_t,py_t,vx_t,vy_t,ya_t,yr_t,px_e,py_e,vx_e,vy_e,ya_e,yr_e,
0.287757,0.0196602,0.199937,0,0,0.00691132,0,0,0.6,0.6,5.19994,0,0,0.00691132,0.312243,0.58034,5,0,0,0,
0.647748,4.57794,1.87002,0.788266,0.28996,1.41238,2.91377,0,0.859997,0.600045,5.19975,0.00179686,0.000345566,0.0138216,1.72968,-5.8741,2.56271,-1.11298,-0.409719,-1.98357,
0.529888,3.73855,1.59866,2.64233,0.515234,2.08324,2.91377,1.2877,1.11998,0.600225,5.19943,0.00538996,0.00103664,0.0207296,1.17646,0.476834,4.37891,-4.43341,-0.791582,-2.98428,
0.467333,3.23806,1.3908,3.34671,0.575996,5.37235,3.71419,1.2877,1.37996,0.600629,5.19898,0.0107781,0.00207312,0.0276344,1.20316,0.501491,5.46375,4.89507,0.730555,10.1483,
0.418654,2.89622,1.39566,4.07947,0.614978,6.06955,3.71419,0.765852,1.6399,0.601347,5.19839,0.0179597,0.00345484,0.0345348,1.58741,0.579005,6.61333,6.21543,0.754392,8.32603,
0.382253,2.64393,1.46449,4.44746,0.705149,6.86968,2.48094,0.765852,1.89982,0.60247,5.19766,0.0269323,0.00518158,0.0414297,1.88112,0.562646,3.42874,5.98252,1.05037,9.98918,
0.356798,2.44904,2.0862,4.73707,0.84136,7.40156,2.48094,3.16335,2.1597,0.604086,5.19678,0.0376932,0.00725307,0.0483182,2.03959,0.810054,1.00188,6.23441,1.41146,10.0646,
0.333811,2.29245,2.20787,4.66953,0.872666,7.4485,21.6213,3.16335,2.41954,0.606284,5.19573,0.0502389,0.00966898,0.0551989,2.40207,0.847309,2.27478,4.21644,1.07605,7.82439,
0.320439,2.16459,2.57556,4.59548,0.945785,7.48456,21.6213,6.70779,2.67932,0.609155,5.1945,0.0645654,0.0124289,0.062071,2.49851,0.964767,0.644318,4.01807,1.41179,7.82903,
0.307779,2.05632,2.64408,4.41553,0.935651,7.10915,87.4749,6.70779,2.93904,0.612786,5.19309,0.080668,0.0155325,0.0689333,2.78691,0.952586,1.99781,2.29484,0.854484,1.17954,
0.308056,1.96343,2.73232,4.24512,0.926057,6.78286,87.4749,7.04153,3.19869,0.617267,5.19147,0.0985415,0.0189791,0.0757847,2.88787,0.965408,1.69726,1.90491,0.842978,0.898999,
0.305457,1.88377,2.67649,4.08563,0.89516,6.50183,95.0965,7.04153,3.45825,0.622686,5.18963,0.11818,0.0227684,0.0826241,3.183,1.04388,3.22949,1.55911,0.449771,-1.01603,
0.304328,1.81211,2.62928,3.92588,0.860394,6.27384,95.0965,34.3748,3.71772,0.629131,5.18754,0.139576,0.0268996,0.0894504,3.42729,0.953667,3.2108,0.372925,0.115629,-2.01001,
0.301612,1.74967,2.54774,3.78509,0.829685,6.05917,47.2218,34.3748,3.97708,0.636689,5.18519,0.162724,0.0313721,0.0962627,3.71331,1.04949,4.1838,0.625232,0.148343,-1.4192,
0.297974,1.69215,2.47389,3.66339,0.803099,5.88066,47.2218,13.5552,4.23632,0.645449,5.18256,0.187614,0.0361852,0.10306,3.99496,0.948562,4.21878,-0.666825,-0.156764,-2.07488,
0.293843,1.64009,2.39882,3.55407,0.778982,5.7113,17.7076,13.5552,4.49542,0.655498,5.17962,0.214238,0.0413382,0.10984,4.27257,0.951163,4.66258,-0.67792,-0.144384,-1.67074,
0.292985,1.59219,2.33212,3.46149,0.758492,5.55753,17.7076,0.832748,4.75437,0.666921,5.17634,0.242587,0.0468302,0.116604,4.47548,0.907238,4.55179,-1.01841,-0.220113,-1.66134,
0.290749,1.54771,2.26874,3.39016,0.742034,5.41654,8.32987,0.832748,5.01316,0.679804,5.1727,0.272649,0.0526604,0.123349,4.76346,0.825164,4.73703,-1.51202,-0.30897,-1.61906,
0.28621,1.50643,2.21111,3.34908,0.73119,5.28868,8.32987,10.3142,5.27175,0.694234,5.16867,0.304413,0.0588279,0.130074,5.08524,0.702223,4.67745,-2.19211,-0.438259,-1.69497,
0.281409,1.46828,2.15532,3.30089,0.718788,5.16405,9.48682,10.3142,5.53013,0.710295,5.16422,0.337868,0.0653316,0.136779,5.36458,0.704276,5.03426,-1.85464,-0.352976,-1.24777,
0.27566,1.43304,2.10354,3.26494,0.70864,5.04794,9.48682,6.59265,5.78828,0.728071,5.15932,0.372999,0.0721706,0.143463,5.67901,0.635388,5.0392,-2.06406,-0.388755,-1.18601,
0.27028,1.40113,2.05554,3.2483,0.70185,4.9401,0.938879,6.59265,6.04618,0.747646,5.15393,0.409793,0.0793437,0.150124,5.93952,0.495445,4.9722,-2.46684,-0.460545,-1.18618,
0.265077,1.37093,2.01063,3.2155,0.692999,4.83666,0.938879,10.6746,6.30379,0.769103,5.14803,0.448233,0.0868499,0.156761,6.20902,0.573975,4.9874,-1.93406,-0.369935,-0.912919,
0.260053,1.34289,1.96842,3.18203,0.684238,4.73851,3.18182,10.6746,6.56111,0.792523,5.14157,0.488305,0.0946879,0.163373,6.47774,0.561589,5.03527,-1.79223,-0.341952,-0.751905,
0.255327,1.31679,1.92884,3.14804,0.675692,4.64559,3.18182,1.83053,6.81808,0.817988,5.13452,0.52999,0.102857,0.169959,6.73598,0.557567,4.99782,-1.64845,-0.318599,-0.638488,
0.250951,1.29301,1.89186,3.1195,0.668377,4.55809,1.59809,1.83053,7.07469,0.845578,5.12685,0.573269,0.111354,0.176519,6.98759,0.499018,4.91153,-1.7203,-0.336905,-0.625461,
0.24722,1.26985,1.85721,3.0803,0.659438,4.47415,1.59809,8.73326,7.3309,0.875372,5.1185,0.618123,0.12018,0.183051,7.21783,0.612426,4.84952,-1.16193,-0.235165,-0.369373,
0.243029,1.24832,1.82375,3.04138,0.650451,4.39417,8.51012,8.73326,7.58668,0.907449,5.10946,0.664531,0.129333,0.189554,7.52674,0.599343,5.13061,-1.01376,-0.195079,-0.210126,
0.239031,1.22814,1.79204,3.00214,0.641549,4.31815,8.51012,0.834792,7.84199,0.941886,5.09966,0.712469,0.138811,0.196026,7.78573,0.612589,5.11736,-0.827861,-0.160385,-0.120738,
0.235242,1.20926,1.76195,2.96362,0.63292,4.24587,3.29697,0.834792,8.0968,0.978758,5.08907,0.761915,0.148612,0.202468,8.03995,0.62063,5.02804,-0.694225,-0.137203,-0.0765264,
0.231742,1.19109,1.73337,2.92289,0.623979,4.17691,3.29697,1.81278,8.35106,1.01814,5.07766,0.812843,0.158736,0.208878,8.28276,0.686157,4.98949,-0.348679,-0.0697692,0.066117,
0.228211,1.17334,1.70617,2.87968,0.61466,4.11114,10.2381,1.81278,8.60472,1.06011,5.06537,0.865226,0.169179,0.215255,8.56299,0.784925,5.16571,0.143835,0.0278371,0.273812,
0.224913,1.15598,1.68012,2.83625,0.605371,4.04853,10.2381,1.89213,8.85775,1.10473,5.05216,0.919037,0.179942,0.221599,8.80521,0.898709,5.06855,0.602594,0.118333,0.427129,
0.22159,1.13939,1.65533,2.79442,0.596441,3.98872,7.72934,1.89213,9.1101,1.15208,5.03798,0.974245,0.191022,0.227907,9.09836,0.949616,5.1445,0.784407,0.15131,0.44452,
0.218441,1.12342,1.63154,2.75421,0.58786,3.93156,7.72934,0.43438,9.36172,1.20223,5.0228,1.03082,0.202417,0.234179,9.33699,1.01765,5.07937,0.996643,0.193752,0.485792,
0.215388,1.10794,1.60881,2.71593,0.579669,3.87689,5.0299,0.43438,9.61255,1.25524,5.00656,1.08873,0.214126,0.240414,9.6175,1.11959,5.11108,1.30687,0.25033,0.54258,
0.212508,1.09287,1.58692,2.68136,0.572152,3.82481,5.0299,3.00091,9.86254,1.31118,4.98922,1.14793,0.226147,0.246611,9.89084,1.29272,5.00856,1.83557,0.351286,0.680308,
0.209717,1.07846,1.56623,2.6509,0.565471,3.77515,3.5957,3.00091,10.1116,1.37011,4.97074,1.2084,0.238478,0.252769,10.1313,1.44341,4.77425,2.21691,0.434721,0.790036,
0.207015,1.06464,1.54655,2.62164,0.559092,3.72727,3.5957,0.810489,10.3598,1.4321,4.95106,1.2701,0.251116,0.258887,10.3517,1.52162,4.69716,2.27521,0.451075,0.749564,
0.204476,1.05157,1.52883,2.59564,0.553494,3.68144,2.07937,0.810489,10.6069,1.49721,4.93014,1.33298,0.26406,0.264964,10.5744,1.66027,4.47002,2.53574,0.516011,0.823148,
0.202128,1.03875,1.51143,2.56726,0.547481,3.63676,2.07937,3.21809,10.853,1.56549,4.90794,1.39701,0.277309,0.271,10.8013,1.65352,4.49808,2.25195,0.464164,0.655729,
0.199745,1.02639,1.49374,2.53897,0.541406,3.59341,3.82637,3.21809,11.0979,1.637,4.8844,1.46213,0.290859,0.276993,11.0727,1.71661,4.65664,2.18551,0.438813,0.521433,
0.197433,1.01438,1.47635,2.50996,0.535204,3.5514,3.82637,3.87407,11.3416,1.71179,4.85948,1.52832,0.304708,0.282942,11.3621,1.72315,4.75636,1.91304,0.382407,0.368737,
0.19518,1.00279,1.45962,2.48173,0.529185,3.51082,0.816145,3.87407,11.584,1.78992,4.83313,1.59551,0.318855,0.288846,11.5915,1.79471,4.69976,1.91143,0.386275,0.345372,
0.192999,0.991603,1.44341,2.45406,0.523291,3.4716,0.816145,0.649726,11.8251,1.87144,4.80531,1.66366,0.333298,0.294705,11.8248,1.83154,4.69172,1.78211,0.363008,0.270391,
0.190906,0.980768,1.42764,2.42737,0.517589,3.43366,1.53818,0.649726,12.0648,1.95639,4.77598,1.73273,0.348033,0.300517,12.0812,1.94157,4.80903,1.90351,0.376898,0.252821,
0.188921,0.970434,1.41246,2.40168,0.512111,3.39706,1.53818,1.6061,12.3029,2.04482,4.74508,1.80265,0.363059,0.306282,12.3349,1.92565,4.85443,1.55756,0.310476,0.105555,
0.187108,0.960517,1.39815,2.3771,0.506889,3.36169,1.04055,1.6061,12.5394,2.13677,4.71258,1.87338,0.378373,0.311998,12.5939,1.98661,4.96593,1.51254,0.295657,0.0568051,
0.185207,0.950783,1.38403,2.35283,0.501725,3.32729,1.04055,2.44457,12.7743,2.23227,4.67842,1.94485,0.393973,0.317665,12.7925,2.12753,4.8504,1.78278,0.352227,0.155926,
0.1835,0.941301,1.37093,2.32923,0.496719,3.29394,2.71938,2.44457,13.0075,2.33136,4.64258,2.01701,0.409856,0.323282,13.0607,2.2481,4.97585,1.91548,0.36747,0.152015,
0.181734,0.93205,1.35789,2.30628,0.491829,3.26152,2.71938,1.80794,13.2388,2.43409,4.605,2.08981,0.42602,0.328848,13.2665,2.3867,4.85911,2.12166,0.411685,0.219358,
0.180048,0.923055,1.34483,2.28443,0.48716,3.23003,9.83714,1.80794,13.4682,2.54047,4.56564,2.16317,0.442462,0.334362,13.4319,2.572,4.4678,2.48234,0.507137,0.409658,
0.178344,0.914305,1.33209,2.2629,0.482559,3.19941,9.83714,1.2853,13.6955,2.65053,4.52448,2.23703,0.45918,0.339823,13.6893,2.65224,4.52445,2.40804,0.489097,0.338648,
0.176695,0.905801,1.3197,2.24198,0.478091,3.16965,0.0982945,1.2853,13.9208,2.7643,4.48147,2.31134,0.476172,0.34523,13.9067,2.77423,4.45712,2.48881,0.509262,0.348003,
0.175083,0.897539,1.30765,2.2217,0.473754,3.1407,0.0982945,0.321347,14.1439,2.88179,4.43656,2.38601,0.493433,0.350583,14.1386,2.91284,4.4241,2.60312,0.531842,0.356912,
0.173558,0.88949,1.29619,2.2018,0.469505,3.11257,1.54652,0.321347,14.3646,3.00303,4.38974,2.46099,0.510962,0.355881,14.3943,3.01634,4.58875,2.55052,0.5073,0.248892,
0.172068,0.881711,1.28521,2.18263,0.465447,3.08527,1.54652,2.58609,14.583,3.12802,4.34097,2.5362,0.528756,0.361122,14.6107,3.05185,4.59443,2.29987,0.46411,0.14988,
0.170665,0.874092,1.27478,2.16377,0.461462,3.05865,3.31511,2.58609,14.7989,3.25679,4.29021,2.61157,0.546813,0.366306,14.8403,3.2179,4.61047,2.506,0.497874,0.185319,
0.169279,0.866662,1.26435,2.14542,0.457535,3.03264,3.31511,0.671914,15.0122,3.38932,4.23744,2.68703,0.565128,0.371433,15.0488,3.41975,4.48749,2.81436,0.560149,0.281546,
0.167907,0.859473,1.25383,2.12779,0.453728,3.00726,2.42596,0.671914,15.2228,3.52563,4.18263,2.76249,0.583699,0.376501,15.2527,3.60672,4.2804,3.04687,0.618613,0.386285,
0.166597,0.852538,1.24355,2.11081,0.450038,2.98251,2.42596,0.277261,15.4306,3.66572,4.12575,2.83789,0.602525,0.381509,15.469,3.78599,4.20463,3.2085,0.651824,0.410794,
0.165348,0.845748,1.23355,2.09403,0.446413,2.95836,1.21606,0.277261,15.6356,3.80957,4.06678,2.91315,0.6216,0.386458,15.6807,3.91849,4.17154,3.19759,0.653993,0.379493,
0.164282,0.839071,1.22395,2.07742,0.442856,2.9348,1.21606,0.405815,15.8375,3.95718,4.00571,2.98817,0.640923,0.391345,15.9097,4.03841,4.19144,3.13366,0.641985,0.325051,
0.163193,0.832581,1.21436,2.06126,0.439393,2.91178,1.58534,0.405815,16.0363,4.10854,3.94251,3.0629,0.66049,0.39617,16.1007,4.20708,3.98218,3.25258,0.684891,0.407109,
0.162132,0.826324,1.20498,2.04565,0.43603,2.8893,1.58534,0.201056,16.2319,4.26363,3.87716,3.13723,0.680299,0.400933,16.2968,4.3997,3.88856,3.41977,0.721342,0.435162,
0.161243,0.820218,1.19588,2.03031,0.432724,2.86733,0.75939,0.201056,16.4242,4.42242,3.80966,3.21109,0.700345,0.405632,16.5096,4.5612,3.90625,3.45307,0.723898,0.388006,
0.160304,0.814237,1.18697,2.01524,0.429487,2.84585,0.75939,0.493664,16.613,4.5849,3.74,3.28438,0.720627,0.410268,16.689,4.71812,3.82822,3.4823,0.738115,0.379429,
0.159176,0.8085,1.17856,2.00075,0.426425,2.8249,3.20985,0.493664,16.7983,4.75103,3.66817,3.35704,0.74114,0.414838,16.8328,4.92411,3.43236,3.67835,0.819978,0.559619,
0.158023,0.803102,1.17067,1.987,0.423538,2.80445,3.20985,0.264267,16.9799,4.92077,3.59416,3.42897,0.761882,0.419343,16.9902,5.15188,3.26136,3.896,0.873836,0.604165,
0.156892,0.797786,1.16281,1.97331,0.420658,2.78439,1.75602,0.264267,17.1578,5.09409,3.51797,3.50008,0.782849,0.423782,17.1638,5.3158,3.22482,3.89169,0.878832,0.554533,
0.155788,0.792554,1.15512,1.95976,0.417818,2.76474,1.75602,0.214405,17.3319,5.27094,3.4396,3.57028,0.804038,0.428154,17.322,5.48478,3.1435,3.90338,0.892815,0.532163,
0.154721,0.787365,1.14759,1.94632,0.415007,2.74549,2.97433,0.214405,17.5019,5.45128,3.35907,3.63949,0.825446,0.432459,17.4812,5.64607,3.06657,3.88603,0.90272,0.510602,
0.153665,0.782057,1.13981,1.93295,0.412158,2.72662,2.97433,1.86446,17.6679,5.63506,3.27637,3.70762,0.847069,0.436695,17.6807,5.74358,3.14377,3.671,0.862609,0.40181,
0.152624,0.776868,1.13235,1.91984,0.409381,2.70813,0.524466,1.86446,17.8297,5.82221,3.19151,3.77458,0.868904,0.440862,17.8248,5.93635,2.9775,3.76014,0.901039,0.457296,
0.151608,0.771787,1.12493,1.907,0.406652,2.69002,0.524466,0.978722,17.9872,6.01269,3.10453,3.84027,0.890947,0.444959,17.9969,6.12808,2.94387,3.82094,0.914332,0.440683,
0.150611,0.766832,1.11758,1.89442,0.403974,2.67227,0.888647,0.978722,18.1403,6.20641,3.01542,3.90462,0.913195,0.448987,18.1495,6.334,2.90401,3.91678,0.932804,0.419705,
0.149656,0.762128,1.11058,1.88218,0.401394,2.65486,0.888647,0.582383,18.2888,6.40332,2.92421,3.96753,0.935644,0.452943,18.264,6.5883,2.70698,4.14409,0.992165,0.484583,
0.148752,0.757569,1.10375,1.87022,0.398874,2.63779,0.199026,0.582383,18.4328,6.60333,2.83093,4.0289,0.958291,0.456828,18.3961,6.80443,2.59636,4.22947,1.02024,0.491824,
0.147825,0.752865,1.0968,1.85836,0.396343,2.62105,0.199026,1.79855,18.572,6.80638,2.7356,4.08866,0.981133,0.46064,18.5515,6.9184,2.64224,4.02113,0.989453,0.40174,
0.146898,0.748238,1.08995,1.84673,0.393866,2.60467,0.777138,1.79855,18.7064,7.01237,2.63826,4.14672,1.00416,0.46438,18.7069,7.11845,2.70909,4.0542,0.98172,0.319183,
0.146257,0.743608,1.0838,1.83576,0.391578,2.5887,0.777138,3.4368,18.8359,7.22122,2.53893,4.20299,1.02738,0.468047,18.9157,7.23955,2.86276,3.8339,0.929413,0.20663,
0.145439,0.73906,1.07725,1.82499,0.389245,2.57291,3.9543,3.4368,18.9604,7.43283,2.43767,4.25737,1.05079,0.47164,19.0029,7.43323,2.56041,3.88522,0.988111,0.344091,
0.14456,0.734651,1.07075,1.814,0.386893,2.55736,3.9543,1.81594,19.0798,7.64712,2.3345,4.3098,1.07437,0.475158,19.0794,7.73022,2.29384,4.21152,1.07206,0.457482,
0.143703,0.730299,1.06438,1.80323,0.384592,2.54211,0.332197,1.81594,19.1939,7.86397,2.22949,4.36017,1.09813,0.478601,19.2063,7.9285,2.2926,4.22246,1.07338,0.401407,
0.142876,0.726032,1.0581,1.79262,0.382324,2.52711,0.332197,1.23731,19.3028,8.08329,2.12266,4.40842,1.12206,0.481969,19.2802,8.15499,2.10947,4.31982,1.11653,0.438947,
0.142063,0.721822,1.05198,1.78221,0.380106,2.51241,2.18393,1.23731,19.4062,8.30497,2.01409,4.45445,1.14615,0.48526,19.384,8.35913,2.10691,4.33547,1.11844,0.372858,
0.14126,0.717671,1.0461,1.77228,0.377976,2.49799,2.18393,3.08732,19.5042,8.5289,1.90381,4.49819,1.17042,0.488475,19.4845,8.49443,2.08697,4.17432,1.10719,0.326346,
0.140469,0.71361,1.04029,1.76258,0.37588,2.48379,0.471488,3.08732,19.5967,8.75494,1.7919,4.53956,1.19484,0.491613,19.5781,8.69562,1.95867,4.1872,1.13326,0.363109,
0.139832,0.709698,1.03526,1.75341,0.373967,2.4699,0.471488,3.78475,19.6835,8.983,1.67841,4.57848,1.21942,0.494673,19.7453,8.86585,2.06899,4.09224,1.10269,0.284587,
0.139169,0.705875,1.02993,1.74432,0.37201,2.45617,1.08106,3.78475,19.7645,9.21294,1.56341,4.61488,1.24415,0.497655,19.8185,9.08393,1.84799,4.15416,1.15223,0.381977,
0.138835,0.7021,1.02502,1.73521,0.37012,2.44267,1.08106,3.36796,19.8398,9.44463,1.44697,4.64869,1.26904,0.500558,19.9443,9.32432,1.82426,4.2492,1.16527,0.372049,
0.138307,0.698402,1.01957,1.72618,0.36815,2.42936,2.10018,3.36796,19.9093,9.67795,1.32916,4.67984,1.29407,0.503383,19.9854,9.54961,1.49147,4.31402,1.23793,0.519542,
0.13788,0.694728,1.0142,1.7171,0.366196,2.41627,2.10018,1.08854,19.9728,9.91275,1.21005,4.70826,1.31923,0.506127,20.0632,9.80404,1.35926,4.43644,1.27349,0.534461,
0.137506,0.691089,1.00906,1.70805,0.364287,2.40338,7.6102,1.08854,20.0303,10.1489,1.08972,4.73389,1.34454,0.508792,20.1269,10.0564,1.31597,4.5509,1.28931,0.468105,
0.137045,0.687453,1.00381,1.69904,0.362374,2.3907,7.6102,0.986741,20.0817,10.3863,0.968259,4.75666,1.36998,0.511377,20.1646,10.3483,1.09105,4.73143,1.34416,0.515194,
0.136415,0.68387,0.998596,1.69016,0.360485,2.37824,2.14678,0.986741,20.1271,10.6247,0.845742,4.77651,1.39555,0.513881,20.1745,10.5942,0.773958,4.77558,1.41013,0.617243,
0.135849,0.680337,0.993477,1.68145,0.358628,2.36597,2.14678,2.12533,20.1663,10.864,0.722256,4.7934,1.42124,0.516304,20.2268,10.8736,0.632666,4.88114,1.4419,0.616207,
0.135273,0.676866,0.988401,1.67292,0.356796,2.35387,4.97856,2.12533,20.1993,11.1041,0.597892,4.80727,1.44706,0.518645,20.2557,11.1393,0.562859,4.95917,1.45778,0.54493,
0.134751,0.673444,0.983397,1.66449,0.354989,2.34195,4.97856,0.0790705,20.2261,11.3449,0.472738,4.81806,1.47299,0.520904,20.292,11.3712,0.468953,4.93664,1.47609,0.532867,
0.13409,0.670084,0.979409,1.65619,0.353321,2.33034,8.39934,0.0790705,20.2466,11.5861,0.346889,4.82575,1.49904,0.523081,20.227,11.6319,-0.0824426,4.93448,1.5875,0.764326,
0.133489,0.666765,0.974927,1.64798,0.351612,2.31884,8.39934,5.73156,20.2608,11.8275,0.22044,4.83027,1.52519,0.525176,20.3025,11.8575,-0.0528016,4.88185,1.58161,0.700358,
0.133007,0.663492,0.970145,1.63989,0.349885,2.30745,4.66266,5.73156,20.2687,12.0692,0.093487,4.83159,1.55145,0.527187,20.3373,12.0908,0.134376,4.90069,1.54338,0.45693,
0.132457,0.660304,0.965425,1.63201,0.348182,2.29623,4.66266,0.793426,20.2701,12.3108,-0.0338694,4.82968,1.57781,0.529115,20.3216,12.3855,-0.0506196,5.01054,1.5809,0.474847,
0.131818,0.657163,0.961194,1.62419,0.346551,2.2852,2.54935,0.793426,20.2653,12.5522,-0.161529,4.82451,1.60427,0.53096,20.2663,12.6268,-0.451819,4.94303,1.66195,0.652392,
0.131258,0.654052,0.956756,1.61645,0.344913,2.2743,2.54935,2.33867,20.254,12.7933,-0.28939,4.81605,1.63081,0.532721,20.2977,12.853,-0.462824,4.88185,1.66532,0.610755,
0.130739,0.650976,0.952316,1.60881,0.343291,2.26355,2.19113,2.33867,20.2363,13.0339,-0.417348,4.80428,1.65745,0.534397,20.2892,13.0816,-0.547081,4.83765,1.68341,0.586557,
0.130202,0.647928,0.947927,1.60128,0.341693,2.25296,2.19113,0.966799,20.2122,13.2738,-0.545298,4.78918,1.68417,0.53599,20.2582,13.2838,-0.666166,4.74147,1.71038,0.584843,
0.129655,0.644921,0.943547,1.59385,0.34011,2.2425,1.34374,0.966799,20.1818,13.5129,-0.673135,4.77072,1.71097,0.537497,20.2218,13.5187,-0.73495,4.74145,1.72458,0.523035,
0.129175,0.641962,0.939212,1.58652,0.338546,2.23219,1.34374,1.43614,20.1449,13.7509,-0.800753,4.74892,1.73784,0.53892,20.2021,13.7797,-0.824692,4.76939,1.74202,0.509525,
0.12866,0.639039,0.934973,1.5793,0.337009,2.22203,0.786166,1.43614,20.1017,13.9878,-0.928043,4.72375,1.76479,0.540258,20.147,14.0046,-1.01867,4.70013,1.78423,0.566622,
0.128128,0.636166,0.930817,1.57217,0.335494,2.212,0.786166,0.363114,20.0521,14.2233,-1.0549,4.69521,1.7918,0.54151,20.0897,14.2636,-1.17127,4.71936,1.81407,0.567998,
0.127572,0.633328,0.926724,1.56513,0.334,2.2021,1.32924,0.363114,19.9962,14.4573,-1.18121,4.66331,1.81888,0.542677,20.018,14.4931,-1.30288,4.68333,1.84213,0.554235,
0.127037,0.63055,0.922903,1.55821,0.332545,2.19234,1.32924,0.960442,19.9339,14.6897,-1.30687,4.62805,1.84601,0.543759,19.9043,14.7554,-1.55242,4.70098,1.88975,0.581077,
0.1265,0.627796,0.918914,1.55137,0.331088,2.18271,3.32968,0.960442,19.8655,14.9202,-1.43177,4.58944,1.8732,0.544754,19.8407,14.971,-1.55092,4.66,1.89208,0.490167,
0.125984,0.625067,0.914919,1.54462,0.329646,2.17321,3.32968,2.29838,19.7908,15.1486,-1.55581,4.54751,1.90044,0.545663,19.8227,15.1785,-1.51348,4.57236,1.89045,0.456096,
0.125454,0.622367,0.911545,1.53805,0.328313,2.16395,7.03063,2.29838,19.7099,15.3749,-1.67887,4.50226,1.92772,0.546486,19.6894,15.3823,-2.02869,4.30739,2.01096,0.796838,
0.124988,0.619717,0.907804,1.53171,0.326957,2.15476,7.03063,3.5786,19.6229,15.5989,-1.80085,4.45372,1.95504,0.547223,19.6686,15.5525,-1.98631,4.15322,2.0169,0.751443,
0.124567,0.61712,0.90399,1.52546,0.325595,2.14564,1.576,3.5786,19.5298,15.8203,-1.92164,4.40193,1.98241,0.547874,19.5867,15.7495,-2.01501,4.10331,2.02727,0.661905,
0.12411,0.614555,0.900264,1.51925,0.324259,2.13663,1.576,0.10512,19.4307,16.039,-2.04114,4.3469,2.0098,0.548437,19.4753,15.9685,-2.17236,4.06511,2.06158,0.662399,
0.123696,0.612034,0.896506,1.51303,0.322909,2.12771,2.0183,0.10512,19.3257,16.255,-2.15925,4.28868,2.03722,0.548915,19.3811,16.1737,-2.14189,4.07789,2.05444,0.517403,
0.123296,0.609592,0.892802,1.50695,0.321576,2.1189,2.0183,0.418929,19.2148,16.4679,-2.27586,4.22731,2.06467,0.549305,19.2728,16.3514,-2.23492,3.9722,2.08329,0.523136,
0.122916,0.607212,0.889142,1.50096,0.320262,2.1102,0.237243,0.418929,19.0981,16.6777,-2.39087,4.16284,2.09213,0.549609,19.1596,16.5423,-2.35076,3.88904,2.11449,0.543019,
0.122482,0.604833,0.885521,1.49497,0.318965,2.10161,0.237243,0.367743,18.9757,16.8841,-2.50418,4.0953,2.11961,0.549826,19.0207,16.7654,-2.50731,3.88294,2.14416,0.544807,
0.121995,0.602505,0.882219,1.48929,0.317772,2.09321,5.93785,0.367743,18.8477,17.0872,-2.61571,4.02476,2.1471,0.549957,18.8624,16.9559,-2.86134,3.66259,2.23399,0.769098,
0.121576,0.600131,0.879464,1.48352,0.316631,2.08491,5.93785,2.15589,18.7142,17.2866,-2.72534,3.95127,2.1746,0.55,18.6678,17.2087,-3.13981,3.68,2.27715,0.770871,
0.121093,0.597777,0.875968,1.47762,0.315373,2.07665,6.23417,2.15589,18.5752,17.4822,-2.83299,3.87489,2.2021,0.549957,18.5759,17.4126,-2.84561,3.8273,2.21013,0.419717,
0.120807,0.595438,0.872623,1.47179,0.314137,2.06848,6.23417,3.83459,18.4309,17.674,-2.93858,3.79568,2.2296,0.549826,18.3542,17.6193,-3.09491,3.79389,2.25507,0.446255,
0.120487,0.593123,0.869208,1.46606,0.312909,2.06048,1.18274,3.83459,18.2814,17.8617,-3.042,3.71372,2.25709,0.549609,18.2128,17.8135,-3.05447,3.81784,2.24557,0.331886,
0.120057,0.590833,0.865876,1.46042,0.311708,2.05257,1.18274,0.869837,18.1268,18.0453,-3.14318,3.62906,2.28457,0.549305,18.0928,18.0001,-3.04434,3.76281,2.25104,0.318484,
0.119677,0.588596,0.862544,1.45479,0.310508,2.04467,3.12129,0.869837,17.9671,18.2246,-3.24204,3.5418,2.31204,0.548915,17.9164,18.1462,-3.27399,3.50103,2.3227,0.505657,
0.11922,0.586438,0.859285,1.44926,0.309321,2.03685,3.12129,0.969482,17.8026,18.3994,-3.3385,3.45199,2.33948,0.548437,17.7987,18.2802,-3.24494,3.34643,2.3408,0.49693,
0.11881,0.584297,0.856186,1.44377,0.308152,2.02914,6.29827,0.969482,17.6334,18.5697,-3.43247,3.35973,2.3669,0.547874,17.67,18.4557,-3.24095,3.30256,2.34678,0.459817,
0.118364,0.582142,0.853019,1.43833,0.306996,2.02151,6.29827,0.647231,17.4595,18.7353,-3.5239,3.26509,2.3943,0.547223,17.4668,18.6506,-3.40937,3.28762,2.37437,0.464483,
0.117923,0.580043,0.849848,1.43297,0.305849,2.01395,1.96215,0.647231,17.2811,18.8962,-3.61271,3.16817,2.42166,0.546486,17.2878,18.7867,-3.5486,3.09203,2.42484,0.553266,
0.11752,0.578003,0.846758,1.42768,0.304714,2.00648,1.96215,0.214246,17.0983,19.0521,-3.69883,3.06904,2.44898,0.545663,17.131,18.9199,-3.57833,2.95864,2.45071,0.551999,
0.117176,0.575955,0.843764,1.42243,0.303595,1.99909,2.94741,0.214246,16.9113,19.203,-3.78221,2.9678,2.47627,0.544754,16.9646,19.0902,-3.61324,2.93851,2.45882,0.503516,
0.116764,0.573973,0.840726,1.41724,0.302485,1.99178,2.94741,2.85577,16.7202,19.3488,-3.86278,2.86455,2.5035,0.543759,16.7432,19.2095,-3.75836,2.78887,2.5032,0.529398,
0.116361,0.571988,0.837698,1.41211,0.301387,1.98455,3.24646,2.85577,16.5251,19.4894,-3.9405,2.75937,2.53069,0.542677,16.5508,19.3645,-3.86653,2.69924,2.53214,0.553492,
0.115947,0.569976,0.834683,1.40702,0.300301,1.9774,3.24646,0.859511,16.3262,19.6246,-4.01531,2.65237,2.55783,0.54151,16.3125,19.5362,-4.04287,2.66713,2.55842,0.547451,
0.115563,0.568058,0.831726,1.40205,0.299243,1.97034,9.95554,0.859511,16.1237,19.7545,-4.08716,2.54365,2.5849,0.540258,16.0923,19.6156,-4.16979,2.38745,2.62159,0.637045,
0.115193,0.566128,0.828815,1.3971,0.298192,1.96336,9.95554,0.758386,15.9176,19.8789,-4.15602,2.43329,2.61191,0.53892,15.8813,19.7603,-4.25729,2.31424,2.64368,0.622596,
0.114791,0.56421,0.825908,1.39218,0.297142,1.95645,3.31931,0.758386,15.7082,19.9978,-4.22185,2.32141,2.63886,0.537497,15.6962,19.8859,-4.15962,2.36286,2.625,0.44483,
0.114436,0.562257,0.823015,1.38737,0.296112,1.94962,3.31931,1.14379,15.4956,20.111,-4.2846,2.2081,2.66574,0.53599,15.4564,20.049,-4.28737,2.37105,2.63642,0.425784,
0.114099,0.560305,0.820153,1.38271,0.295107,1.94286,5.39514,1.14379,15.2799,20.2185,-4.34427,2.09347,2.69253,0.534397,15.2352,20.1965,-4.35375,2.35438,2.64586,0.404451,
0.113705,0.558369,0.817345,1.37819,0.294139,1.93619,5.39514,1.83239,15.0613,20.3203,-4.4008,1.97763,2.71925,0.532721,15.0565,20.3249,-4.32318,2.29561,2.65345,0.388979,
0.113322,0.556455,0.814543,1.37357,0.293149,1.92955,2.41846,1.83239,14.84,20.4162,-4.4542,1.86068,2.74589,0.53096,14.8244,20.4046,-4.43262,2.06507,2.70561,0.484195,
0.112937,0.55456,0.811773,1.36905,0.29218,1.92298,2.41846,0.555119,14.6161,20.5063,-4.50443,1.74272,2.77244,0.529115,14.611,20.523,-4.46893,1.99596,2.72154,0.473164,
0.112567,0.552687,0.809033,1.36448,0.291201,1.91648,1.19475,0.555119,14.3897,20.5904,-4.55149,1.62386,2.79889,0.527187,14.3695,20.6119,-4.59374,1.79005,2.77002,0.56131,
0.112231,0.55083,0.806336,1.35993,0.290226,1.91004,1.19475,0.696732,14.1611,20.6686,-4.59537,1.50421,2.82525,0.525176,14.1233,20.682,-4.66725,1.62372,2.80679,0.57277,
0.111919,0.548992,0.803688,1.3554,0.289257,1.90368,0.1407,0.696732,13.9304,20.7408,-4.63606,1.38386,2.85151,0.523081,13.8847,20.7557,-4.73968,1.44105,2.84643,0.61321,
0.111806,0.547172,0.801173,1.3509,0.288298,1.89738,0.1407,1.48025,13.6977,20.807,-4.67357,1.26294,2.87767,0.520904,13.6043,20.8176,-4.86489,1.27473,2.88533,0.621763,
0.111764,0.545371,0.79875,1.34653,0.287373,1.89121,1.4144,1.48025,13.4632,20.8671,-4.70789,1.14153,2.90371,0.518645,13.358,20.8489,-4.9372,0.95853,2.94983,0.731228,
0.111766,0.543596,0.796323,1.3423,0.286476,1.8851,1.4144,0.140123,13.2271,20.9211,-4.73904,1.01975,2.92964,0.516304,13.1151,20.879,-4.95245,0.748564,2.99158,0.739275,
0.111711,0.541833,0.793825,1.33802,0.285564,1.879,2.27142,0.140123,12.9895,20.969,-4.76702,0.897694,2.95546,0.513881,12.8866,20.941,-4.91729,0.71455,2.99729,0.645541,
0.111421,0.540092,0.791263,1.33382,0.284666,1.87296,2.27142,2.10866,12.7506,21.0108,-4.79186,0.775469,2.98115,0.511377,12.7012,20.9717,-4.81602,0.552754,3.02732,0.649652,
0.111181,0.538363,0.788732,1.32962,0.283769,1.86697,2.62119,2.10866,12.5106,21.0465,-4.81358,0.653175,3.00672,0.508792,12.4467,21.0164,-4.86111,0.467228,3.04577,0.612623,
0.110973,0.536649,0.786231,1.32545,0.282879,1.86103,2.62119,0.190111,12.2695,21.0761,-4.83219,0.530912,3.03216,0.506127,12.198,21.0522,-4.89316,0.354441,3.06928,0.601146,
0.110738,0.534953,0.783745,1.32135,0.282002,1.85515,0.906697,0.190111,12.0276,21.0996,-4.84773,0.408778,3.05747,0.503383,11.9635,21.0714,-4.88679,0.209522,3.09874,0.606061,
0.110486,0.533307,0.781277,1.31743,0.281163,1.84934,0.906697,1.69317,11.785,21.117,-4.86022,0.286869,3.08264,0.500558,11.7267,21.0356,-4.85091,-0.035098,3.14883,0.636226,
0.110235,0.531705,0.778836,1.3136,0.280341,1.84357,1.03771,1.69317,11.5418,21.1283,-4.86971,0.165281,3.10766,0.497655,11.4841,21.0214,-4.83504,-0.184215,3.17967,0.620502,
0.109908,0.530139,0.776464,1.30985,0.279537,1.83787,1.03771,0.626593,11.2982,21.1335,-4.87623,0.0441057,3.13255,0.494673,11.2744,21.0112,-4.76379,-0.331629,3.2111,0.624223,
0.109595,0.528652,0.774119,1.30624,0.278764,1.83222,4.05284,0.626593,11.0544,21.1327,-4.87982,-0.076565,3.15728,0.491613,11.0233,20.9717,-4.76281,-0.508666,3.24799,0.62334,
0.109261,0.52725,0.771925,1.3028,0.278032,1.82663,4.05284,0.329127,10.8105,21.1259,-4.88053,-0.196643,3.18186,0.488475,10.8198,20.9303,-4.66523,-0.688465,3.28811,0.640339,
0.108928,0.525824,0.769746,1.29898,0.277221,1.82105,5.50349,0.329127,10.5666,21.1131,-4.8784,-0.316041,3.20629,0.48526,10.5667,20.9351,-4.66655,-0.576657,3.26454,0.465821,
0.108705,0.524301,0.767412,1.29504,0.27638,1.81554,5.50349,3.53197,10.3229,21.0943,-4.87349,-0.434674,3.23055,0.481969,10.2607,20.9825,-4.849,-0.479426,3.24014,0.38508,
0.108471,0.522787,0.765099,1.29114,0.275548,1.81007,1.05798,3.53197,10.0795,21.0697,-4.86585,-0.552463,3.25465,0.478601,10.0212,20.9609,-4.84427,-0.60604,3.26605,0.41778,
0.108148,0.521301,0.762913,1.28728,0.274726,1.80464,1.05798,1.60163,9.83658,21.0391,-4.85554,-0.669327,3.27858,0.475158,9.84399,20.9204,-4.68922,-0.742075,3.29854,0.438576,
0.107829,0.519793,0.760749,1.28348,0.273912,1.7993,1.03829,1.60163,9.59422,21.0028,-4.84262,-0.785189,3.30233,0.47164,9.60576,20.9133,-4.675,-0.658526,3.28153,0.31996,
0.107659,0.518306,0.758814,1.27971,0.273103,1.794,1.03829,0.833863,9.35258,20.9607,-4.82714,-0.899977,3.32592,0.468047,9.42634,20.8641,-4.54129,-0.780964,3.3119,0.343881,
0.107615,0.516834,0.756923,1.27595,0.272298,1.78871,1.75922,0.833863,9.11177,20.9128,-4.80919,-1.01362,3.34932,0.46438,9.21168,20.8152,-4.5116,-0.963571,3.35201,0.424406,
0.107309,0.51534,0.754724,1.27228,0.271511,1.78349,1.75922,2.40985,8.87192,20.8594,-4.78881,-1.12605,3.37254,0.46064,8.8901,20.8004,-4.72127,-0.956543,3.34149,0.372656,
0.107065,0.513882,0.752604,1.26858,0.270721,1.7783,4.77424,2.40985,8.63315,20.8003,-4.76608,-1.2372,3.39557,0.456828,8.68323,20.7138,-4.62464,-1.2102,3.39754,0.468196,
0.106756,0.51245,0.750427,1.2649,0.269937,1.77315,4.77424,2.85327,8.39557,20.7357,-4.74108,-1.34701,3.41841,0.452943,8.39064,20.6365,-4.72446,-1.33697,3.41737,0.459165,
0.106448,0.511044,0.748272,1.26127,0.269163,1.76805,0.1799,2.85327,8.1593,20.6657,-4.71387,-1.45542,3.44106,0.448987,8.15959,20.5554,-4.67913,-1.52271,3.45621,0.507848,
0.106146,0.509656,0.746133,1.25768,0.268396,1.763,0.1799,0.0832894,7.92445,20.5903,-4.68453,-1.56237,3.46351,0.444959,7.91535,20.4749,-4.66391,-1.64277,3.48025,0.50496,
0.105847,0.50829,0.744029,1.25419,0.267651,1.75802,3.36539,0.0832894,7.69111,20.5096,-4.65313,-1.66782,3.48576,0.440862,7.70104,20.387,-4.58244,-1.86423,3.52797,0.5863,
0.105786,0.506897,0.742064,1.25066,0.266894,1.75305,3.36539,2.66615,7.45939,20.4236,-4.61975,-1.7717,3.5078,0.436695,7.36494,20.3342,-4.81104,-1.86952,3.51222,0.510088,
0.105789,0.505517,0.740109,1.24715,0.266143,1.74813,0.262975,2.66615,7.22939,20.3326,-4.58448,-1.87399,3.52963,0.432459,7.12294,20.2418,-4.77186,-1.93874,3.52751,0.4735,
0.106036,0.504138,0.738282,1.24367,0.265401,1.74324,0.262975,0.188926,7.00119,20.2364,-4.54738,-1.97462,3.55126,0.428154,6.8579,20.1567,-4.80047,-2.00932,3.538,0.451912,
0.106335,0.50276,0.736454,1.24021,0.264669,1.73839,0.541949,0.188926,6.7749,20.1352,-4.50854,-2.07357,3.57267,0.423782,6.62425,20.0683,-4.75315,-2.04641,3.54814,0.414133,
0.106757,0.501387,0.734663,1.23679,0.263946,1.73358,0.541949,0.0882053,6.55059,20.0292,-4.46805,-2.17079,3.59385,0.419343,6.38459,19.9736,-4.72417,-2.12271,3.56389,0.406708,
0.107152,0.500015,0.732837,1.23339,0.26323,1.72881,2.97715,0.0882053,6.32834,19.9183,-4.42598,-2.26625,3.61482,0.414838,6.16468,19.8806,-4.65409,-2.20429,3.58392,0.414017,
0.107928,0.498649,0.731189,1.23004,0.262532,1.72408,2.97715,0.258277,6.10823,19.8027,-4.38241,-2.35993,3.63556,0.410268,5.90318,19.7857,-4.6915,-2.25264,3.58924,0.389557,
0.108882,0.497302,0.729496,1.22671,0.26182,1.7194,1.65908,0.258277,5.89034,19.6824,-4.33744,-2.45178,3.65608,0.405632,5.66741,19.6388,-4.6195,-2.53166,3.64293,0.497322,
0.109147,0.495972,0.72753,1.22343,0.261114,1.71478,1.65908,2.07374,5.67472,19.5577,-4.29114,-2.5418,3.67636,0.400933,5.52453,19.5046,-4.33918,-2.67792,3.69453,0.542452,
0.109285,0.494666,0.725577,1.22022,0.260425,1.71021,1.7783,2.07374,5.46145,19.4284,-4.24359,-2.62995,3.6964,0.39617,5.32918,19.3547,-4.20553,-2.82213,3.73263,0.558388,
0.109388,0.493353,0.723643,1.217,0.259737,1.70566,1.7783,2.02963,5.25059,19.2949,-4.19488,-2.71622,3.71621,0.391345,5.12347,19.2496,-4.14858,-2.86213,3.74551,0.536193,
0.109341,0.492041,0.721754,1.21376,0.259046,1.70112,4.83895,2.02963,5.04219,19.157,-4.1451,-2.80059,3.73578,0.386458,4.94193,19.1387,-4.04276,-2.79649,3.74674,0.447281,
0.109086,0.490742,0.720109,1.21055,0.258376,1.69664,4.83895,0.621382,4.8363,19.015,-4.09432,-2.88305,3.7551,0.381509,4.79847,18.9845,-3.82488,-2.92883,3.79509,0.493515,
0.10884,0.489456,0.718444,1.20739,0.257722,1.6922,1.51517,0.621382,4.63297,18.8689,-4.04263,-2.96359,3.77418,0.376501,4.59157,18.833,-3.79082,-3.08497,3.82469,0.526207,
0.10856,0.488175,0.716888,1.20425,0.257075,1.6878,1.51517,1.06929,4.43224,18.7188,-3.99012,-3.0422,3.793,0.371433,4.41813,18.7011,-3.6905,-3.14061,3.84667,0.521114,
0.10828,0.486902,0.715427,1.20111,0.256423,1.68341,1.22681,1.06929,4.23416,18.5648,-3.93685,-3.11888,3.81158,0.366306,4.24593,18.5591,-3.602,-3.11095,3.85397,0.451983,
0.108233,0.485639,0.71462,1.19799,0.255817,1.67908,1.22681,1.3532,4.03876,18.4071,-3.88293,-3.19362,3.82989,0.361122,4.1376,18.4036,-3.34528,-3.21079,3.90648,0.506831,
0.108268,0.484388,0.713931,1.19505,0.255298,1.67487,6.90631,1.3532,3.84606,18.2457,-3.82841,-3.26644,3.84795,0.355881,3.96082,18.2262,-3.26302,-3.52798,3.96599,0.643304,
0.10799,0.483145,0.712224,1.19203,0.254665,1.6706,6.90631,3.43093,3.65611,18.0807,-3.77339,-3.33732,3.86574,0.350583,3.65888,18.0911,-3.58604,-3.48848,3.9132,0.492387,
0.107733,0.481916,0.710573,1.18898,0.254023,1.66634,3.42911,3.43093,3.46891,17.9122,-3.71795,-3.40627,3.88327,0.34523,3.49694,17.9444,-3.50177,-3.39223,3.9111,0.397321,
0.107493,0.480701,0.708767,1.18597,0.253378,1.6621,3.42911,1.10595,3.28449,17.7402,-3.66215,-3.47331,3.90053,0.339823,3.2465,17.7822,-3.65835,-3.40138,3.89061,0.326952,
0.107248,0.47949,0.706989,1.183,0.252743,1.65792,2.37239,1.10595,3.10287,17.565,-3.60609,-3.53844,3.91752,0.334362,3.06931,17.594,-3.54333,-3.64044,3.94051,0.440485,
0.107003,0.478327,0.705215,1.18002,0.252107,1.65376,2.37239,6.18502,2.92405,17.3866,-3.54982,-3.60167,3.93424,0.328848,2.89155,17.4778,-3.51513,-3.58609,3.93698,0.402659,
0.106739,0.477144,0.703658,1.17718,0.25152,1.6497,2.56333,6.18502,2.74805,17.2051,-3.49344,-3.66302,3.95068,0.323282,2.76018,17.2565,-3.25144,-3.89877,4.01728,0.561636,
0.106474,0.475967,0.702098,1.17438,0.250938,1.64567,2.56333,0.0749892,2.57486,17.0205,-3.437,-3.72251,3.96685,0.317665,2.58059,17.067,-3.20366,-3.97116,4.03356,0.542133,
0.106212,0.474815,0.700498,1.17147,0.250326,1.6416,2.46625,0.0749892,2.4045,16.833,-3.38059,-3.78015,3.98273,0.311998,2.41441,16.9058,-3.18138,-3.79331,4.0145,0.395001,
0.105954,0.473689,0.698891,1.16859,0.249715,1.63756,2.46625,0.510815,2.23695,16.6427,-3.32428,-3.83595,3.99833,0.306282,2.24998,16.7357,-3.13975,-3.81518,4.0238,0.378271,
0.105696,0.47257,0.697203,1.16574,0.249102,1.63354,4.60648,0.510815,2.07221,16.4497,-3.26812,-3.88995,4.01365,0.300517,2.06295,16.5416,-3.17993,-3.78203,4.01326,0.293739,
0.105438,0.471433,0.695558,1.1629,0.248496,1.62955,4.60648,2.28157,1.91027,16.2539,-3.21219,-3.94216,4.02867,0.294705,1.9107,16.3119,-3.08373,-3.90678,4.04419,0.319536,
0.105182,0.470322,0.693885,1.16012,0.247893,1.6256,0.532733,2.28157,1.75112,16.0557,-3.15656,-3.99261,4.04341,0.288846,1.74711,16.1375,-3.08598,-3.8413,4.0356,0.251161,
0.10503,0.469259,0.692284,1.15744,0.247322,1.62168,0.532733,1.2098,1.59474,15.8549,-3.10129,-4.04132,4.05785,0.282942,1.5281,15.9752,-3.24984,-3.79144,4.00376,0.175829,
0.104792,0.468167,0.690639,1.15466,0.246729,1.61779,2.71494,1.2098,1.44111,15.6517,-3.04644,-4.08832,4.072,0.276993,1.41524,15.736,-2.96815,-4.11883,4.08795,0.378856,
0.104604,0.46707,0.688986,1.1519,0.246139,1.61393,2.71494,0.59953,1.29021,15.4463,-2.99207,-4.13364,4.08584,0.271,1.23803,15.5162,-2.97478,-4.19093,4.09511,0.358112,
0.10447,0.465995,0.687352,1.14916,0.245553,1.61009,0.851392,0.59953,1.14201,15.2386,-2.93825,-4.1773,4.0994,0.264964,1.07093,15.3247,-2.98563,-4.16379,4.09031,0.305331,
0.104746,0.464919,0.685981,1.14643,0.24499,1.60627,0.851392,1.55897,0.996486,15.0288,-2.88503,-4.21933,4.11264,0.258887,0.844471,15.1052,-3.1596,-4.19644,4.06702,0.238012,
0.105117,0.463883,0.684737,1.14379,0.244462,1.60249,2.17309,1.55897,0.853604,14.8169,-2.83246,-4.25977,4.12559,0.252769,0.687845,14.9269,-3.16234,-4.08203,4.05327,0.157647,
0.105086,0.462856,0.683155,1.14115,0.243897,1.59872,2.17309,1.1312,0.71333,14.603,-2.78061,-4.29864,4.13823,0.246611,0.615057,14.7147,-2.871,-4.15149,4.10735,0.234891,
0.104939,0.461807,0.681586,1.13848,0.243331,1.59501,2.09571,1.1312,0.575628,14.3872,-2.72952,-4.33598,4.15056,0.240414,0.508839,14.4688,-2.63843,-4.39071,4.1713,0.375167,
0.104972,0.46076,0.680002,1.13584,0.242764,1.59131,2.09571,0.504945,0.440459,14.1696,-2.67925,-4.37181,4.16258,0.234179,0.328708,14.2442,-2.70885,-4.43993,4.16457,0.330998,
0.10497,0.459699,0.678468,1.1334,0.242223,1.5877,2.1887,0.504945,0.307779,13.9502,-2.62984,-4.40617,4.17429,0.227907,0.203334,13.9881,-2.51817,-4.70881,4.22131,0.462684,
0.104808,0.458639,0.678518,1.13102,0.241878,1.58427,2.1887,3.87322,0.177545,13.7292,-2.58135,-4.43909,4.18568,0.221599,0.238199,13.7361,-1.89222,-4.78347,4.3357,0.622101,
0.104746,0.457587,0.679021,1.12879,0.241602,1.58089,0.461507,3.87322,0.0497099,13.5065,-2.53381,-4.47061,4.19676,0.215255,0.13986,13.4936,-1.75334,-4.89257,4.36828,0.637766,
0.104522,0.456544,0.678413,1.12658,0.241202,1.57742,0.461507,1.58818,-0.0757753,13.2823,-2.48728,-4.50075,4.20752,0.208878,-0.0493941,13.2578,-1.95763,-4.92905,4.33433,0.515948,
0.104299,0.455506,0.677542,1.12415,0.240747,1.57388,1.66237,1.58818,-0.198962,13.0566,-2.44179,-4.52955,4.21797,0.202468,-0.1722,13.0438,-1.99405,-4.78266,4.31737,0.396233,
0.10481,0.454474,0.678979,1.12172,0.240542,1.57049,1.66237,3.13824,-0.319903,12.8295,-2.39739,-4.55704,4.22809,0.196026,-0.13418,12.8211,-1.45416,-4.80127,4.4183,0.547621,
0.105321,0.45345,0.679731,1.11921,0.240239,1.56703,3.57259,3.13824,-0.438654,12.6011,-2.35412,-4.58326,4.23789,0.189554,-0.252042,12.5991,-1.52481,-4.68022,4.39743,0.425981,
0.105656,0.452432,0.67967,1.11671,0.239853,1.56355,3.57259,0.569432,-0.555273,12.3714,-2.31202,-4.60823,4.24737,0.183051,-0.391462,12.3667,-1.64596,-4.69995,4.37553,0.345743,
0.105851,0.451423,0.678943,1.11422,0.239389,1.56007,3.43587,0.569432,-0.669817,12.1404,-2.27111,-4.63198,4.25652,0.176519,-0.526912,12.1598,-1.78062,-4.61905,4.34445,0.243737,
0.106301,0.450426,0.678408,1.11174,0.238944,1.55661,3.43587,0.472324,-0.78235,11.9083,-2.23144,-4.65456,4.26535,0.169959,-0.60159,11.9466,-1.68593,-4.61521,4.36215,0.254644,
0.106537,0.449437,0.677341,1.10929,0.238449,1.55316,2.51523,0.472324,-0.892931,11.6751,-2.19304,-4.67598,4.27385,0.163373,-0.742409,11.7167,-1.82755,-4.61352,4.33522,0.180773,
0.106316,0.448451,0.675891,1.10687,0.237932,1.54976,2.51523,3.25228,-1.00163,11.4409,-2.15594,-4.69628,4.28202,0.156761,-0.976039,11.4741,-2.27077,-4.58712,4.25272,0.0177118,
0.106089,0.447474,0.674527,1.10451,0.237433,1.54641,1.63158,3.25228,-1.1085,11.2057,-2.12017,-4.71549,4.28985,0.150124,-1.09044,11.2462,-2.31266,-4.51836,4.23932,-0.0361535,
0.105948,0.446511,0.673783,1.10223,0.237015,1.54312,1.63158,0.954593,-1.21362,10.9695,-2.08575,-4.73364,4.29736,0.143463,-1.27983,11.024,-2.5602,-4.47519,4.19275,-0.109966,
0.105726,0.445546,0.672397,1.09983,0.236507,1.53976,2.89681,0.954593,-1.31706,10.7324,-2.05273,-4.75075,4.30453,0.136779,-1.33769,10.771,-2.21009,-4.73136,4.27539,0.127087,
0.105546,0.444583,0.671095,1.09745,0.236007,1.53642,2.89681,0.555808,-1.41889,10.4945,-2.02111,-4.76686,4.31137,0.130074,-1.4677,10.5159,-2.24076,-4.77681,4.27377,0.114032,
0.105351,0.443624,0.669668,1.09514,0.235498,1.53312,1.50773,0.555808,-1.51917,10.2559,-1.99093,-4.78198,4.31787,0.123349,-1.5591,10.2474,-2.07159,-4.9471,4.31583,0.221021,
0.105134,0.442674,0.66823,1.09281,0.234993,1.52985,1.50773,2.12062,-1.61797,10.0165,-1.96222,-4.79615,4.32404,0.116604,-1.63994,10.0398,-1.95514,-4.90116,4.33282,0.232809,
0.104912,0.441733,0.666805,1.09047,0.234491,1.52659,0.626477,2.12062,-1.71539,9.77637,-1.93497,-4.80939,4.32987,0.10984,-1.72717,9.81117,-1.89731,-4.85496,4.33984,0.207677,
0.104704,0.440809,0.665485,1.08815,0.234001,1.52336,0.626477,0.954974,-1.81147,9.53564,-1.90924,-4.82172,4.33537,0.10306,-1.78398,9.59507,-1.73216,-4.82636,4.36781,0.23968,
0.104482,0.439883,0.66414,1.08587,0.233515,1.52017,2.22022,0.954974,-1.90631,9.29431,-1.88502,-4.83316,4.34052,0.0962627,-1.90423,9.33793,-1.74042,-4.94894,4.37422,0.259612,
0.104268,0.438955,0.662901,1.08366,0.233048,1.51701,2.22022,3.94253,-1.99998,9.05243,-1.86233,-4.84374,4.34533,0.0894504,-1.98125,9.04001,-1.63591,-5.05603,4.39946,0.278616,
0.104064,0.438033,0.661619,1.08139,0.232572,1.51384,2.10705,3.94253,-2.09256,8.81003,-1.8412,-4.85347,4.3498,0.0826241,-2.0652,8.82116,-1.65307,-4.92878,4.38879,0.195035,
0.103859,0.437115,0.660332,1.07915,0.232098,1.51068,2.10705,0.0650039,-2.18412,8.56717,-1.82164,-4.86238,4.35393,0.0757847,-2.15931,8.56853,-1.64547,-4.95712,4.39189,0.182882,
0.103659,0.436205,0.658955,1.07693,0.231614,1.50754,2.43067,0.0650039,-2.27474,8.32388,-1.80365,-4.87047,4.35772,0.0689333,-2.30407,8.30826,-1.81729,-4.99179,4.36325,0.113732,
0.103472,0.435299,0.657739,1.0747,0.231151,1.50442,2.43067,1.14391,-2.3645,8.0802,-1.78727,-4.87778,4.36117,0.062071,-2.32719,8.08224,-1.56738,-4.95851,4.40623,0.179508,
0.103375,0.434406,0.656688,1.07248,0.230703,1.50133,5.52134,1.14391,-2.45348,7.83617,-1.77248,-4.8843,4.36427,0.0551989,-2.37702,7.87575,-1.45895,-4.8712,4.42139,0.179188,
0.103194,0.433515,0.655432,1.07027,0.230237,1.49825,5.52134,0.648241,-2.54177,7.59183,-1.75931,-4.89006,4.36703,0.0483182,-2.50158,7.62094,-1.58396,-4.91395,4.40056,0.127578,
0.103048,0.432631,0.654279,1.06809,0.229788,1.4952,4.44309,0.648241,-2.62944,7.34723,-1.74777,-4.89507,4.36945,0.0414297,-2.68686,7.37922,-1.99492,-4.80784,4.31908,-0.0801283,
0.102958,0.43175,0.653225,1.06592,0.229349,1.49216,4.44309,0.212256,-2.71658,7.10238,-1.73786,-4.89933,4.37152,0.0345348,-2.79452,7.12631,-2.03867,-4.82251,4.31243,-0.0848928,
0.102768,0.430878,0.651898,1.06375,0.228883,1.48913,2.32495,0.212256,-2.80326,6.85734,-1.72958,-4.90286,4.37325,0.0276344,-2.83443,6.89469,-1.75517,-4.89028,4.3678,0.0739444,
0.102578,0.430039,0.650669,1.06162,0.228425,1.48612,2.32495,2.52908,-2.88957,6.61214,-1.72295,-4.90566,4.37463,0.0207296,-2.85889,6.69805,-1.55085,-4.79202,4.3994,0.117096,
0.102459,0.429237,0.649464,1.0596,0.227967,1.48312,3.29947,2.52908,-2.97559,6.36681,-1.71797,-4.90774,4.37567,0.0138216,-2.90883,6.48478,-1.53209,-4.65024,4.39412,0.0407369,
0.102444,0.428455,0.648365,1.05761,0.227518,1.48015,3.29947,0.24762,-3.0614,6.12139,-1.71464,-4.90911,4.37636,0.00691132,-2.96267,6.25307,-1.45628,-4.64414,4.40853,0.0606977,
0.102304,0.427668,0.647136,1.05554,0.227065,1.47719,3.83554,0.24762,-3.14709,5.87592,-1.71297,-4.90976,4.3767,-1.76894e-16,-3.08964,5.99848,-1.56312,-4.752,4.3946,0.0595005,
0.102148,0.426851,0.645886,1.05344,0.226615,1.47425,3.83554,1.91391,-3.23274,5.63044,-1.71295,-4.9097,4.3767,-0.00691132,-3.18295,5.71811,-1.5994,-4.83948,4.3932,0.0503896,
0.101953,0.426035,0.64462,1.05137,0.226168,1.47132,1.69419,1.91391,-3.31843,5.38497,-1.71458,-4.90893,4.37636,-0.0138216,-3.298,5.46719,-1.78957,-4.7941,4.35512,-0.070168,
0.101752,0.42521,0.64341,1.0493,0.225729,1.46842,1.69419,0.580894,-3.40424,5.13955,-1.71787,-4.90745,4.37567,-0.0207296,-3.40555,5.20268,-1.86293,-4.83927,4.34491,-0.0811086,
0.101566,0.424391,0.642149,1.04724,0.225285,1.46553,0.633772,0.580894,-3.49026,4.89422,-1.72281,-4.90525,4.37463,-0.0276344,-3.46248,4.95792,-1.67583,-4.8952,4.38255,0.0396386,
0.10137,0.42356,0.640901,1.0452,0.224843,1.46266,0.633772,1.93487,-3.57657,4.64902,-1.72939,-4.90233,4.37325,-0.0345348,-3.59039,4.66878,-1.79401,-5.00475,4.3682,0.0175961,
0.101198,0.422733,0.639784,1.04316,0.224413,1.4598,1.63663,1.93487,-3.66325,4.40398,-1.73762,-4.89868,4.37152,-0.0414297,-3.7,4.41329,-1.94844,-4.95685,4.33786,-0.0890615,
0.101184,0.421913,0.63894,1.04117,0.224002,1.45696,1.63663,1.86038,-3.75039,4.15913,-1.74749,-4.8943,4.36945,-0.0483182,-3.84772,4.13286,-2.11075,-5.03395,4.31535,-0.111326,
0.101107,0.421096,0.63776,1.0392,0.223569,1.45415,1.75799,1.86038,-3.83806,3.91452,-1.75899,-4.88918,4.36703,-0.0551989,-3.91697,3.89515,-1.89939,-5.05704,4.3531,0.0303502,
0.100971,0.420282,0.636535,1.03721,0.223137,1.45135,1.75799,0.987822,-3.92635,3.67019,-1.77212,-4.8833,4.36427,-0.062071,-3.98207,3.67029,-1.81988,-4.98319,4.36223,0.0355781,
0.100841,0.419485,0.635344,1.03522,0.222712,1.44856,4.00948,0.987822,-4.01533,3.42616,-1.78686,-4.87666,4.36117,-0.0689333,-4.07333,3.47706,-1.8935,-4.81884,4.33799,-0.0575159,
0.100717,0.418693,0.634155,1.03324,0.222289,1.44578,4.00948,0.0215349,-4.10509,3.18248,-1.8032,-4.86925,4.35772,-0.0757847,-4.16578,3.23353,-1.90154,-4.81858,4.33652,-0.05555,
0.100665,0.417899,0.633055,1.03127,0.221875,1.44302,0.472416,0.0215349,-4.19571,2.93919,-1.82113,-4.86104,4.35393,-0.0826241,-4.28158,2.97563,-2.0134,-4.83878,4.31808,-0.105937,
0.100627,0.417104,0.631954,1.02931,0.22146,1.44027,0.472416,1.32545,-4.28727,2.69633,-1.84065,-4.85202,4.3498,-0.0894504,-4.37759,2.69566,-2.02614,-4.91485,4.32137,-0.0899246,
0.100559,0.416313,0.63077,1.02738,0.221041,1.43755,0.357066,1.32545,-4.37985,2.45393,-1.86173,-4.84218,4.34533,-0.0962627,-4.46056,2.44654,-1.93073,-4.93582,4.33952,-0.0149329,
0.100537,0.415533,0.629593,1.02549,0.220623,1.43485,0.357066,0.507283,-4.47352,2.21205,-1.88436,-4.83149,4.34052,-0.10306,-4.56809,2.17497,-1.95273,-5.00219,4.34021,-0.00759565,
0.100552,0.414752,0.628575,1.02357,0.22022,1.43215,3.58299,0.507283,-4.56836,1.97072,-1.90853,-4.81994,4.33537,-0.10984,-4.67273,1.95448,-2.14446,-4.86672,4.29735,-0.172168,
0.100689,0.413991,0.627623,1.02169,0.219819,1.42947,3.58299,1.35308,-4.66444,1.72998,-1.93422,-4.80751,4.32987,-0.116604,-4.79656,1.67067,-2.20973,-4.96134,4.29338,-0.155637,
0.100944,0.413238,0.626783,1.01982,0.219427,1.42681,0.0930503,1.35308,-4.76186,1.48989,-1.9614,-4.79417,4.32404,-0.123349,-4.91659,1.42295,-2.29549,-4.93907,4.27733,-0.182908,
0.100997,0.41248,0.625799,1.01793,0.219032,1.42416,0.0930503,5.38247,-4.86067,1.25049,-1.99007,-4.7799,4.31787,-0.130074,-4.97481,1.20251,-2.2376,-4.8254,4.27819,-0.182825,
0.101005,0.411716,0.624699,1.01604,0.218633,1.42152,1.32289,5.38247,-4.96094,1.01182,-2.02019,-4.76468,4.31137,-0.136779,-5.0642,0.996907,-2.16187,-4.72438,4.28323,-0.122088,
0.100886,0.410956,0.623554,1.01418,0.218231,1.41889,1.32289,3.93846,-5.06277,0.77393,-2.05174,-4.74848,4.30453,-0.143463,-5.12345,0.774249,-2.10641,-4.65669,4.28759,-0.116367,
0.100755,0.410225,0.622409,1.01234,0.21783,1.41629,5.60444,3.93846,-5.16621,0.536876,-2.08471,-4.73127,4.29736,-0.150124,-5.22086,0.461933,-2.11212,-4.85634,4.30215,-0.0904768,
0.10058,0.409498,0.621273,1.01051,0.217433,1.4137,5.60444,1.60801,-5.27133,0.300706,-2.11906,-4.71303,4.28985,-0.156761,-5.29496,0.225642,-2.0777,-4.82077,4.30546,-0.0828015,
0.100408,0.408776,0.620223,1.00869,0.217049,1.41116,5.78208,1.60801,-5.3782,0.0654719,-2.15477,-4.69374,4.28202,-0.163373,-5.40338,-0.010692,-1.98491,-4.81879,4.32166,0.0143658,
0.10023,0.408059,0.619303,1.00688,0.216681,1.40864,5.78208,1.59063,-5.4869,-0.168772,-2.19181,-4.67335,4.27385,-0.169959,-5.47036,-0.245831,-1.92544,-4.79831,4.33078,0.0240794,
0.100049,0.407319,0.618235,1.00507,0.216291,1.40609,3.36976,1.59063,-5.59748,-0.401971,-2.23014,-4.65185,4.26535,-0.176519,-5.59291,-0.403004,-2.09315,-4.57048,4.28292,-0.0993117,
0.0998751,0.406599,0.617127,1.00335,0.215901,1.40355,3.36976,1.9138,-5.71001,-0.634069,-2.26974,-4.62919,4.25652,-0.183051,-5.72965,-0.573933,-2.2127,-4.40368,4.24677,-0.157854,
0.0997049,0.405886,0.616054,1.00162,0.215525,1.40104,4.98268,1.9138,-5.82456,-0.865006,-2.31058,-4.60536,4.24737,-0.189554,-5.84768,-0.798737,-2.42392,-4.39034,4.20793,-0.289891,
0.0995263,0.405158,0.614951,0.999827,0.215139,1.39852,4.98268,2.264,-5.94118,-1.09472,-2.35262,-4.58032,4.23789,-0.196026,-5.94462,-1.0902,-2.3838,-4.56484,4.23113,-0.214033,
0.0993642,0.404446,0.613885,0.998083,0.214763,1.39603,3.21195,2.264,-6.05993,-1.32316,-2.39581,-4.55404,4.22809,-0.202468,-6.03027,-1.37468,-2.29012,-4.70811,4.25966,-0.12967,
0.0991886,0.403728,0.612794,0.996312,0.214381,1.39355,3.21195,0.861483,-6.18087,-1.55025,-2.44014,-4.52648,4.21797,-0.208878,-6.17238,-1.57516,-2.41116,-4.58949,4.22866,-0.176759,
0.0990177,0.403016,0.611846,0.994552,0.214008,1.39109,2.67554,0.861483,-6.30406,-1.77593,-2.48555,-4.49762,4.20752,-0.215255,-6.32102,-1.80623,-2.70456,-4.56095,4.17715,-0.334051,
0.0988426,0.402324,0.610833,0.992843,0.213631,1.38864,2.67554,0.77887,-6.42954,-2.00014,-2.532,-4.46742,4.19676,-0.221599,-6.42985,-2.06967,-2.68699,-4.63509,4.18703,-0.282772,
0.0986791,0.401622,0.60983,0.991095,0.213259,1.38619,3.11772,0.77887,-6.55738,-2.22281,-2.57946,-4.43585,4.18568,-0.227907,-6.58179,-2.25987,-2.73895,-4.46769,4.16242,-0.271226,
0.0985474,0.400919,0.6089,0.989356,0.212897,1.38376,3.11772,0.218374,-6.68761,-2.44386,-2.62788,-4.40288,4.17429,-0.234179,-6.73597,-2.46615,-2.84871,-4.37542,4.13526,-0.296969,
0.0984728,0.400217,0.608043,0.987638,0.212547,1.38135,0.812333,0.218374,-6.82029,-2.66323,-2.6772,-4.36847,4.16258,-0.240414,-6.89452,-2.66972,-2.94649,-4.28218,4.10971,-0.312948,
0.0983099,0.399553,0.606992,0.98598,0.212178,1.37894,0.812333,3.19743,-6.95546,-2.88084,-2.7274,-4.3326,4.15056,-0.246611,-6.97773,-2.96846,-2.78396,-4.52227,4.16057,-0.183953,
0.0981408,0.398901,0.605948,0.984342,0.211817,1.37657,0.366674,3.19743,-7.09316,-3.09663,-2.7784,-4.29523,4.13823,-0.252769,-7.10304,-3.19552,-2.71786,-4.50216,4.16927,-0.124293,
0.0979714,0.398232,0.604911,0.982666,0.211455,1.3742,0.366674,1.36936,-7.23344,-3.31051,-2.83017,-4.25632,4.12559,-0.258887,-7.22819,-3.38162,-2.76316,-4.38371,4.14997,-0.152198,
0.0978029,0.397607,0.603913,0.981091,0.211109,1.37186,4.47382,1.36936,-7.37632,-3.5224,-2.88265,-4.21586,4.11264,-0.264964,-7.37054,-3.64189,-2.75656,-4.47804,4.1606,-0.113366,
0.0976408,0.396924,0.602877,0.97941,0.210747,1.3695,4.47382,4.32845,-7.52184,-3.73223,-2.93579,-4.1738,4.0994,-0.271,-7.54037,-3.74874,-2.96819,-4.11522,4.08753,-0.24484,
0.0974789,0.396245,0.601854,0.977734,0.210387,1.36715,0.461941,4.32845,-7.67004,-3.93992,-2.98953,-4.13012,4.08584,-0.276993,-7.68775,-3.95405,-3.04904,-4.09016,4.0718,-0.262452,
0.0973159,0.39558,0.600826,0.976077,0.210029,1.36482,0.461941,0.704509,-7.82094,-4.14539,-3.04381,-4.08479,4.072,-0.282942,-7.83489,-4.19814,-3.05081,-4.17014,4.08078,-0.218646,
0.0971519,0.394929,0.599808,0.97445,0.209675,1.36251,0.441998,0.704509,-7.97457,-4.34854,-3.09857,-4.03778,4.05785,-0.288846,-7.98444,-4.41982,-3.06152,-4.17776,4.07998,-0.194975,
0.0969881,0.394325,0.598817,0.972941,0.209338,1.36022,0.441998,1.28154,-8.13095,-4.5493,-3.15376,-3.98906,4.04341,-0.294705,-8.13857,-4.67345,-3.05574,-4.27638,4.09196,-0.151755,
0.0968316,0.393738,0.598083,0.971443,0.209041,1.358,1.98848,1.28154,-8.29011,-4.74759,-3.2093,-3.93861,4.02867,-0.300517,-8.26939,-4.88371,-2.89545,-4.22946,4.11208,-0.057401,
0.096728,0.39319,0.597573,0.970062,0.208788,1.35581,1.98848,0.200343,-8.45204,-4.94331,-3.26514,-3.88641,4.01365,-0.306282,-8.39359,-5.10732,-2.84509,-4.27068,4.12471,-0.028514,
0.0966638,0.392602,0.597192,0.968556,0.208528,1.35362,3.24528,0.200343,-8.61678,-5.13637,-3.32121,-3.83242,3.99833,-0.311998,-8.54158,-5.26635,-2.85038,-4.09825,4.10468,-0.0422507,
0.0965467,0.392018,0.596614,0.967036,0.208244,1.35141,3.24528,1.98916,-8.78433,-5.32669,-3.37745,-3.77663,3.98273,-0.317665,-8.73355,-5.45794,-2.99002,-4.01882,4.07274,-0.0962985,
0.096451,0.39145,0.596048,0.965552,0.207968,1.34922,0.272761,1.98916,-8.95469,-5.51417,-3.43377,-3.71901,3.96685,-0.323282,-8.89317,-5.65594,-3.04215,-3.99173,4.06118,-0.110155,
0.0963992,0.390882,0.595508,0.964071,0.207696,1.34702,0.272761,0.0899686,-9.12788,-5.69872,-3.49012,-3.65955,3.95068,-0.328848,-9.04855,-5.83869,-3.08784,-3.92859,4.04625,-0.127975,
0.0964663,0.390283,0.595175,0.962524,0.207425,1.34484,5.27333,0.0899686,-9.30388,-5.88026,-3.54643,-3.59823,3.93424,-0.334362,-9.18899,-5.98658,-3.06195,-3.7692,4.03016,-0.132369,
0.0964937,0.389638,0.594526,0.960961,0.207091,1.34263,5.27333,3.80368,-9.4827,-6.05868,-3.60261,-3.53503,3.91752,-0.339823,-9.37825,-6.06136,-3.25582,-3.40918,3.95,-0.270989,
0.096526,0.388997,0.593786,0.959389,0.206758,1.34042,1.19024,3.80368,-9.66432,-6.23389,-3.6586,-3.46994,3.90053,-0.34523,-9.55848,-6.24165,-3.36519,-3.39522,3.93143,-0.285276,
0.0968397,0.388378,0.593395,0.957861,0.206482,1.33826,1.19024,0.828984,-9.84874,-6.4058,-3.71431,-3.40294,3.88327,-0.350583,-9.68195,-6.47337,-3.25489,-3.5667,3.97267,-0.18155,
0.0968978,0.38775,0.592499,0.956301,0.206152,1.33607,7.15754,0.828984,-10.0359,-6.57431,-3.76968,-3.33404,3.86574,-0.355881,-9.92271,-6.61526,-3.6051,-3.3932,3.89672,-0.325555,
0.0969053,0.387126,0.591567,0.954746,0.20582,1.33389,7.15754,0.642386,-10.2259,-6.73933,-3.82463,-3.26321,3.84795,-0.361122,-10.1267,-6.78413,-3.71366,-3.3122,3.86991,-0.343699,
0.0969145,0.386503,0.590613,0.953197,0.205486,1.33172,0.781924,0.642386,-10.4186,-6.90075,-3.87907,-3.19046,3.82989,-0.366306,-10.3189,-6.93729,-3.82785,-3.22958,3.84242,-0.3675,
0.0968328,0.385899,0.589657,0.951672,0.205155,1.32957,0.781924,3.79498,-10.614,-7.05849,-3.93293,-3.11577,3.81158,-0.371433,-10.5469,-7.13059,-3.94267,-3.22052,3.82652,-0.359646,
0.096713,0.385283,0.588734,0.950137,0.204826,1.32742,1.48464,3.79498,-10.8121,-7.21245,-3.98613,-3.03916,3.793,-0.376501,-10.7653,-7.25375,-4.08817,-3.02173,3.77811,-0.41779,
0.0965575,0.384681,0.587879,0.948608,0.2045,1.32529,1.48464,3.43944,-11.0128,-7.36252,-4.03859,-2.96062,3.77418,-0.381509,-11.01,-7.42693,-4.22207,-2.96558,3.75393,-0.420712,
0.0964045,0.384071,0.586979,0.947098,0.204178,1.32317,1.30703,3.43944,-11.2161,-7.50861,-4.09021,-2.88015,3.7551,-0.386458,-11.2055,-7.55207,-4.216,-2.79896,3.72767,-0.430989,
0.0963746,0.383485,0.586059,0.94561,0.203858,1.32106,1.30703,3.50115,-11.422,-7.65064,-4.14093,-2.79777,3.73578,-0.391345,-11.3355,-7.7322,-4.05756,-2.92228,3.76575,-0.323667,
0.0963652,0.382888,0.585143,0.944107,0.203535,1.31895,1.58499,3.50115,-11.6304,-7.78849,-4.19067,-2.71348,3.71621,-0.39617,-11.5371,-7.84688,-4.11103,-2.76076,3.73297,-0.354758,
0.0964913,0.382284,0.584257,0.942607,0.203214,1.31686,1.58499,2.71013,-11.8413,-7.92208,-4.23932,-2.6273,3.6964,-0.400933,-11.7111,-7.9538,-4.11224,-2.6341,3.7113,-0.363879,
0.0966855,0.381679,0.583438,0.941137,0.202892,1.31477,1.10167,2.71013,-12.0546,-8.05131,-4.28682,-2.53924,3.67636,-0.405632,-11.9091,-8.05346,-4.08884,-2.42313,3.67657,-0.397692,
0.0969029,0.381081,0.582592,0.939716,0.202575,1.3127,1.10167,0.237342,-12.2702,-8.17609,-4.33308,-2.44932,3.65608,-0.410268,-12.1195,-8.14399,-4.16706,-2.25291,3.63723,-0.433629,
0.0970447,0.380483,0.581675,0.938243,0.202257,1.31063,2.91732,0.237342,-12.4881,-8.29633,-4.37802,-2.35756,3.63556,-0.414838,-12.3534,-8.27188,-4.37805,-2.29951,3.62523,-0.400597,
0.0972832,0.379898,0.580764,0.936791,0.201942,1.30858,2.91732,1.40091,-12.7082,-8.41193,-4.42155,-2.26399,3.61482,-0.419343,-12.5526,-8.35863,-4.39882,-2.15414,3.59697,-0.416723,
0.0975684,0.379341,0.579874,0.935449,0.201641,1.30653,1.25175,1.40091,-12.9304,-8.5228,-4.4636,-2.16863,3.59385,-0.423782,-12.7654,-8.42783,-4.38226,-1.89751,3.55022,-0.475541,
0.0976204,0.378795,0.578974,0.934168,0.201358,1.30451,1.25175,4.08898,-13.1547,-8.62886,-4.50407,-2.07151,3.57267,-0.428154,-13.0417,-8.52398,-4.54111,-1.74599,3.50865,-0.505185,
0.0975737,0.378258,0.578139,0.932846,0.201077,1.30248,2.68403,4.08898,-13.381,-8.73002,-4.54289,-1.97267,3.55126,-0.432459,-13.2998,-8.61805,-4.69926,-1.69373,3.48752,-0.481158,
0.0975628,0.377769,0.577292,0.931612,0.200811,1.30047,2.68403,1.40745,-13.6092,-8.82619,-4.57997,-1.87214,3.52963,-0.436695,-13.5152,-8.6727,-4.71398,-1.5156,3.45267,-0.501915,
0.097563,0.377401,0.57641,0.930846,0.200628,1.2985,2.88179,1.40745,-13.8392,-8.91729,-4.61524,-1.76997,3.5078,-0.440862,-13.7416,-8.68738,-4.67564,-1.13292,3.37931,-0.615326,
0.0976591,0.376936,0.575526,0.929617,0.200353,1.2965,2.88179,1.82278,-14.0709,-9.00324,-4.64861,-1.6662,3.48576,-0.444959,-13.946,-8.83466,-4.6118,-1.31514,3.41939,-0.489176,
0.097669,0.376455,0.574673,0.928229,0.200055,1.29451,2.88852,1.82278,-14.3043,-9.08395,-4.68001,-1.56086,3.46351,-0.448987,-14.2035,-8.9297,-4.7862,-1.40774,3.42765,-0.392625,
0.0977676,0.375909,0.573794,0.926834,0.199754,1.29256,2.88852,0.961996,-14.5391,-9.15936,-4.70936,-1.45402,3.44106,-0.452943,-14.4133,-9.07287,-4.70192,-1.58009,3.46579,-0.290685,
0.097917,0.375362,0.572933,0.925451,0.199456,1.29062,0.414194,0.961996,-14.7754,-9.22939,-4.73658,-1.34573,3.41841,-0.456828,-14.637,-9.14911,-4.66343,-1.48146,3.44919,-0.304929,
0.0978545,0.374907,0.572094,0.924105,0.199167,1.28866,0.414194,1.69391,-15.013,-9.29397,-4.76161,-1.23603,3.39557,-0.46064,-14.9384,-9.12496,-4.87228,-1.04198,3.35228,-0.449682,
0.0977503,0.374433,0.571274,0.922728,0.198872,1.2867,4.55045,1.69391,-15.2517,-9.35302,-4.78436,-1.125,3.37254,-0.46438,-15.1984,-9.19989,-4.91772,-1.00491,3.34316,-0.424728,
0.0976257,0.373883,0.570436,0.921394,0.198579,1.28479,4.55045,5.34263,-15.4916,-9.40649,-4.80476,-1.01269,3.34932,-0.468047,-15.4529,-9.3436,-4.90437,-1.20617,3.38275,-0.317464,
0.0975029,0.373349,0.569577,0.920007,0.19828,1.28285,2.18877,5.34263,-15.7324,-9.45431,-4.82275,-0.899159,3.32592,-0.47164,-15.6927,-9.36959,-4.83229,-0.925768,3.33088,-0.416597,
0.0973704,0.372791,0.568721,0.918693,0.197995,1.28094,2.18877,2.04983,-15.9741,-9.49642,-4.83827,-0.784484,3.30233,-0.475158,-15.9439,-9.46682,-4.84412,-0.990333,3.34325,-0.357524,
0.0972304,0.372249,0.567869,0.917319,0.197699,1.27902,2.21191,2.04983,-16.2164,-9.53277,-4.85124,-0.668734,3.27858,-0.478601,-16.1969,-9.46877,-4.85554,-0.698325,3.28443,-0.448867,
0.0970861,0.371744,0.567026,0.915978,0.197409,1.27711,2.21191,0.481519,-16.4594,-9.5633,-4.8616,-0.55198,3.25465,-0.481969,-16.4515,-9.45017,-4.90747,-0.416916,3.22634,-0.511549,
0.0969612,0.371268,0.566183,0.914685,0.197129,1.27522,4.83075,0.481519,-16.7027,-9.58797,-4.8693,-0.4343,3.23055,-0.48526,-16.6669,-9.44892,-4.84533,-0.226248,3.18825,-0.545964,
0.0968184,0.370853,0.565353,0.913547,0.196879,1.27334,4.83075,1.43191,-16.9464,-9.60673,-4.87427,-0.315773,3.20629,-0.488475,-16.9551,-9.42212,-4.93679,0.0524607,3.13097,-0.595752,
0.0966767,0.370358,0.564542,0.912195,0.196588,1.27146,8.23876,1.43191,-17.1903,-9.61954,-4.87646,-0.196479,3.18186,-0.491613,-17.2004,-9.50377,-4.97596,-0.173778,3.1765,-0.429831,
0.0965451,0.369853,0.563748,0.91085,0.196298,1.26959,8.23876,0.508066,-17.4342,-9.62636,-4.87583,-0.0765024,3.15728,-0.494673,-17.4613,-9.52371,-4.99809,-0.104117,3.16242,-0.417153,
0.0964301,0.369365,0.562947,0.909517,0.19601,1.26772,1.65313,0.508066,-17.6781,-9.62717,-4.87232,0.0440703,3.13255,-0.497655,-17.7202,-9.5087,-4.97821,0.111145,3.11927,-0.477395,
0.0963356,0.368916,0.562165,0.908228,0.195731,1.26586,1.65313,0.156008,-17.9216,-9.62194,-4.86588,0.165151,3.10766,-0.500558,-17.9771,-9.4691,-4.99487,0.333135,3.075,-0.511795,
0.0962469,0.368514,0.561362,0.907044,0.19547,1.26401,0.417524,0.156008,-18.1648,-9.61064,-4.85648,0.286648,3.08264,-0.503383,-18.2234,-9.42403,-4.94327,0.586621,3.02347,-0.578727,
0.0961065,0.368014,0.560547,0.905723,0.195186,1.26217,0.417524,2.23555,-18.4074,-9.59325,-4.84408,0.40847,3.05747,-0.506127,-18.4075,-9.49598,-4.80597,0.368292,3.06511,-0.462927,
0.0959679,0.367501,0.559732,0.904458,0.194912,1.26035,1.75689,2.23555,-18.6493,-9.56977,-4.82864,0.530522,3.03216,-0.508792,-18.6405,-9.49425,-4.83883,0.350667,3.06925,-0.384415,
0.0958287,0.366981,0.558924,0.903232,0.194647,1.25855,1.75689,0.265001,-18.8904,-9.54017,-4.81012,0.652707,3.00672,-0.511377,-18.8917,-9.48269,-4.8478,0.421177,3.05493,-0.376012,
0.095692,0.366463,0.558125,0.902045,0.19439,1.25675,3.86294,0.265001,-19.1305,-9.50446,-4.78851,0.774927,2.98115,-0.513881,-19.1194,-9.44923,-4.84876,0.502394,3.03835,-0.354731,
0.0955557,0.366038,0.557353,0.900755,0.19411,1.25494,3.86294,3.12451,-19.3694,-9.46265,-4.76378,0.897083,2.95546,-0.516304,-19.3799,-9.30075,-4.87687,0.978936,2.94349,-0.484458,
0.0954198,0.365671,0.556558,0.899558,0.193848,1.25314,0.89961,3.12451,-19.6069,-9.41472,-4.73591,1.01907,2.92964,-0.518645,-19.6169,-9.21339,-4.7841,1.26684,2.88273,-0.578212,
0.0952974,0.365469,0.555767,0.898668,0.193635,1.25137,0.89961,0.885869,-19.8431,-9.36071,-4.70487,1.1408,2.90371,-0.520904,-19.874,-9.07375,-4.75887,1.64156,2.80943,-0.649755,
0.0951856,0.36539,0.554989,0.897892,0.193437,1.24959,4.78902,0.885869,-20.0775,-9.30061,-4.67066,1.26215,2.87767,-0.523081,-20.1179,-8.96399,-4.74972,1.82731,2.77433,-0.626848,
0.0950888,0.364892,0.554219,0.896737,0.193182,1.24783,4.78902,15.0139,-20.3102,-9.23446,-4.63328,1.38303,2.85151,-0.525176,-20.2593,-9.15861,-4.54202,1.10196,2.90358,-0.387816,
0.094985,0.364377,0.553433,0.895742,0.192958,1.2461,1.50839,15.0139,-20.5409,-9.16227,-4.59271,1.50334,2.82525,-0.527187,-20.4951,-9.12853,-4.56708,1.08321,2.90872,-0.328714,
0.0948829,0.363878,0.552649,0.894621,0.192713,1.24436,1.50839,0.888054,-20.7695,-9.08408,-4.54896,1.62296,2.79889,-0.529115,-20.7229,-9.01747,-4.55558,1.31673,2.86022,-0.380528,
0.0947626,0.36338,0.55187,0.893474,0.192463,1.24262,2.58089,0.888054,-20.9959,-8.99994,-4.50202,1.74179,2.77244,-0.53096,-20.9654,-8.93639,-4.53351,1.46909,2.82822,-0.416439,
0.0946834,0.362874,0.551092,0.892391,0.192223,1.24088,2.58089,1.0695,-21.2198,-8.90987,-4.45191,1.85973,2.74589,-0.532721,-21.1594,-8.8698,-4.44974,1.52551,2.81132,-0.410196,
0.0945856,0.362367,0.550318,0.891283,0.191979,1.23915,1.98156,1.0695,-21.4412,-8.81393,-4.39865,1.97666,2.71925,-0.534397,-21.3924,-8.7833,-4.40532,1.67293,2.77866,-0.449674,
0.0945517,0.361873,0.549548,0.890507,0.191791,1.23744,1.98156,1.13808,-21.6597,-8.71217,-4.34223,2.0925,2.69253,-0.53599,-21.5781,-8.77202,-4.31615,1.54398,2.79806,-0.382238,
0.0945905,0.361369,0.548871,0.889385,0.191532,1.23571,5.89055,1.13808,-21.8754,-8.60465,-4.2827,2.20712,2.66574,-0.537497,-21.7679,-8.62384,-4.09401,1.927,2.70167,-0.587738,
0.0946688,0.360875,0.54819,0.88831,0.191279,1.23399,5.89055,0.0651873,-22.088,-8.49143,-4.22007,2.32043,2.63886,-0.53892,-21.9686,-8.54156,-4.03768,1.99635,2.68241,-0.571403,
0.0947458,0.360394,0.547439,0.887352,0.191052,1.23228,2.44859,0.0651873,-22.2975,-8.37258,-4.15437,2.43232,2.61191,-0.540258,-22.1782,-8.44609,-4.09091,2.01237,2.68444,-0.464641,
0.094726,0.359923,0.546681,0.886374,0.190828,1.23058,2.44859,1.52182,-22.5035,-8.24817,-4.08564,2.5427,2.5849,-0.54151,-22.4162,-8.33359,-4.10225,2.14138,2.6605,-0.464797,
0.0947431,0.359467,0.545926,0.885385,0.190599,1.22888,0.702809,1.52182,-22.7061,-8.11829,-4.01391,2.65145,2.55783,-0.542677,-22.6053,-8.22223,-3.99667,2.26233,2.62651,-0.500008,
0.09464,0.358981,0.545175,0.884186,0.190338,1.22719,0.702809,6.02748,-22.9049,-7.98301,-3.93923,2.75848,2.53069,-0.543759,-22.8615,-7.93224,-3.96428,2.87579,2.51401,-0.630653,
0.0945384,0.358506,0.544448,0.883064,0.190096,1.22555,2.60334,6.02748,-23.1,-7.84243,-3.86163,2.8637,2.5035,-0.544754,-23.0558,-7.77371,-3.76662,3.10879,2.45158,-0.736588,
0.0944095,0.358063,0.543715,0.882071,0.189869,1.22391,2.60334,2.08275,-23.2911,-7.69663,-3.78118,2.96699,2.47627,-0.545663,-23.2841,-7.58442,-3.70837,3.34097,2.40827,-0.74209,
0.0942823,0.357609,0.543008,0.880915,0.18961,1.22224,2.52974,2.08275,-23.4781,-7.54572,-3.69792,3.06828,2.44898,-0.546486,-23.4896,-7.44938,-3.81823,3.24887,2.43659,-0.535583,
0.0941554,0.357141,0.542284,0.879727,0.189352,1.22057,2.52974,0.809254,-23.6609,-7.3898,-3.61191,3.16746,2.42166,-0.547223,-23.6502,-7.31828,-3.69124,3.25727,2.41857,-0.527216,
0.0940279,0.356678,0.541603,0.878538,0.189095,1.21892,0.859492,0.809254,-23.8393,-7.22897,-3.52321,3.26445,2.3943,-0.547874,-23.845,-7.15088,-3.67368,3.33071,2.40512,-0.478466,
0.0939037,0.356197,0.540914,0.877415,0.188858,1.21728,0.859492,2.41012,-24.0132,-7.06336,-3.43189,3.35916,2.3669,-0.548437,-23.998,-7.08641,-3.56597,3.14822,2.41833,-0.430639,
0.0937809,0.355715,0.540201,0.876254,0.18861,1.21564,1.98314,2.41012,-24.1825,-6.89307,-3.33801,3.45149,2.33948,-0.548915,-24.1655,-6.9006,-3.42302,3.32232,2.37112,-0.501439,
0.0936569,0.355266,0.53948,0.8751,0.188356,1.214,1.98314,2.80848,-24.347,-6.71823,-3.24166,3.54138,2.31204,-0.549305,-24.3337,-6.62819,-3.29691,3.67506,2.30201,-0.56554,
0.0935313,0.354819,0.538754,0.873964,0.188106,1.21237,3.45806,2.80848,-24.5066,-6.53895,-3.14289,3.62873,2.28457,-0.549609,-24.5019,-6.44853,-3.14144,3.79074,2.2628,-0.622459,
0.0934816,0.354345,0.53806,0.872793,0.187855,1.21075,3.45806,5.36321,-24.6612,-6.35538,-3.0418,3.71347,2.25709,-0.549826,-24.5885,-6.33535,-2.93415,3.67966,2.24395,-0.609313,
0.0934496,0.353872,0.537364,0.871628,0.187604,1.20913,0.310119,5.36321,-24.8107,-6.16764,-2.93846,3.79553,2.2296,-0.549957,-24.7301,-6.14916,-2.84114,3.75519,2.2185,-0.586971,
0.0933459,0.353406,0.536649,0.870466,0.187355,1.20752,0.310119,2.85199,-24.955,-5.97587,-2.83296,3.87484,2.2021,-0.55,-24.9168,-5.93516,-2.80875,3.90306,2.19457,-0.576512,
0.0932506,0.352946,0.535935,0.86931,0.187106,1.20591,1.81093,2.85199,-25.094,-5.7802,-2.72538,3.95132,2.1746,-0.549957,-25.049,-5.72778,-2.71431,3.99168,2.16797,-0.552852,
0.0931594,0.352479,0.535224,0.868162,0.186858,1.20431,1.81093,0.405092,-25.2276,-5.58079,-2.61581,4.02492,2.1471,-0.549826,-25.1797,-5.56754,-2.61485,3.96621,2.15367,-0.535549,
0.0930426,0.352012,0.534573,0.867042,0.186623,1.20273,1.07164,0.405092,-25.3556,-5.37777,-2.50435,4.09557,2.11961,-0.549609,-25.3342,-5.38279,-2.65685,3.9577,2.16201,-0.427168,
0.0929204,0.351549,0.533976,0.865905,0.186391,1.20116,1.07164,0.588747,-25.4779,-5.1713,-2.39109,4.16322,2.09213,-0.549305,-25.4847,-5.15167,-2.60071,4.09122,2.13704,-0.430822,
0.092803,0.351087,0.533542,0.864825,0.186191,1.19963,5.66599,0.588747,-25.5946,-4.96152,-2.27613,4.22781,2.06467,-0.548915,-25.6133,-4.98,-2.60662,4.02863,2.14508,-0.33867,
0.0926898,0.350647,0.533175,0.863849,0.186019,1.19811,5.66599,0.494901,-25.7055,-4.7486,-2.15956,4.2893,2.03722,-0.548437,-25.7303,-4.82223,-2.52757,3.96581,2.13822,-0.325219,
0.0925878,0.350214,0.532838,0.862871,0.185849,1.19658,0.155759,0.494901,-25.8105,-4.53268,-2.04149,4.34764,2.0098,-0.547874,-25.8476,-4.61704,-2.42507,4.02925,2.11259,-0.352658,
0.0925146,0.349765,0.532567,0.861809,0.185673,1.19505,0.155759,0.640709,-25.9096,-4.31392,-1.92202,4.40279,1.98241,-0.547223,-25.9677,-4.36231,-2.33844,4.19607,2.07922,-0.375484,
0.0924647,0.349316,0.531958,0.8607,0.185444,1.1935,11.5629,0.640709,-26.0027,-4.0925,-1.80125,4.45471,1.95504,-0.546486,-26.0736,-4.13615,-1.98755,4.35701,1.99877,-0.612461,
0.0924258,0.348867,0.531302,0.859599,0.185205,1.19196,11.5629,1.75797,-26.0897,-3.86856,-1.67928,4.50337,1.92772,-0.545663,-26.1657,-3.83275,-1.7993,4.61194,1.94277,-0.647824,
0.0923765,0.348426,0.530628,0.858538,0.18497,1.19047,2.4341,1.75797,-26.1706,-3.64227,-1.55623,4.54875,1.90044,-0.544754,-26.2415,-3.58927,-1.47805,4.73536,1.87335,-0.783522,
0.0922605,0.348008,0.530103,0.857526,0.18476,1.18902,2.4341,4.00338,-26.2453,-3.4138,-1.4322,4.59081,1.8732,-0.543759,-26.2609,-3.31988,-1.17548,4.84672,1.80873,-0.817625,
0.0921415,0.347601,0.529663,0.856521,0.184561,1.18756,0.0201809,4.00338,-26.3138,-3.18332,-1.30729,4.62954,1.84601,-0.542677,-26.3156,-3.07698,-0.990718,4.88768,1.77078,-0.806533,
0.092054,0.347191,0.529454,0.855484,0.184389,1.18612,0.0201809,1.33764,-26.376,-2.95098,-1.18162,4.66493,1.81888,-0.54151,-26.3289,-2.85056,-0.740671,4.87321,1.72163,-0.821834,
0.0919577,0.346774,0.52901,0.854414,0.184185,1.18462,2.28546,1.33764,-26.4319,-2.71697,-1.05529,4.69695,1.7918,-0.540258,-26.3924,-2.63033,-0.743725,4.83103,1.72354,-0.686076,
0.0918458,0.346332,0.528491,0.853339,0.183966,1.18312,2.28546,6.00733,-26.4815,-2.48143,-0.928411,4.72562,1.76479,-0.53892,-26.461,-2.50377,-0.673561,4.61461,1.71574,-0.665808,
0.0917289,0.345892,0.527843,0.852272,0.183734,1.18161,1.45463,6.00733,-26.5247,-2.24456,-0.80109,4.75091,1.73784,-0.537497,-26.5198,-2.26909,-0.695207,4.62998,1.71984,-0.53779,
0.0916129,0.345473,0.527181,0.851259,0.1835,1.18011,1.45463,1.07625,-26.5616,-2.0065,-0.673434,4.77284,1.71097,-0.53599,-26.5688,-2.08215,-0.610008,4.5534,1.70397,-0.526551,
0.0914975,0.345057,0.526515,0.850249,0.183269,1.17862,1.88847,1.07625,-26.5921,-1.76744,-0.545553,4.79141,1.68417,-0.534397,-26.6004,-1.84706,-0.584597,4.57334,1.69793,-0.442985,
0.0913844,0.344635,0.525849,0.849213,0.183037,1.17713,1.88847,1.18186,-26.6161,-1.52753,-0.417552,4.80664,1.65745,-0.532721,-26.6019,-1.59058,-0.429294,4.64106,1.66303,-0.45979,
0.0912889,0.344224,0.525222,0.848193,0.18281,1.17564,1.77654,1.18186,-26.6338,-1.28695,-0.289538,4.81852,1.63081,-0.53096,-26.5958,-1.36917,-0.164385,4.62984,1.60629,-0.574825,
0.0912014,0.343823,0.524601,0.847182,0.182584,1.17416,1.77654,0.00072927,-26.6451,-1.04586,-0.161615,4.8271,1.60427,-0.529115,-26.6005,-1.13955,-0.0313878,4.62893,1.57758,-0.574841,
0.091092,0.34344,0.523947,0.846193,0.182355,1.17269,5.13074,0.00072927,-26.65,-0.804425,-0.0338883,4.83238,1.57781,-0.527187,-26.6304,-0.920996,0.0137293,4.60671,1.56782,-0.536223,
0.090978,0.343042,0.52329,0.845167,0.182127,1.17122,5.13074,0.702959,-26.6485,-0.562812,0.0935412,4.83439,1.55145,-0.525176,-26.6448,-0.657573,0.10828,4.68151,1.54767,-0.52516,
0.0908655,0.342646,0.522679,0.844138,0.181905,1.16976,2.33486,0.702959,-26.6406,-0.321181,0.220572,4.83317,1.52519,-0.523081,-26.6307,-0.416213,0.354397,4.69323,1.49543,-0.626778,
0.090776,0.34222,0.52215,0.843086,0.181693,1.16832,2.33486,2.60326,-26.6264,-0.0796947,0.347104,4.82874,1.49904,-0.520904,-26.5848,-0.0990984,0.574234,4.85175,1.45299,-0.637284,
0.0906843,0.341795,0.521642,0.842037,0.181483,1.16688,2.73878,2.60326,-26.6059,0.161489,0.473041,4.82116,1.47299,-0.518645,-26.5666,0.142832,0.716933,4.83584,1.42361,-0.644737,
0.0905906,0.341379,0.521152,0.841025,0.181273,1.16545,2.73878,1.39533,-26.5792,0.402213,0.598287,4.81045,1.44706,-0.516304,-26.542,0.450375,0.856071,4.95998,1.39988,-0.62804,
0.0904813,0.340966,0.520528,0.840015,0.18105,1.164,1.80561,1.39533,-26.5462,0.642323,0.722748,4.79667,1.42124,-0.513881,-26.5316,0.694204,0.817157,4.94247,1.40694,-0.508343,
0.090375,0.340581,0.519886,0.839062,0.180826,1.16257,1.80561,2.59673,-26.5069,0.881666,0.846334,4.77986,1.39555,-0.511377,-26.5268,0.981688,0.866379,5.02112,1.39993,-0.48123,
0.0902721,0.34023,0.519287,0.838169,0.180613,1.16116,6.0278,2.59673,-26.4616,1.12009,0.968955,4.76007,1.36998,-0.508792,-26.4865,1.25704,0.837151,5.06897,1.40712,-0.356544,
0.0901701,0.339866,0.518702,0.837229,0.180402,1.15975,6.0278,0.297426,-26.4101,1.35745,1.09052,4.73737,1.34454,-0.506127,-26.4358,1.47976,0.939498,4.9857,1.38454,-0.364093,
0.0900819,0.339485,0.518165,0.836251,0.180197,1.15835,8.27656,0.297426,-26.3526,1.59361,1.21096,4.71181,1.31923,-0.503383,-26.3931,1.69429,1.00605,4.89493,1.36809,-0.357735,
0.0900144,0.339083,0.51768,0.835239,0.179996,1.15696,8.27656,0.624693,-26.2891,1.82841,1.33018,4.68345,1.29407,-0.500558,-26.3452,1.88812,1.07914,4.76711,1.34818,-0.361467,
0.0899435,0.33868,0.517106,0.834224,0.179785,1.15555,0.660269,0.624693,-26.2197,2.06173,1.44811,4.65235,1.26904,-0.497655,-26.2732,2.11768,1.29169,4.71065,1.30317,-0.45773,
0.0899028,0.338268,0.516567,0.833215,0.179574,1.15414,0.660269,0.880398,-26.1444,2.29342,1.56467,4.61859,1.24415,-0.494673,-26.2156,2.29403,1.36947,4.55499,1.27874,-0.461179,
0.0898994,0.337858,0.516122,0.832207,0.179374,1.15275,0.394361,0.880398,-26.0633,2.52336,1.67979,4.58223,1.21942,-0.491613,-26.1518,2.51809,1.40129,4.52743,1.27064,-0.404332,
0.0899241,0.337449,0.515696,0.831199,0.179178,1.15136,0.394361,0.125059,-25.9765,2.75141,1.79339,4.54334,1.19484,-0.488475,-26.0761,2.7656,1.50227,4.54606,1.25164,-0.4016,
0.0899344,0.337041,0.515089,0.830199,0.178963,1.14998,3.14949,0.125059,-25.884,2.97746,1.90543,4.502,1.17042,-0.48526,-25.9781,2.98499,1.82052,4.44954,1.18243,-0.584128,
0.0899244,0.336657,0.51447,0.829212,0.178748,1.1486,3.14949,1.4107,-25.786,3.20139,2.01582,4.45828,1.14615,-0.481969,-25.8717,3.28047,1.98933,4.55596,1.15911,-0.571888,
0.0899699,0.336281,0.513859,0.828232,0.178536,1.14722,2.09471,1.4107,-25.6826,3.42306,2.12452,4.41227,1.12206,-0.478601,-25.7898,3.5127,2.06904,4.52141,1.14163,-0.550992,
0.090021,0.335891,0.513246,0.827239,0.178322,1.14586,2.09471,0.317186,-25.5737,3.64238,2.23146,4.36404,1.09813,-0.475158,-25.6829,3.70232,2.18917,4.38354,1.10762,-0.562546,
0.0900692,0.335497,0.512633,0.82625,0.178109,1.14449,1.10571,0.317186,-25.4596,3.85924,2.3366,4.31367,1.07437,-0.47164,-25.5679,3.90638,2.31583,4.28831,1.07564,-0.569295,
0.0903073,0.335096,0.512048,0.825289,0.177896,1.14314,1.10571,3.6729,-25.3402,4.07353,2.43989,4.26125,1.05079,-0.468047,-25.5018,4.07054,2.33173,4.12826,1.05665,-0.561588,
0.0905592,0.334698,0.511462,0.824344,0.177684,1.14178,0.567159,3.6729,-25.2157,4.28514,2.54127,4.20686,1.02738,-0.46438,-25.381,4.26653,2.43898,4.04367,1.02806,-0.556884,
0.0906728,0.3343,0.510855,0.823388,0.177474,1.14044,0.567159,2.12661,-25.0862,4.49399,2.64071,4.15058,1.00416,-0.46064,-25.2161,4.49424,2.62985,4.02306,0.991827,-0.565216,
0.0907404,0.333904,0.510266,0.822432,0.177264,1.13909,9.09289,2.12661,-24.9518,4.69998,2.73817,4.09251,0.981133,-0.456828,-25.0676,4.6895,2.65391,3.9726,0.981835,-0.468808,
0.0908796,0.333511,0.509695,0.821482,0.177054,1.13774,9.09289,0.395246,-24.8126,4.90303,2.83361,4.03273,0.958291,-0.452943,-24.9502,4.88304,2.71405,3.90721,0.963687,-0.462161,
0.0909762,0.333121,0.509114,0.820543,0.176845,1.1364,2.3144,0.395246,-24.6686,5.10304,2.92701,3.97132,0.935644,-0.448987,-24.794,5.07124,2.83334,3.82579,0.933345,-0.468908,
0.091007,0.332729,0.508519,0.819585,0.176637,1.13506,2.3144,1.00237,-24.5201,5.29995,3.01833,3.90839,0.913195,-0.444959,-24.6233,5.29753,2.97586,3.83708,0.91114,-0.463571,
0.0909907,0.33234,0.507945,0.818666,0.17644,1.13375,0.796858,1.00237,-24.367,5.49367,3.10754,3.84401,0.890947,-0.440862,-24.4508,5.47076,3.20762,3.66966,0.852481,-0.577546,
0.0909179,0.331956,0.507414,0.817785,0.176255,1.13244,0.796858,1.16753,-24.2095,5.68415,3.19464,3.77827,0.868904,-0.436695,-24.2608,5.64372,3.36174,3.54421,0.811814,-0.593575,
0.0908443,0.331587,0.506916,0.816987,0.176088,1.13116,2.9655,1.16753,-24.0477,5.8713,3.27959,3.71127,0.847069,-0.432459,-24.0982,5.79805,3.48213,3.37917,0.770394,-0.633386,
0.0907588,0.331234,0.50644,0.816255,0.175935,1.12989,2.9655,0.0141287,-23.8818,6.05508,3.36239,3.64309,0.825446,-0.428154,-23.9216,5.95725,3.58664,3.24967,0.736147,-0.637669,
0.0907143,0.330875,0.505864,0.815381,0.175734,1.12858,4.60713,0.0141287,-23.7117,6.23542,3.44302,3.57383,0.804038,-0.423782,-23.7808,6.14867,3.36958,3.34387,0.781569,-0.376723,
0.0906921,0.330532,0.5053,0.814521,0.175533,1.12727,4.60713,0.059817,-23.5377,6.41227,3.52148,3.50357,0.782849,-0.419343,-23.6183,6.30457,3.41965,3.257,0.761041,-0.380502,
0.0907373,0.330189,0.504813,0.813621,0.17533,1.12597,1.1957,0.059817,-23.3598,6.58559,3.59775,3.4324,0.761882,-0.414838,-23.4683,6.47888,3.39072,3.25814,0.76546,-0.315054,
0.0906813,0.32981,0.504269,0.812687,0.175132,1.12469,1.1957,4.23146,-23.1781,6.75533,3.67185,3.36041,0.74114,-0.410268,-23.24,6.73134,3.54079,3.42494,0.768768,-0.279196,
0.0906069,0.329439,0.503711,0.81175,0.174931,1.1234,5.57424,4.23146,-22.9928,6.92146,3.74376,3.28769,0.720627,-0.405632,-23.0415,6.86835,3.64296,3.27415,0.732131,-0.321621,
0.0905112,0.329065,0.503142,0.810819,0.174731,1.12211,5.57424,0.946323,-22.804,7.08393,3.8135,3.21432,0.700345,-0.400933,-22.8298,7.04933,3.74851,3.25569,0.715153,-0.321396,
0.0904074,0.3287,0.502572,0.8099,0.174534,1.12083,2.007,0.946323,-22.6117,7.24273,3.88106,3.14038,0.680299,-0.39617,-22.6138,7.1819,3.93867,3.05264,0.659338,-0.435044,
0.0903074,0.328344,0.501998,0.808994,0.174337,1.11955,2.007,0.315484,-22.4161,7.39781,3.94647,3.06598,0.66049,-0.391345,-22.4328,7.32172,3.97164,2.94369,0.63783,-0.435743,
0.0902082,0.328003,0.501559,0.8082,0.174177,1.11832,2.37767,0.315484,-22.2173,7.54917,4.00974,2.99118,0.640923,-0.386458,-22.1996,7.44974,4.25249,2.68778,0.563651,-0.613493,
0.0901054,0.327656,0.501093,0.807385,0.17401,1.11709,2.37767,2.0903,-22.0154,7.69679,4.07087,2.91607,0.6216,-0.381509,-22.0162,7.60953,4.28608,2.64106,0.552242,-0.585956,
0.0900082,0.327291,0.500526,0.806474,0.173814,1.11582,5.7273,2.0903,-21.8105,7.84064,4.12988,2.84074,0.602525,-0.376501,-21.8307,7.79265,4.16723,2.76999,0.586645,-0.398893,
0.0899127,0.326928,0.49996,0.805567,0.173618,1.11455,5.7273,0.0286421,-21.6026,7.98072,4.18681,2.76526,0.583699,-0.371433,-21.6256,7.9316,4.21493,2.69367,0.568658,-0.396038,
0.0898333,0.326567,0.499397,0.804658,0.173422,1.11329,1.51713,0.0286421,-21.392,8.11703,4.24166,2.68971,0.565128,-0.366306,-21.4341,8.06758,4.20659,2.6428,0.560935,-0.362447,
0.0897539,0.326302,0.498841,0.803945,0.17325,1.11204,1.51713,4.79122,-21.1787,8.24957,4.29447,2.61416,0.546813,-0.361122,-21.2207,8.07599,4.23429,2.24103,0.486779,-0.451459,
0.0897054,0.326002,0.498411,0.803067,0.173054,1.1108,5.16535,4.79122,-20.9628,8.37833,4.34526,2.53871,0.528756,-0.355881,-21.0275,8.23851,4.10398,2.39781,0.528769,-0.255794,
0.0897553,0.325674,0.49807,0.802164,0.172866,1.10957,5.16535,2.77928,-20.7445,8.50333,4.39406,2.46341,0.510962,-0.350583,-20.8541,8.39765,4.08185,2.45773,0.54197,-0.215362,
0.0897436,0.32536,0.497546,0.801295,0.172674,1.10833,5.31014,2.77928,-20.5237,8.62457,4.4409,2.38835,0.493433,-0.34523,-20.6081,8.5023,4.31748,2.24102,0.478776,-0.385605,
0.089678,0.325024,0.496995,0.800402,0.17248,1.10709,5.31014,1.28779,-20.3006,8.74206,4.48582,2.31358,0.476172,-0.339823,-20.3535,8.65148,4.43451,2.25772,0.470921,-0.365752,
0.0896525,0.324676,0.496524,0.799524,0.172297,1.10586,1.08185,1.28779,-20.0754,8.85583,4.52884,2.23919,0.45918,-0.334362,-20.1528,8.7902,4.33542,2.34522,0.495864,-0.233393,
0.0897151,0.324338,0.496118,0.79864,0.172113,1.10464,1.08185,0.599512,-19.848,8.96589,4.57001,2.16524,0.442462,-0.328848,-19.9623,8.88384,4.31409,2.23483,0.477968,-0.244393,
0.0898667,0.323993,0.495842,0.797792,0.171946,1.10343,0.531779,0.599512,-19.6186,9.07227,4.60937,2.09179,0.42602,-0.323282,-19.7611,9.00443,4.25891,2.26084,0.488022,-0.172531,
0.090083,0.323672,0.495605,0.796915,0.171769,1.10222,0.531779,0.852215,-19.3873,9.17499,4.64694,2.01891,0.409856,-0.317665,-19.5474,9.06894,4.27267,2.09597,0.456061,-0.208164,
0.0902469,0.323345,0.495195,0.796036,0.171584,1.101,4.92385,0.852215,-19.1542,9.27409,4.68278,1.94666,0.393973,-0.311998,-19.3007,9.1784,4.4334,1.99079,0.422058,-0.296596,
0.0902455,0.323017,0.494686,0.795159,0.171397,1.09978,4.92385,6.19819,-18.9193,9.36959,4.71692,1.8751,0.378373,-0.306282,-19.0089,9.27732,4.58654,1.91904,0.396273,-0.310366,
0.0902917,0.322698,0.494181,0.794284,0.171208,1.09857,1.72734,6.19819,-18.6827,9.46154,4.7494,1.80429,0.363059,-0.300517,-18.7919,9.35819,4.61539,1.7857,0.369164,-0.346684,
0.090287,0.322368,0.493652,0.793411,0.171021,1.09737,1.72734,0.66486,-18.4446,9.54997,4.78028,1.73429,0.348033,-0.294705,-18.5327,9.46445,4.70121,1.75471,0.357233,-0.33652,
0.0902356,0.322088,0.493122,0.792677,0.170859,1.09622,5.25304,0.66486,-18.2049,9.63492,4.80959,1.66514,0.333298,-0.288846,-18.2676,9.48712,4.88164,1.35146,0.270081,-0.532939,
0.0901371,0.32176,0.492697,0.791842,0.170683,1.09506,5.25304,2.76791,-17.9639,9.71643,4.83737,1.59691,0.318855,-0.282942,-17.959,9.63228,5.0646,1.44231,0.277439,-0.474458,
0.0900407,0.321418,0.492189,0.79098,0.170496,1.09386,3.22007,2.76791,-17.7214,9.79457,4.86368,1.52964,0.304708,-0.276993,-17.7087,9.7403,4.98044,1.57489,0.306266,-0.30683,
0.0899692,0.321069,0.491719,0.790141,0.170312,1.09267,3.22007,0.539171,-17.4777,9.86936,4.88856,1.46338,0.290859,-0.271,-17.4308,9.84983,5.06243,1.59449,0.30513,-0.281879,
0.0899087,0.32072,0.491262,0.789305,0.170128,1.09148,0.363834,0.539171,-17.2328,9.94087,4.91205,1.39818,0.277309,-0.264964,-17.1772,9.9343,5.09911,1.52677,0.290923,-0.290757,
0.0898957,0.320381,0.490849,0.788544,0.169951,1.0903,0.363834,0.544975,-16.9868,10.0091,4.93421,1.33408,0.26406,-0.258887,-16.9031,10.0587,5.16737,1.59743,0.299818,-0.253585,
0.0899129,0.320045,0.490448,0.787768,0.169773,1.08912,0.0399156,0.544975,-16.7396,10.0743,4.95507,1.27113,0.251116,-0.252769,-16.6421,10.133,5.19844,1.51019,0.282727,-0.2658,
0.0899146,0.319729,0.490022,0.787034,0.169602,1.08794,0.0399156,1.04,-16.4915,10.1363,4.97469,1.20937,0.238478,-0.246611,-16.4008,10.229,5.19174,1.5011,0.281457,-0.248491,
0.0899493,0.319424,0.489632,0.786275,0.169427,1.08677,0.429892,1.04,-16.2424,10.1952,4.99311,1.14883,0.226147,-0.240414,-16.1376,10.304,5.24362,1.40439,0.261687,-0.280708,
0.0899135,0.319088,0.489149,0.785431,0.169245,1.08561,0.429892,1.44962,-15.9924,10.2511,5.01039,1.08956,0.214126,-0.234179,-15.921,10.2987,5.15154,1.12575,0.215145,-0.331129,
0.0898747,0.318759,0.488644,0.784601,0.169064,1.08445,0.27078,1.44962,-15.7416,10.3041,5.02655,1.03159,0.202417,-0.227907,-15.672,10.3674,5.1218,1.1301,0.217165,-0.272348,
0.0897823,0.318419,0.488125,0.783796,0.168889,1.0833,0.27078,2.12917,-15.4899,10.3543,5.04166,0.974957,0.191022,-0.221599,-15.4719,10.3319,4.99379,0.812702,0.161328,-0.341954,
0.0897391,0.318085,0.487644,0.783135,0.168742,1.08221,7.25243,2.12917,-15.2376,10.4016,5.05576,0.919692,0.179942,-0.215255,-15.171,10.3588,5.19094,0.559808,0.107428,-0.474411,
0.0897122,0.31775,0.487176,0.782472,0.168594,1.08111,7.25243,0.27243,-14.9846,10.4462,5.06889,0.865828,0.169179,-0.208878,-14.9085,10.4103,5.22447,0.510009,0.0973109,-0.451656,
0.08966,0.317418,0.486659,0.781686,0.168423,1.07997,6.75856,0.27243,-14.7309,10.4882,5.0811,0.813394,0.158736,-0.202468,-14.6705,10.4461,5.05894,0.628053,0.123515,-0.265171,
0.0895786,0.31714,0.48617,0.781113,0.168287,1.07884,6.75856,1.9595,-14.4766,10.5276,5.09243,0.762418,0.148612,-0.196026,-14.4425,10.3942,4.97915,0.327571,0.0656938,-0.341531,
0.0895002,0.316877,0.48568,0.780538,0.168152,1.07771,0.57399,1.9595,-14.2218,10.5645,5.10293,0.712926,0.138811,-0.189554,-14.1845,10.4165,4.99543,0.281522,0.0562964,-0.31964,
0.0895633,0.316542,0.485195,0.779723,0.167975,1.07658,0.57399,7.72338,-13.9665,10.5989,5.11263,0.664944,0.129333,-0.183051,-13.8509,10.6089,5.22679,0.753823,0.143235,-0.140878,
0.0896532,0.316217,0.484692,0.779037,0.167819,1.07546,0.872667,7.72338,-13.7107,10.631,5.12159,0.618495,0.12018,-0.176519,-13.5856,10.6827,5.18863,0.936159,0.178504,-0.0185438,
0.0896827,0.315884,0.484182,0.778261,0.16765,1.07434,0.872667,0.949732,-13.4545,10.6608,5.12983,0.573603,0.111354,-0.169959,-13.3518,10.671,5.12724,0.755798,0.146354,-0.0674086,
0.0897334,0.315552,0.483678,0.777452,0.167475,1.07321,0.545976,0.949732,-13.1979,10.6884,5.13741,0.530288,0.102857,-0.163373,-13.0867,10.6914,5.18448,0.612892,0.11767,-0.148193,
0.0897854,0.315244,0.483182,0.776749,0.167317,1.07209,0.545976,3.5063,-12.9409,10.7138,5.14436,0.48857,0.0946879,-0.156761,-12.8291,10.7953,5.21573,0.776639,0.147817,-0.0920206,
0.0898799,0.314956,0.482699,0.776098,0.167167,1.07097,1.0696,3.5063,-12.6836,10.7373,5.15071,0.448467,0.0868499,-0.150124,-12.5564,10.8505,5.25278,0.795087,0.150225,-0.0853767,
0.0898697,0.314633,0.482196,0.775304,0.166996,1.06985,1.0696,2.48327,-12.426,10.7587,5.15651,0.409998,0.0793437,-0.143463,-12.3412,10.7998,5.1285,0.521695,0.101376,-0.151321,
0.089863,0.314317,0.481696,0.77454,0.16683,1.06874,0.233766,2.48327,-12.1681,10.7783,5.16179,0.373177,0.0721706,-0.136779,-12.0815,10.8379,5.12544,0.554388,0.107745,-0.109707,
0.0898336,0.314031,0.481199,0.773852,0.166677,1.06763,0.233766,1.77717,-11.91,10.7961,5.16658,0.338022,0.0653316,-0.130074,-11.8356,10.9069,5.12792,0.633646,0.122945,-0.0782202,
0.0898527,0.313749,0.480701,0.773125,0.166517,1.06652,2.80911,1.77717,-11.6516,10.8121,5.17092,0.304546,0.0588279,-0.123349,-11.5529,10.9277,5.2009,0.542958,0.10402,-0.126785,
0.0897988,0.313462,0.480211,0.772365,0.166352,1.06542,2.80911,0.857347,-11.393,10.8265,5.17484,0.272761,0.0526604,-0.116604,-11.3348,10.9342,5.11506,0.447042,0.0871758,-0.143305,
0.0897447,0.313139,0.479716,0.771848,0.166228,1.06448,8.26927,0.857347,-11.1342,10.8394,5.17836,0.242681,0.0468302,-0.10984,-11.0762,10.8538,5.20203,-0.215117,-0.0413289,-0.515626,
0.0897615,0.312819,0.479233,0.771553,0.166141,1.06355,8.26927,2.66151,-10.8753,10.8509,5.18152,0.214317,0.0413382,-0.10306,-10.7777,10.8196,5.2559,-0.398296,-0.0756362,-0.526364,
0.0897548,0.312504,0.47874,0.771221,0.16605,1.06258,0.701954,2.66151,-10.6161,10.8609,5.18435,0.187679,0.0361852,-0.0962627,-10.5297,10.8151,5.18849,-0.401077,-0.0771478,-0.444142,
0.0896999,0.312199,0.478256,0.771023,0.165983,1.06161,0.701954,1.00029,-10.3569,10.8697,5.18687,0.162776,0.0313721,-0.0894504,-10.2998,10.7998,5.12672,-0.504576,-0.0981049,-0.444562,
0.089633,0.31188,0.47783,0.770293,0.165824,1.06052,7.29652,1.00029,-10.0976,10.8772,5.1891,0.139618,0.0268996,-0.0826241,-10.0507,10.8637,5.01548,-0.0741125,-0.0147757,-0.123592,
0.0895763,0.311566,0.477368,0.769507,0.165654,1.05943,7.29652,2.02203,-9.83808,10.8837,5.19106,0.118212,0.0227684,-0.0757847,-9.7827,10.9235,5.0792,0.0780605,0.0153674,-0.0617991,
0.089487,0.311248,0.476962,0.768759,0.165492,1.05836,3.87764,2.02203,-9.57852,10.8891,5.19278,0.0985663,0.0189791,-0.0689333,-9.56481,10.8903,4.99834,-0.0706599,-0.0141358,-0.113818,
0.0894009,0.310934,0.476519,0.767983,0.165325,1.05728,3.87764,0.711642,-9.31887,10.8936,5.19428,0.0806865,0.0155325,-0.062071,-9.29786,10.9262,5.05211,0.00968628,0.00191727,-0.0804001,
0.08931,0.310618,0.47611,0.767228,0.165161,1.0562,2.47881,0.711642,-9.05915,10.8972,5.19557,0.0645787,0.0124289,-0.0551989,-9.05897,10.8989,5.00757,-0.0744484,-0.0148661,-0.0932906,
0.0892213,0.310308,0.475658,0.76645,0.164994,1.05513,2.47881,1.00794,-8.79937,10.9001,5.19667,0.0502481,0.00966898,-0.0483182,-8.78627,10.9412,5.07552,0.0264117,0.0052037,-0.0565759,
0.0891344,0.309995,0.475254,0.765725,0.164836,1.05407,6.44307,1.00794,-8.53954,10.9023,5.19759,0.0376992,0.00725307,-0.0414297,-8.55683,10.8877,5.00685,-0.158705,-0.031687,-0.119619,
0.0892486,0.309719,0.475229,0.765201,0.16472,1.05303,6.44307,4.24068,-8.27965,10.9039,5.19835,0.0269359,0.00518158,-0.0345348,-8.41395,10.796,4.73544,-0.408398,-0.0860299,-0.190199,
0.089397,0.309438,0.475173,0.764573,0.164583,1.05197,1.3585,4.24068,-8.01974,10.905,5.19896,0.0179617,0.00345484,-0.0276344,-8.16502,10.8075,4.75263,-0.311721,-0.0654952,-0.11079,
0.0893204,0.309128,0.47473,0.76381,0.164419,1.05091,1.3585,6.09159,-7.75979,10.9057,5.19942,0.0107791,0.00207312,-0.0207296,-7.79435,10.8809,5.06954,-0.0628617,-0.0123993,-0.0149249,
0.0892394,0.30882,0.474281,0.763043,0.164254,1.04986,1.55825,6.09159,-7.49981,10.9061,5.19975,0.00539028,0.00103664,-0.0138216,-7.52755,10.8818,5.08452,0.00620655,0.00122067,0.036