rmse_px,rmse_py,rmse_vx,rmse_vy,rmse_ya,rmse_yr,nis_radar,nis_lidar,px_t,py_t,vx_t,vy_t,ya_t,yr_t,px_e,py_e,vx_e,vy_e,ya_e,yr_e
0.287757,0.0196602,0.199937,0,0,0.00691132,0,0,0.6,0.6,5.19994,0,0,0.00691132,0.312243,0.58034,5,0,0,0
0.221721,0.0736109,0.19201,0.417529,0.0828635,0.00630389,3.15995,0,0.859997,0.600045,5.19975,0.00179686,0.000345566,0.0138216,0.735435,0.497817,5.01601,0.592272,0.117532,0.00819023
0.189183,0.0671585,0.18253,0.45899,0.0909593,0.00968653,3.15995,1.38549,1.11998,0.600225,5.19943,0.00538996,0.00103664,0.0207296,1.02485,0.548324,5.03752,0.5377,0.106336,0.00651662
0.177153,0.0696917,0.197391,0.438655,0.0871818,0.0225077,2.15848,1.38549,1.37996,0.600629,5.19898,0.0107781,0.00207312,0.0276344,1.24519,0.523837,4.96254,0.381801,0.0767853,-0.0141376
0.165794,0.0646214,0.19821,0.418933,0.0833376,0.0294063,2.15848,1.06512,1.6399,0.601347,5.19839,0.0179597,0.00345484,0.0345348,1.53079,0.563244,4.99694,0.346366,0.069205,-0.0133951
0.158417,0.0611286,0.183024,0.399119,0.0792661,0.0333081,1.40461,1.06512,1.89982,0.60247,5.19766,0.0269323,0.00518158,0.0414297,1.7852,0.563218,5.13021,0.306672,0.0597066,-0.00687054
0.150424,0.0568433,0.169832,0.381422,0.0756331,0.0361779,1.40461,0.954972,2.1597,0.604086,5.19678,0.0376932,0.00725307,0.0483182,2.07129,0.590019,5.16653,0.287897,0.0556658,-0.001735
0.146559,0.0534844,0.161398,0.379858,0.0751952,0.0345223,1.67598,0.954972,2.41954,0.606284,5.19573,0.0502389,0.00966898,0.0551989,2.3036,0.622608,5.11515,0.418965,0.0817243,0.0359004
0.14237,0.0519712,0.153262,0.376868,0.0744759,0.0335467,1.67598,0.357068,2.67932,0.609155,5.1945,0.0645654,0.0124289,0.062071,2.57642,0.646896,5.13964,0.416597,0.080879,0.0376966
0.138236,0.0509676,0.145398,0.367893,0.0725931,0.0368341,0.256448,0.357068,2.93904,0.612786,5.19309,0.080668,0.0155325,0.0689333,2.84594,0.653626,5.19248,0.354867,0.0682364,0.0102898
0.135886,0.0507629,0.138782,0.358719,0.0707211,0.0417916,0.256448,0.36024,3.19869,0.617267,5.19147,0.0985415,0.0189791,0.0757847,3.08904,0.665935,5.16998,0.347593,0.0671319,0.000655463
0.132237,0.0490764,0.133548,0.347663,0.0684992,0.0868759,3.27099,0.36024,3.45825,0.622686,5.18963,0.11818,0.0227684,0.0826241,3.37626,0.5991,5.23605,-0.0687998,-0.0131389,-0.184503
0.127407,0.0548804,0.131372,0.373989,0.0731274,0.143412,3.27099,5.11144,3.71772,0.629131,5.18754,0.139576,0.0268996,0.0894504,3.6833,0.527877,5.28923,-0.466922,-0.0880496,-0.331027
0.12282,0.0562504,0.137753,0.376811,0.0734524,0.156998,2.20094,5.11144,3.97708,0.636689,5.18519,0.162724,0.0313721,0.0962627,3.9643,0.564972,5.38842,-0.249023,-0.0461817,-0.182494
0.118676,0.0588928,0.14494,0.383061,0.0744216,0.167204,2.20094,0.245158,4.23632,0.645449,5.18256,0.187614,0.0361852,0.10306,4.24488,0.557541,5.40493,-0.274141,-0.0506771,-0.169488
0.114928,0.0597737,0.145365,0.381528,0.074051,0.170264,1.06708,0.245158,4.49542,0.655498,5.17962,0.214238,0.0413382,0.10984,4.50408,0.583797,5.33123,-0.143511,-0.0269125,-0.10106
0.112329,0.0580617,0.141044,0.370285,0.0718677,0.165353,1.06708,9.60863,4.75437,0.666921,5.17634,0.242587,0.0468302,0.116604,4.69809,0.678898,5.18597,0.285838,0.0550618,0.0854419
0.110173,0.0564317,0.138508,0.360016,0.0698694,0.161587,1.66691,9.60863,5.01316,0.679804,5.1727,0.272649,0.0526604,0.123349,4.95004,0.676348,5.08825,0.22657,0.0444987,0.051404
0.107308,0.0551976,0.13482,0.351977,0.0683068,0.159336,1.66691,3.74798,5.27175,0.694234,5.16867,0.304413,0.0588279,0.130074,5.25443,0.670423,5.17448,0.159985,0.0309082,0.0187784
0.104638,0.0542898,0.133124,0.34502,0.0669677,0.157286,1.55856,3.74798,5.53013,0.710295,5.16422,0.337868,0.0653316,0.136779,5.51608,0.677755,5.25955,0.173823,0.033037,0.0253861
0.102301,0.0536281,0.134608,0.339129,0.0658491,0.15556,1.55856,2.24831,5.78828,0.728071,5.15932,0.372999,0.0721706,0.143463,5.81641,0.690022,5.32076,0.187528,0.03523,0.0277018
0.0999848,0.0596194,0.131664,0.352641,0.0684413,0.162295,3.7312,2.24831,6.04618,0.747646,5.15393,0.409793,0.0793437,0.150124,6.05873,0.614219,5.18347,-0.156464,-0.0301761,-0.116889
0.0978185,0.0588758,0.128825,0.34622,0.0671965,0.159594,3.7312,3.36892,6.30379,0.769103,5.14803,0.448233,0.0868499,0.156761,6.31568,0.730014,5.16618,0.302837,0.0585521,0.0771406
0.0957634,0.0579087,0.12629,0.339476,0.065881,0.156678,0.32633,3.36892,6.56111,0.792523,5.14157,0.488305,0.0946879,0.163373,6.56564,0.765034,5.10879,0.394007,0.076971,0.105592
0.0938303,0.0579471,0.123866,0.335222,0.0650435,0.154898,0.32633,0.198087,6.81808,0.817988,5.13452,0.52999,0.102857,0.169959,6.81521,0.759126,5.10646,0.321456,0.0628679,0.0666192
0.092074,0.060535,0.125205,0.337282,0.0653912,0.155555,2.42805,0.198087,7.07469,0.845578,5.12685,0.573269,0.111354,0.176519,7.05694,0.739136,4.97188,0.188044,0.0378036,0.00535526
0.0910177,0.059975,0.129736,0.331691,0.0642571,0.152938,2.42805,2.17049,7.3309,0.875372,5.1185,0.618123,0.12018,0.183051,7.27384,0.832447,4.90202,0.505162,0.102689,0.134007
0.0894205,0.0601556,0.127488,0.327496,0.0634519,0.15107,5.28546,2.17049,7.58668,0.907449,5.10946,0.664531,0.129333,0.189554,7.57203,0.842608,5.13467,0.48398,0.0939796,0.103049
0.0879081,0.0640681,0.125538,0.331465,0.0642494,0.152121,5.28546,0.612001,7.84199,0.941886,5.09966,0.712469,0.138811,0.196026,7.82721,0.808795,5.14376,0.28457,0.055267,0.01696
0.0865171,0.0689696,0.123918,0.337517,0.0654023,0.153567,2.28527,0.612001,8.0968,0.978758,5.08907,0.761915,0.148612,0.202468,8.07561,0.824916,5.02876,0.280945,0.0558097,0.0116772
0.0853795,0.074914,0.122542,0.344781,0.0667882,0.154958,2.28527,0.225808,8.35106,1.01814,5.07766,0.812843,0.158736,0.208878,8.31333,0.841307,5.00806,0.295575,0.0589515,0.0168107
0.0841149,0.0759723,0.121929,0.340459,0.0659887,0.152715,6.4598,0.225808,8.60472,1.06011,5.06537,0.865226,0.169179,0.215255,8.58397,0.956561,5.16646,0.709988,0.136567,0.17136
0.0830385,0.076282,0.120635,0.335435,0.0650273,0.150393,6.4598,0.400166,8.85775,1.10473,5.05216,0.919037,0.179942,0.221599,8.82401,1.01913,5.11928,0.857024,0.165873,0.211796
0.0818131,0.0766519,0.121484,0.330657,0.0641346,0.148222,6.88907,0.400166,9.1101,1.15208,5.03798,0.974245,0.191022,0.227907,9.11529,1.06409,5.18477,0.908501,0.173464,0.20396
0.0806415,0.0779784,0.121879,0.326909,0.0634666,0.146416,6.88907,0.627934,9.36172,1.20223,5.0228,1.03082,0.202417,0.234179,9.3561,1.08797,5.1574,0.878952,0.168803,0.17629
0.0795992,0.0779048,0.123997,0.322344,0.0625844,0.144371,4.09997,0.627934,9.61255,1.25524,5.00656,1.08873,0.214126,0.240414,9.6347,1.17996,5.18986,1.10165,0.209165,0.235136
0.0788957,0.076868,0.12511,0.322765,0.0623848,0.143378,4.09997,2.112,9.86254,1.31118,4.98922,1.14793,0.226147,0.246611,9.90956,1.32264,5.14934,1.48552,0.280862,0.347969
0.0780981,0.0769545,0.123657,0.33144,0.063964,0.145241,4.0713,2.112,10.1116,1.37011,4.97074,1.2084,0.238478,0.252769,10.1499,1.4502,4.92701,1.77395,0.345596,0.455205
0.0771237,0.0770298,0.12267,0.337359,0.065127,0.145778,4.0713,0.995039,10.3598,1.4321,4.95106,1.2701,0.251116,0.258887,10.374,1.51194,4.87481,1.78414,0.350849,0.423801
0.0761671,0.0787849,0.128904,0.348585,0.0679518,0.148857,2.73135,0.995039,10.6069,1.49721,4.93014,1.33298,0.26406,0.264964,10.5978,1.6271,4.65125,1.98247,0.402907,0.504843
0.0753498,0.0781918,0.132429,0.347704,0.0680762,0.147709,2.73135,2.39171,10.853,1.56549,4.90794,1.39701,0.277309,0.271,10.8261,1.61437,4.67473,1.70739,0.350186,0.361492
0.0744476,0.0773545,0.131362,0.344584,0.0675033,0.145941,2.8043,2.39171,11.0979,1.637,4.8844,1.46213,0.290859,0.276993,11.0968,1.66237,4.8088,1.63587,0.327902,0.27297
0.0738587,0.0766487,0.129951,0.340869,0.0667849,0.145326,2.8043,2.62681,11.3416,1.71179,4.85948,1.52832,0.304708,0.282942,11.3839,1.6756,4.89698,1.43208,0.284507,0.166346
0.0731609,0.0763471,0.128467,0.338216,0.0662456,0.145149,0.737115,2.62681,11.584,1.78992,4.83313,1.59551,0.318855,0.288846,11.6147,1.72792,4.83048,1.4034,0.282746,0.15151
0.0724022,0.076733,0.127033,0.3372,0.0660148,0.145634,0.737115,0.300351,11.8251,1.87144,4.80531,1.66366,0.333298,0.294705,11.8447,1.77932,4.80977,1.37469,0.27839,0.12915
0.0718209,0.0767844,0.12724,0.33517,0.065714,0.145888,1.47263,0.300351,12.0648,1.95639,4.77598,1.73273,0.348033,0.300517,12.102,1.87733,4.91222,1.50706,0.297682,0.143587
0.0713992,0.0797608,0.129031,0.340657,0.0670292,0.149332,1.47263,0.742991,12.3029,2.04482,4.74508,1.80265,0.363059,0.306282,12.3511,1.8781,4.93938,1.26729,0.251151,0.0434897
0.0713969,0.0844433,0.136026,0.349715,0.0693046,0.154041,0.750567,0.742991,12.5394,2.13677,4.71258,1.87338,0.378373,0.311998,12.6107,1.92876,5.03762,1.22824,0.239147,0.010545
0.070814,0.0860313,0.138214,0.349347,0.0694406,0.154205,0.750567,3.25985,12.7743,2.23227,4.67842,1.94485,0.393973,0.317665,12.8065,2.08946,4.89729,1.61365,0.318294,0.155771
0.0707613,0.0870391,0.146508,0.347705,0.0694883,0.154325,2.84971,3.25985,13.0075,2.33136,4.64258,2.01701,0.409856,0.323282,13.0756,2.20439,5.01296,1.76239,0.33807,0.16317
0.0702782,0.0868077,0.149616,0.344307,0.0688983,0.153085,2.84971,2.24417,13.2388,2.43409,4.605,2.08981,0.42602,0.328848,13.2779,2.35976,4.86652,2.05889,0.400237,0.26271
0.0696813,0.0859762,0.148831,0.343242,0.0687195,0.15256,10.0739,2.24417,13.4682,2.54047,4.56564,2.16317,0.442462,0.334362,13.4438,2.54853,4.46464,2.44688,0.501351,0.457162
0.069021,0.0851743,0.147459,0.341004,0.0682447,0.151361,10.0739,1.09483,13.6955,2.65053,4.52448,2.23703,0.45918,0.339823,13.6968,2.63967,4.49971,2.42843,0.49489,0.402788
0.0683848,0.0843822,0.146227,0.339036,0.0678371,0.150195,0.0927741,1.09483,13.9208,2.7643,4.48147,2.31134,0.476172,0.34523,13.9142,2.76294,4.43464,2.52116,0.516947,0.407874
0.0677604,0.0836866,0.145056,0.33803,0.0675899,0.14914,0.0927741,0.309168,14.1439,2.88179,4.43656,2.38601,0.493433,0.350583,14.1431,2.90808,4.38524,2.66435,0.545969,0.422589
0.0673096,0.0829443,0.14552,0.3356,0.066995,0.147971,1.70229,0.309168,14.3646,3.00303,4.38974,2.46099,0.510962,0.355881,14.399,3.01174,4.55882,2.61135,0.52019,0.303045
0.0668339,0.0828299,0.14707,0.333303,0.0667069,0.148074,1.70229,2.61368,14.583,3.12802,4.34097,2.5362,0.528756,0.361122,14.6129,3.05187,4.55782,2.37793,0.480877,0.207363
0.0665003,0.0822523,0.150564,0.330431,0.0662636,0.1478,3.37211,2.61368,14.7989,3.25679,4.29021,2.61157,0.546813,0.366306,14.8423,3.2203,4.57647,2.5882,0.5147,0.235103
0.0661125,0.0816711,0.151771,0.328736,0.0657179,0.146658,3.37211,0.62361,15.0122,3.38932,4.23744,2.68703,0.565128,0.371433,15.0495,3.42315,4.44769,2.89501,0.57701,0.326502
0.0656741,0.0817749,0.150702,0.329457,0.0655154,0.145574,2.29033,0.62361,15.2228,3.52563,4.18263,2.76249,0.583699,0.376501,15.2529,3.61331,4.24282,3.132,0.635899,0.426415
0.0653121,0.0826954,0.149552,0.331699,0.0655064,0.144599,2.29033,0.247258,15.4306,3.66572,4.12575,2.83789,0.602525,0.381509,15.4683,3.7919,4.16652,3.28395,0.667488,0.444261
0.065026,0.0833678,0.14862,0.332167,0.0652556,0.143452,1.25734,0.247258,15.6356,3.80957,4.06678,2.91315,0.6216,0.386458,15.6798,3.92688,4.13836,3.2727,0.669119,0.407017
0.0651241,0.0834463,0.148715,0.330566,0.0647605,0.142419,1.25734,0.468053,15.8375,3.95718,4.00571,2.98817,0.640923,0.391345,15.9084,4.04536,4.16022,3.19667,0.655167,0.346966
0.0650867,0.0838795,0.147555,0.329493,0.0644222,0.141351,1.50393,0.468053,16.0363,4.10854,3.94251,3.0629,0.66049,0.39617,16.099,4.21626,3.95379,3.31583,0.697866,0.426163
0.0650601,0.085096,0.146424,0.329509,0.0642376,0.140377,1.50393,0.165316,16.2319,4.26363,3.87716,3.13723,0.680299,0.400933,16.2952,4.40645,3.86443,3.46774,0.731349,0.447258
0.0653793,0.0863703,0.14561,0.328921,0.0638768,0.139315,0.788326,0.165316,16.4242,4.42242,3.80966,3.21109,0.700345,0.405632,16.5077,4.5696,3.88541,3.49918,0.733144,0.39628
0.065526,0.0873961,0.144786,0.327671,0.0634677,0.138312,0.788326,0.51719,16.613,4.5849,3.74,3.28438,0.720627,0.410268,16.6876,4.72419,3.81187,3.51503,0.744907,0.382745
0.0651639,0.0894412,0.146857,0.328015,0.063831,0.138434,3.1464,0.51719,16.7983,4.75103,3.66817,3.35704,0.74114,0.414838,16.8311,4.93055,3.41907,3.70739,0.825834,0.561205
0.0646993,0.0932068,0.151441,0.33083,0.0648723,0.139166,3.1464,0.225797,16.9799,4.92077,3.59416,3.42897,0.761882,0.419343,16.9891,5.15626,3.25369,3.91432,0.877302,0.601502
0.0642377,0.0964273,0.154579,0.33207,0.0654897,0.139008,1.78335,0.225797,17.1578,5.09409,3.51797,3.50008,0.782849,0.423782,17.1624,5.32089,3.21773,3.90872,0.882057,0.551459
0.0637964,0.0991577,0.15754,0.332217,0.0659062,0.13852,1.78335,0.236411,17.3319,5.27094,3.4396,3.57028,0.804038,0.428154,17.3212,5.48823,3.14039,3.91262,0.894453,0.526664
0.0634035,0.101208,0.160266,0.331262,0.0661009,0.137822,2.99958,0.236411,17.5019,5.45128,3.35907,3.63949,0.825446,0.432459,17.4802,5.6498,3.0638,3.89396,0.904151,0.50528
0.0629842,0.101347,0.159921,0.32901,0.0656728,0.136962,2.99958,1.91788,17.6679,5.63506,3.27637,3.70762,0.847069,0.436695,17.6802,5.74597,3.14356,3.67309,0.862924,0.394905
0.0625602,0.101565,0.160761,0.326784,0.065334,0.136038,0.527199,1.91788,17.8297,5.82221,3.19151,3.77458,0.868904,0.440862,17.8244,5.9386,2.97819,3.76049,0.900972,0.450564
0.0621516,0.101782,0.160716,0.324609,0.0649486,0.135135,0.527199,0.97518,17.9872,6.01269,3.10453,3.84027,0.890947,0.444959,17.9967,6.1294,2.94719,3.81758,0.91336,0.433019
0.0617502,0.102184,0.160138,0.322467,0.0645552,0.134306,0.879459,0.97518,18.1403,6.20641,3.01542,3.90462,0.913195,0.448987,18.1494,6.33524,2.90716,3.91291,0.931812,0.413134
0.0614127,0.103699,0.160915,0.320958,0.06444,0.133461,0.879459,0.575648,18.2888,6.40332,2.92421,3.96753,0.935644,0.452943,18.2641,6.58895,2.71238,4.13838,0.99062,0.477755
0.0611583,0.105531,0.161987,0.319655,0.0643914,0.132645,0.198458,0.575648,18.4328,6.60333,2.83093,4.0289,0.958291,0.456828,18.3962,6.80492,2.60098,4.22361,1.01883,0.48639
0.0608122,0.105617,0.16126,0.317735,0.0639868,0.132004,0.198458,1.80084,18.572,6.80638,2.7356,4.08866,0.981133,0.46064,18.5519,6.9185,2.64794,4.01436,0.987691,0.395982
0.060431,0.105621,0.160472,0.315938,0.0636425,0.132239,0.762824,1.80084,18.7064,7.01237,2.63826,4.14672,1.00416,0.46438,18.7072,7.11833,2.71395,4.04738,0.980113,0.31473
0.060714,0.104986,0.163618,0.31675,0.0642119,0.1347,0.762824,3.42231,18.8359,7.22122,2.53893,4.20299,1.02738,0.468047,18.9161,7.23925,2.86808,3.82691,0.927646,0.202164
0.0605292,0.104344,0.16323,0.317594,0.0642153,0.134662,3.97819,3.42231,18.9604,7.43283,2.43767,4.25737,1.05079,0.47164,19.0034,7.43257,2.56555,3.87764,0.986292,0.340101
0.0601634,0.104109,0.162291,0.315884,0.0638287,0.133867,3.97819,1.83296,19.0798,7.64712,2.3345,4.3098,1.07437,0.475158,19.0799,7.7297,2.29884,4.20515,1.07051,0.454367
0.0598209,0.103721,0.161489,0.31439,0.0635117,0.13335,0.326247,1.83296,19.1939,7.86397,2.22949,4.36017,1.09813,0.478601,19.2068,7.92775,2.29684,4.21625,1.07199,0.399211
0.0595162,0.103397,0.160539,0.3127,0.0631412,0.132652,0.326247,1.24492,19.3028,8.08329,2.12266,4.40842,1.12206,0.481969,19.2807,8.15441,2.11326,4.31477,1.11536,0.4373
0.0592152,0.102955,0.15994,0.311164,0.0628497,0.132444,2.18118,1.24492,19.4062,8.30497,2.01409,4.45445,1.14615,0.48526,19.3846,8.35834,2.1102,4.33051,1.11737,0.371795
0.0589101,0.102431,0.160263,0.31136,0.0628649,0.132834,2.18118,3.07873,19.5042,8.5289,1.90381,4.49819,1.17042,0.488475,19.485,8.49382,2.08982,4.17041,1.10626,0.325575
0.0586061,0.102048,0.160369,0.311906,0.0628599,0.132791,0.472117,3.07873,19.5967,8.75494,1.7919,4.53956,1.19484,0.491613,19.5786,8.69486,1.96119,4.18338,1.13241,0.362645
0.0586482,0.102238,0.164804,0.31445,0.0637322,0.133909,0.472117,3.77197,19.6835,8.983,1.67841,4.57848,1.21942,0.494673,19.7457,8.86529,2.07093,4.08948,1.10204,0.284476
0.0586031,0.102583,0.16664,0.316489,0.0641225,0.13372,1.08492,3.77197,19.7645,9.21294,1.56341,4.61488,1.24415,0.497655,19.819,9.08329,1.84964,4.15157,1.15167,0.382055
0.0593067,0.1028,0.170398,0.317542,0.064696,0.133659,1.08492,3.36733,19.8398,9.44463,1.44697,4.64869,1.26904,0.500558,19.9446,9.32388,1.82518,4.24755,1.16495,0.372505
0.0595202,0.103118,0.17032,0.318124,0.0646114,0.132942,2.10142,3.36733,19.9093,9.67795,1.32916,4.67984,1.29407,0.503383,19.9857,9.54915,1.49218,4.31259,1.23768,0.520044
0.0599413,0.103183,0.170107,0.317669,0.0644384,0.132259,2.10142,1.09038,19.9728,9.91275,1.21005,4.70826,1.31923,0.506127,20.0634,9.80373,1.35931,4.43564,1.27343,0.53521
0.0604532,0.103079,0.170805,0.316544,0.0643483,0.131619,7.61564,1.09038,20.0303,10.1489,1.08972,4.73389,1.34454,0.508792,20.1272,10.056,1.31619,4.55004,1.28921,0.468652
0.0607347,0.10261,0.170367,0.314884,0.0640633,0.130925,7.61564,0.991233,20.0817,10.3863,0.968259,4.75666,1.36998,0.511377,20.1648,10.348,1.0907,4.73101,1.34421,0.515892
0.0606121,0.102122,0.169636,0.31324,0.0637461,0.130672,2.14564,0.991233,20.1271,10.6247,0.845742,4.77651,1.39555,0.513881,20.1747,10.5939,0.773791,4.7752,1.41015,0.617718
0.0606123,0.101599,0.169008,0.311748,0.0634517,0.130396,2.14564,2.12633,20.1663,10.864,0.722256,4.7934,1.42124,0.516304,20.227,10.8735,0.632093,4.88104,1.44201,0.616765
0.0605715,0.101141,0.168181,0.310532,0.0631366,0.129757,4.98217,2.12633,20.1993,11.1041,0.597892,4.80727,1.44706,0.518645,20.2558,11.1391,0.562584,4.95903,1.45783,0.545221
0.0606285,0.100664,0.16733,0.30919,0.0628177,0.129106,4.98217,0.0783538,20.2261,11.3449,0.472738,4.81806,1.47299,0.520904,20.2921,11.3711,0.468419,4.93669,1.47619,0.533219
0.0603561,0.100263,0.171947,0.307832,0.0631268,0.130708,8.39604,0.0783538,20.2466,11.5861,0.346889,4.82575,1.49904,0.523081,20.2271,11.6317,-0.0828038,4.93455,1.58758,0.764501
0.0602,0.0998099,0.173249,0.306348,0.0630649,0.131225,8.39604,5.73038,20.2608,11.8275,0.22044,4.83027,1.52519,0.525176,20.3025,11.8574,-0.0533352,4.88203,1.58172,0.700581
0.0602887,0.0993423,0.172444,0.30492,0.06276,0.130765,4.6662,5.73038,20.2687,12.0692,0.093487,4.83159,1.55145,0.527187,20.3373,12.0907,0.134044,4.90086,1.54345,0.456989
0.0602093,0.0991324,0.171613,0.30396,0.0624553,0.130238,4.6662,0.793969,20.2701,12.3108,-0.0338694,4.82968,1.57781,0.529115,20.3216,12.3855,-0.0510022,5.01074,1.58097,0.474904
0.0599192,0.098925,0.173147,0.302719,0.0624117,0.130156,2.54785,0.793969,20.2653,12.5522,-0.161529,4.82451,1.60427,0.53096,20.2663,12.6268,-0.452103,4.94324,1.662,0.652371
0.0597853,0.0986251,0.173152,0.301343,0.0622053,0.129759,2.54785,2.33863,20.254,12.7933,-0.28939,4.81605,1.63081,0.532721,20.2977,12.853,-0.463131,4.88208,1.66538,0.610746
0.0597242,0.098268,0.172795,0.299936,0.0619626,0.129244,2.19123,2.33863,20.2363,13.0339,-0.417348,4.80428,1.65745,0.534397,20.2892,13.0816,-0.547322,4.83788,1.68345,0.586501
0.0596101,0.0978126,0.172384,0.298566,0.0617246,0.128725,2.19123,0.966839,20.2122,13.2738,-0.545298,4.78918,1.68417,0.53599,20.2582,13.2838,-0.666387,4.74168,1.71042,0.584785
0.0594584,0.0973603,0.171688,0.297194,0.0614522,0.128136,1.34382,0.966839,20.1818,13.5129,-0.673135,4.77072,1.71097,0.537497,20.2218,13.5187,-0.735134,4.74166,1.72461,0.522957
0.0594381,0.096952,0.170914,0.295834,0.061171,0.127578,1.34382,1.43614,20.1449,13.7509,-0.800753,4.74892,1.73784,0.53892,20.2021,13.7798,-0.824836,4.76958,1.74204,0.509442
0.0593246,0.0965237,0.170355,0.294495,0.0609206,0.127021,0.786243,1.43614,20.1017,13.9878,-0.928043,4.72375,1.76479,0.540258,20.147,14.0047,-1.0188,4.70031,1.78425,0.566541
0.0591647,0.0961641,0.169946,0.293174,0.0606824,0.126473,0.786243,0.362962,20.0521,14.2233,-1.0549,4.69521,1.7918,0.54151,20.0897,14.2636,-1.17136,4.71952,1.81407,0.56791
0.058936,0.0957935,0.169576,0.291869,0.0604508,0.125911,1.32917,0.362962,19.9962,14.4573,-1.18121,4.66331,1.81888,0.542677,20.018,14.4931,-1.30297,4.68348,1.84214,0.554163
0.0587408,0.0955688,0.170398,0.290656,0.0603233,0.125402,1.32917,0.960045,19.9339,14.6897,-1.30687,4.62805,1.84601,0.543759,19.9043,14.7554,-1.55246,4.70112,1.88975,0.580999
0.0585287,0.095268,0.170016,0.289454,0.0600841,0.124956,3.3296,0.960045,19.8655,14.9202,-1.43177,4.58944,1.8732,0.544754,19.8407,14.971,-1.55098,4.66013,1.89208,0.490111
0.0583498,0.0948938,0.169321,0.288202,0.0598296,0.124692,3.3296,2.29881,19.7908,15.1486,-1.55581,4.54751,1.90044,0.545663,19.8227,15.1785,-1.5135,4.57246,1.89045,0.456036
0.058129,0.0944864,0.17169,0.287526,0.0600704,0.12631,7.03143,2.29881,19.7099,15.3749,-1.67887,4.50226,1.92772,0.546486,19.6894,15.3824,-2.02873,4.30748,2.01096,0.796796
0.0580338,0.094179,0.171813,0.287639,0.0600858,0.127177,7.03143,3.57909,19.6229,15.5989,-1.80085,4.45372,1.95504,0.547223,19.6685,15.5526,-1.98631,4.1533,2.01689,0.751396
0.0580242,0.0940048,0.171299,0.287733,0.059973,0.127071,1.57591,3.57909,19.5298,15.8203,-1.92164,4.40193,1.98241,0.547874,19.5867,15.7496,-2.01503,4.10338,2.02727,0.661878
0.057924,0.0938318,0.171002,0.287683,0.0599088,0.126967,1.57591,0.105027,19.4307,16.039,-2.04114,4.3469,2.0098,0.548437,19.4753,15.9686,-2.17236,4.06516,2.06157,0.66237
0.0579037,0.0937341,0.170295,0.287128,0.0596793,0.126469,2.01808,0.105027,19.3257,16.255,-2.15925,4.28868,2.03722,0.548915,19.3811,16.1737,-2.1419,4.07793,2.05443,0.517389
0.0579046,0.0939446,0.169631,0.286877,0.0594563,0.125968,2.01808,0.419028,19.2148,16.4679,-2.27586,4.22731,2.06467,0.549305,19.2728,16.3514,-2.23492,3.97224,2.08329,0.523121
0.0579343,0.0943573,0.168973,0.286772,0.0592467,0.125452,0.237285,0.419028,19.0981,16.6777,-2.39087,4.16284,2.09213,0.549609,19.1595,16.5424,-2.35076,3.88907,2.11448,0.543014
0.0578409,0.094581,0.168285,0.286245,0.0590469,0.124942,0.237285,0.367626,18.9757,16.8841,-2.50418,4.0953,2.11961,0.549826,19.0207,16.7654,-2.5073,3.88295,2.14416,0.544801
0.0576223,0.0949333,0.16905,0.286938,0.0593236,0.125984,5.93795,0.367626,18.8477,17.0872,-2.61571,4.02476,2.1471,0.549957,18.8624,16.9559,-2.86133,3.6626,2.23399,0.769098
0.0575411,0.0948092,0.172405,0.286816,0.0597935,0.127024,5.93795,2.15568,18.7142,17.2866,-2.72534,3.95127,2.1746,0.55,18.6678,17.2087,-3.13981,3.68001,2.27715,0.770871
0.0573123,0.0946354,0.171724,0.285707,0.0595601,0.12705,6.23409,2.15568,18.5752,17.4822,-2.83299,3.87489,2.2021,0.549957,18.5759,17.4126,-2.84561,3.8273,2.21013,0.419721
0.057491,0.0943869,0.171608,0.28458,0.0593682,0.126882,6.23409,3.83452,18.4309,17.674,-2.93858,3.79568,2.2296,0.549826,18.3542,17.6193,-3.09491,3.79389,2.25507,0.446259
0.0575859,0.0941142,0.17094,0.283615,0.0591446,0.127842,1.18275,3.83452,18.2814,17.8617,-3.042,3.71372,2.25709,0.549609,18.2128,17.8135,-3.05447,3.81783,2.24557,0.331892
0.0574404,0.093833,0.170498,0.282759,0.0589888,0.128957,1.18275,0.869846,18.1268,18.0453,-3.14318,3.62906,2.28457,0.549305,18.0927,18.0001,-3.04434,3.76281,2.25104,0.318489
0.0573922,0.0937236,0.169864,0.281692,0.0587689,0.128516,3.12129,0.869846,17.9671,18.2246,-3.24204,3.5418,2.31204,0.548915,17.9163,18.1462,-3.27398,3.50102,2.3227,0.505661
0.0571738,0.0939443,0.169412,0.280767,0.0585443,0.128104,3.12129,0.969501,17.8026,18.3994,-3.3385,3.45199,2.33948,0.548437,17.7987,18.2802,-3.24494,3.34642,2.3408,0.496934
0.0570461,0.0941127,0.16959,0.279745,0.0583484,0.127847,6.29827,0.969501,17.6334,18.5697,-3.43247,3.35973,2.3669,0.547874,17.67,18.4557,-3.24094,3.30255,2.34678,0.45982
0.0568349,0.0940454,0.169243,0.278699,0.0581543,0.127568,6.29827,0.647231,17.4595,18.7353,-3.5239,3.26509,2.3943,0.547223,17.4668,18.6506,-3.40937,3.28761,2.37437,0.464486
0.0566253,0.0941698,0.168702,0.277735,0.0579376,0.127092,1.96214,0.647231,17.2811,18.8962,-3.61271,3.16817,2.42166,0.546486,17.2878,18.7867,-3.54859,3.09202,2.42484,0.553268
0.0564854,0.0945079,0.168395,0.276867,0.0577228,0.126622,1.96214,0.21424,17.0983,19.0521,-3.69883,3.06904,2.44898,0.545663,17.131,18.9199,-3.57832,2.95863,2.45071,0.552001
0.0564626,0.0946551,0.1684,0.275859,0.0575297,0.126205,2.94741,0.21424,16.9113,19.203,-3.78221,2.9678,2.47627,0.544754,16.9646,19.0902,-3.61323,2.9385,2.45882,0.503517
0.0562907,0.0950565,0.168021,0.274926,0.0573193,0.12575,2.94741,2.85578,16.7202,19.3488,-3.86278,2.86455,2.5035,0.543759,16.7432,19.2095,-3.75836,2.78886,2.5032,0.529399
0.056129,0.0953057,0.167529,0.273976,0.0571114,0.125296,3.24646,2.85578,16.5251,19.4894,-3.9405,2.75937,2.53069,0.542677,16.5508,19.3645,-3.86653,2.69923,2.53214,0.553493
0.0559388,0.0952584,0.166942,0.272992,0.0569056,0.124846,3.24646,0.859533,16.3262,19.6246,-4.01531,2.65237,2.55783,0.54151,16.3125,19.5362,-4.04286,2.66712,2.55842,0.547452
0.0558016,0.0956415,0.166491,0.272335,0.0567868,0.124668,9.95554,0.859533,16.1237,19.7545,-4.08716,2.54365,2.5849,0.540258,16.0923,19.6156,-4.16979,2.38745,2.6216,0.637045
0.0556873,0.0958239,0.166119,0.271553,0.0566482,0.124425,9.95554,0.758391,15.9176,19.8789,-4.15602,2.43329,2.61191,0.53892,15.8813,19.7603,-4.25728,2.31424,2.64368,0.622596
0.0554999,0.0959463,0.165615,0.270617,0.0564604,0.12423,3.3193,0.758391,15.7082,19.9978,-4.22185,2.32141,2.63886,0.537497,15.6962,19.8859,-4.15962,2.36286,2.625,0.444829
0.0554025,0.0957507,0.165035,0.270013,0.056316,0.124137,3.3193,1.14381,15.4956,20.111,-4.2846,2.2081,2.66574,0.53599,15.4564,20.049,-4.28736,2.37105,2.63642,0.425784
0.0553353,0.0954353,0.164463,0.269951,0.0562547,0.124178,5.39515,1.14381,15.2799,20.2185,-4.34427,2.09347,2.69253,0.534397,15.2352,20.1965,-4.35374,2.35438,2.64586,0.404451
0.0551456,0.0951064,0.164022,0.270312,0.0563261,0.124324,5.39515,1.83238,15.0613,20.3203,-4.4008,1.97763,2.71925,0.532721,15.0565,20.3249,-4.32318,2.29561,2.65345,0.388978
0.0549715,0.0947851,0.163469,0.269915,0.0562318,0.123958,2.41846,1.83238,14.84,20.4162,-4.4542,1.86068,2.74589,0.53096,14.8244,20.4046,-4.43261,2.06506,2.70561,0.484195
0.0547858,0.0944722,0.162938,0.269805,0.0561972,0.123621,2.41846,0.555119,14.6161,20.5063,-4.50443,1.74272,2.77244,0.529115,14.611,20.523,-4.46893,1.99596,2.72154,0.473164
0.0546257,0.094169,0.162424,0.269239,0.0560573,0.123235,1.19476,0.555119,14.3897,20.5904,-4.55149,1.62386,2.79889,0.527187,14.3695,20.6119,-4.59374,1.79005,2.77002,0.56131
0.0545299,0.0938589,0.161985,0.268512,0.0558893,0.122883,1.19476,0.696734,14.1611,20.6686,-4.59537,1.50421,2.82525,0.525176,14.1233,20.682,-4.66724,1.62372,2.80679,0.57277
0.0544755,0.0935534,0.161666,0.267656,0.0557042,0.122693,0.140701,0.696734,13.9304,20.7408,-4.63606,1.38386,2.85151,0.523081,13.8847,20.7557,-4.73968,1.44105,2.84643,0.61321
0.0548243,0.0932471,0.16188,0.26677,0.055523,0.122561,0.140701,1.48026,13.6977,20.807,-4.67357,1.26294,2.87767,0.520904,13.6043,20.8176,-4.86489,1.27473,2.88533,0.621763
0.0553061,0.0929515,0.162415,0.266305,0.0554663,0.123369,1.4144,1.48026,13.4632,20.8671,-4.70789,1.14153,2.90371,0.518645,13.358,20.8489,-4.9372,0.95853,2.94983,0.731228
0.0558643,0.0927098,0.1628,0.266338,0.0555111,0.124279,1.4144,0.140123,13.2271,20.9211,-4.73904,1.01975,2.92964,0.516304,13.1151,20.879,-4.95245,0.748564,2.99158,0.739275
0.0562971,0.092436,0.162722,0.265881,0.0554331,0.124328,2.27141,0.140123,12.9895,20.969,-4.76702,0.897694,2.95546,0.513881,12.8866,20.941,-4.91729,0.714551,2.99729,0.64554
0.0562555,0.092191,0.162208,0.265625,0.0553783,0.124423,2.27141,2.10866,12.7506,21.0108,-4.79186,0.775469,2.98115,0.511377,12.7012,20.9717,-4.81602,0.552754,3.02732,0.649651
0.0563075,0.0919267,0.161732,0.265191,0.055289,0.124302,2.62119,2.10866,12.5106,21.0465,-4.81358,0.653175,3.00672,0.508792,12.4467,21.0164,-4.86111,0.467228,3.04577,0.612622
0.0564173,0.0916533,0.161289,0.26472,0.0551922,0.124138,2.62119,0.190112,12.2695,21.0761,-4.83219,0.530912,3.03216,0.506127,12.198,21.0522,-4.89316,0.354441,3.06928,0.601146
0.056469,0.0913904,0.160808,0.264357,0.0551152,0.124013,0.906697,0.190112,12.0276,21.0996,-4.84773,0.408778,3.05747,0.503383,11.9635,21.0714,-4.88679,0.209523,3.09874,0.606061
0.0564801,0.0913311,0.160303,0.264758,0.0551918,0.12409,0.906697,1.69317,11.785,21.117,-4.86022,0.286869,3.08264,0.500558,11.7267,21.0356,-4.85091,-0.0350975,3.14883,0.636226
0.0564875,0.0914364,0.159825,0.265372,0.0553127,0.124082,1.03771,1.69317,11.5418,21.1283,-4.86971,0.165281,3.10766,0.497655,11.4841,21.0214,-4.83504,-0.184215,3.17967,0.620502
0.0563432,0.0916607,0.159574,0.266198,0.0554871,0.124117,1.03771,0.626593,11.2982,21.1335,-4.87623,0.0441057,3.13255,0.494673,11.2744,21.0112,-4.76379,-0.331629,3.2111,0.624223
0.0562224,0.0922492,0.159346,0.267538,0.0557728,0.124165,4.05284,0.626593,11.0544,21.1327,-4.87982,-0.076565,3.15728,0.491613,11.0233,20.9717,-4.76281,-0.508666,3.24799,0.623339
0.0560544,0.0932332,0.159749,0.269484,0.0562207,0.124354,4.05284,0.329127,10.8105,21.1259,-4.88053,-0.196643,3.18186,0.488475,10.8198,20.9303,-4.66523,-0.688465,3.28811,0.640339
0.0558832,0.093982,0.160118,0.269431,0.0562334,0.123984,5.50348,0.329127,10.5666,21.1131,-4.8784,-0.316041,3.20629,0.48526,10.5667,20.9351,-4.66655,-0.576657,3.26454,0.465821
0.0559234,0.0941004,0.159644,0.268636,0.0560677,0.123837,5.50348,3.53197,10.3229,21.0943,-4.87349,-0.434674,3.23055,0.481969,10.2607,20.9825,-4.849,-0.479426,3.24014,0.38508
0.0559383,0.0941957,0.159171,0.267858,0.0559056,0.123554,1.05798,3.53197,10.0795,21.0697,-4.86585,-0.552463,3.25465,0.478601,10.0212,20.9609,-4.84427,-0.60604,3.26605,0.41778
0.0557735,0.0943618,0.159215,0.267114,0.0557593,0.123216,1.05798,1.60163,9.83658,21.0391,-4.85554,-0.669327,3.27858,0.475158,9.84399,20.9204,-4.68923,-0.742075,3.29854,0.438576
0.0556144,0.0943337,0.159266,0.266497,0.0556163,0.123405,1.03829,1.60163,9.59422,21.0028,-4.84262,-0.785189,3.30233,0.47164,9.60576,20.9133,-4.675,-0.658526,3.28153,0.31996
0.0557391,0.0943474,0.16031,0.265865,0.055462,0.12341,1.03829,0.833864,9.35258,20.9607,-4.82714,-0.899977,3.32592,0.468047,9.42634,20.8641,-4.54129,-0.780964,3.3119,0.343881
0.0561008,0.0943671,0.161459,0.265109,0.055299,0.123084,1.75922,0.833864,9.11177,20.9128,-4.80919,-1.01362,3.34932,0.46438,9.21168,20.8152,-4.5116,-0.963571,3.35201,0.424406
0.0559538,0.0941987,0.161069,0.264651,0.0551882,0.122908,1.75922,2.40985,8.87192,20.8594,-4.78881,-1.12605,3.37254,0.46064,8.8901,20.8004,-4.72127,-0.956543,3.34149,0.372656
0.0559214,0.0941559,0.160962,0.263888,0.0550277,0.122553,4.77424,2.40985,8.63315,20.8003,-4.76608,-1.2372,3.39557,0.456828,8.68323,20.7138,-4.62464,-1.2102,3.39754,0.468196
0.0557608,0.0941861,0.160501,0.263126,0.0548685,0.1222,4.77424,2.85327,8.39557,20.7357,-4.74108,-1.34701,3.41841,0.452943,8.39064,20.6365,-4.72446,-1.33697,3.41737,0.459165
0.0556004,0.0942868,0.16006,0.262418,0.0547227,0.12193,0.179899,2.85327,8.1593,20.6657,-4.71387,-1.45542,3.44106,0.448987,8.15959,20.5554,-4.67913,-1.52271,3.45621,0.507848
0.0554456,0.0944209,0.15961,0.261738,0.0545808,0.121665,0.179899,0.0832893,7.92445,20.5903,-4.68453,-1.56237,3.46351,0.444959,7.91535,20.4749,-4.66391,-1.64277,3.48025,0.50496
0.0552929,0.0946044,0.159245,0.261413,0.0545184,0.121813,3.36539,0.0832893,7.69111,20.5096,-4.65313,-1.66782,3.48576,0.440862,7.70104,20.387,-4.58244,-1.86423,3.52797,0.5863
0.0555916,0.094576,0.159444,0.260777,0.0543652,0.121594,3.36539,2.66615,7.45939,20.4236,-4.61975,-1.7717,3.5078,0.436695,7.36494,20.3342,-4.81104,-1.86952,3.51222,0.510088
0.0560064,0.0945548,0.159615,0.260089,0.0542125,0.121291,0.262975,2.66615,7.22939,20.3326,-4.58448,-1.87399,3.52963,0.432459,7.12294,20.2418,-4.77186,-1.93874,3.52751,0.4735
0.0568675,0.0944782,0.160289,0.259374,0.0540699,0.120965,0.262975,0.188926,7.00119,20.2364,-4.54738,-1.97462,3.55126,0.428154,6.8579,20.1567,-4.80047,-2.00932,3.538,0.451912
0.0578102,0.0943473,0.160879,0.258661,0.0539505,0.12063,0.541949,0.188926,6.7749,20.1352,-4.50854,-2.07357,3.57267,0.423782,6.62425,20.0683,-4.75315,-2.04641,3.54814,0.414133
0.0589558,0.094177,0.16156,0.25797,0.0538474,0.1203,0.541949,0.0882053,6.55059,20.0292,-4.46805,-2.17079,3.59385,0.419343,6.38459,19.9736,-4.72417,-2.12271,3.56389,0.406708
0.0600322,0.0939593,0.162,0.257301,0.053748,0.119969,2.97715,0.0882053,6.32834,19.9183,-4.42598,-2.26625,3.61482,0.414838,6.16468,19.8806,-4.65409,-2.20429,3.58392,0.414017
0.061757,0.0937107,0.163164,0.25672,0.0537103,0.119651,2.97715,0.258277,6.10823,19.8027,-4.38241,-2.35993,3.63556,0.410268,5.90318,19.7857,-4.6915,-2.25264,3.58924,0.389557
0.0637439,0.093511,0.164044,0.256089,0.0535729,0.119517,1.65908,0.258277,5.89034,19.6824,-4.33744,-2.45178,3.65608,0.405632,5.66741,19.6388,-4.6195,-2.53166,3.64293,0.497322
0.0645233,0.0933396,0.163638,0.255592,0.0534446,0.119647,1.65908,2.07374,5.67472,19.5577,-4.29114,-2.5418,3.67636,0.400933,5.52453,19.5046,-4.33918,-2.67792,3.69453,0.542452
0.0650764,0.0932455,0.163221,0.255293,0.0533669,0.119916,1.7783,2.07374,5.46145,19.4284,-4.24359,-2.62995,3.6964,0.39617,5.32918,19.3547,-4.20553,-2.82213,3.73263,0.558388
0.0655645,0.0930546,0.16282,0.254833,0.0532671,0.120063,1.7783,2.02963,5.25059,19.2949,-4.19488,-2.71622,3.71621,0.391345,5.12347,19.2496,-4.14858,-2.86213,3.74551,0.536193
0.0657974,0.0928164,0.162557,0.254155,0.0531313,0.119825,4.83895,2.02963,5.04219,19.157,-4.1451,-2.80059,3.73578,0.386458,4.94193,19.1387,-4.04276,-2.79649,3.74674,0.447281
0.0656807,0.092597,0.163307,0.253503,0.0530703,0.119785,4.83895,0.621382,4.8363,19.015,-4.09432,-2.88305,3.7551,0.381509,4.79847,18.9845,-3.82488,-2.92883,3.79509,0.493515
0.0655765,0.0923896,0.163898,0.252988,0.0530571,0.119962,1.51517,0.621382,4.63297,18.8689,-4.04263,-2.96359,3.77418,0.376501,4.59157,18.833,-3.79082,-3.08497,3.82469,0.526207
0.0654126,0.0921564,0.1649,0.252426,0.0530603,0.120137,1.51517,1.06929,4.43224,18.7188,-3.99012,-3.0422,3.793,0.371433,4.41813,18.7011,-3.6905,-3.14061,3.84667,0.521114
0.0652475,0.091917,0.166236,0.251768,0.0530103,0.119983,1.22681,1.06929,4.23416,18.5648,-3.93685,-3.11888,3.81158,0.366306,4.24593,18.5591,-3.602,-3.11095,3.85397,0.451983
0.0654661,0.091679,0.170261,0.251118,0.0531594,0.120131,1.22681,1.3532,4.03876,18.4071,-3.88293,-3.19362,3.82989,0.361122,4.1376,18.4036,-3.34528,-3.21079,3.90648,0.506831
0.0658149,0.0914531,0.174606,0.251173,0.0536953,0.121585,6.90631,1.3532,3.84606,18.2457,-3.82841,-3.26644,3.84795,0.355881,3.96082,18.2262,-3.26302,-3.52798,3.96599,0.643304
0.0656462,0.0912214,0.174673,0.250762,0.0536651,0.121697,6.90631,3.43093,3.65611,18.0807,-3.77339,-3.33732,3.86574,0.350583,3.65888,18.0911,-3.58604,-3.48848,3.9132,0.492387
0.0655091,0.0910175,0.17491,0.250123,0.053565,0.121443,3.42911,3.43093,3.46891,17.9122,-3.71795,-3.40627,3.88327,0.34523,3.49694,17.9444,-3.50177,-3.39223,3.9111,0.39732
0.0653987,0.0908353,0.174466,0.24954,0.0534335,0.121138,3.42911,1.10595,3.28449,17.7402,-3.66215,-3.47331,3.90053,0.339823,3.2465,17.7822,-3.65835,-3.40138,3.89061,0.326952
0.0652769,0.0906291,0.174082,0.249015,0.0533234,0.121067,2.37239,1.10595,3.10287,17.565,-3.60609,-3.53844,3.91752,0.334362,3.06931,17.594,-3.54333,-3.64044,3.94051,0.440485
0.0651534,0.0906317,0.173661,0.248391,0.0531896,0.120876,2.37239,6.18502,2.92405,17.3866,-3.54982,-3.60167,3.93424,0.328848,2.89155,17.4778,-3.51513,-3.58609,3.93698,0.402659
0.064996,0.090478,0.17407,0.248329,0.0532651,0.121745,2.56333,6.18502,2.74805,17.2051,-3.49344,-3.66302,3.95068,0.323282,2.76018,17.2565,-3.25144,-3.89877,4.01728,0.561636
0.0648354,0.0903121,0.174415,0.248331,0.0533403,0.12247,2.56333,0.0749892,2.57486,17.0205,-3.437,-3.72251,3.96685,0.317665,2.58059,17.067,-3.20366,-3.97116,4.03356,0.542132
0.0646785,0.0902337,0.174546,0.247717,0.0532551,0.122306,2.46625,0.0749892,2.4045,16.833,-3.38059,-3.78015,3.98273,0.311998,2.41441,16.9058,-3.18138,-3.79331,4.0145,0.395001
0.0645255,0.0902474,0.174597,0.247111,0.0531538,0.122109,2.46625,0.510815,2.23695,16.6427,-3.32428,-3.83595,3.99833,0.306282,2.24998,16.7357,-3.13975,-3.81518,4.0238,0.378271
0.0643704,0.0902556,0.174278,0.24662,0.0530234,0.12181,4.60648,0.510815,2.07221,16.4497,-3.26812,-3.88995,4.01365,0.300517,2.06295,16.5416,-3.17993,-3.78203,4.01326,0.293739
0.0642132,0.090126,0.174083,0.24603,0.052905,0.121525,4.60648,2.28157,1.91027,16.2539,-3.21219,-3.94216,4.02867,0.294705,1.9107,16.3119,-3.08373,-3.90678,4.04419,0.319536
0.0640578,0.0900875,0.17373,0.245659,0.0527793,0.121258,0.532733,2.28157,1.75112,16.0557,-3.15656,-3.99261,4.04341,0.288846,1.74711,16.1375,-3.08598,-3.8413,4.0356,0.251161
0.0640705,0.0902576,0.173617,0.245679,0.0527857,0.121194,0.532733,1.2098,1.59474,15.8549,-3.10129,-4.04132,4.05785,0.282942,1.5281,15.9752,-3.24984,-3.79144,4.00376,0.175829
0.0639414,0.0902299,0.173284,0.245097,0.0526703,0.121108,2.71494,1.2098,1.44111,15.6517,-3.04644,-4.08832,4.072,0.276993,1.41524,15.736,-2.96815,-4.11883,4.08795,0.378856
0.0638903,0.0901435,0.172873,0.244542,0.052548,0.120968,2.71494,0.59953,1.29021,15.4463,-2.99207,-4.13364,4.08584,0.271,1.23803,15.5162,-2.97478,-4.19093,4.09511,0.358112
0.0639265,0.0901248,0.172492,0.243961,0.0524265,0.120712,0.851392,0.59953,1.14201,15.2386,-2.93825,-4.1773,4.0994,0.264964,1.07093,15.3247,-2.98563,-4.16379,4.09031,0.305331
0.0646277,0.090065,0.173118,0.243387,0.0523963,0.120434,0.851392,1.55897,0.996486,15.0288,-2.88503,-4.21933,4.11264,0.258887,0.844471,15.1052,-3.1596,-4.19644,4.06702,0.238012
0.0654725,0.0901696,0.174189,0.243119,0.0525081,0.120327,2.17309,1.55897,0.853604,14.8169,-2.83246,-4.25977,4.12559,0.252769,0.687845,14.9269,-3.16234,-4.08203,4.05327,0.157647
0.0656648,0.0902827,0.17389,0.242757,0.0524274,0.120047,2.17309,1.1312,0.71333,14.603,-2.78061,-4.29864,4.13823,0.246611,0.615057,14.7147,-2.871,-4.15149,4.10735,0.234891
0.0656701,0.090244,0.173595,0.242218,0.0523239,0.12012,2.09571,1.1312,0.575628,14.3872,-2.72952,-4.33598,4.15056,0.240414,0.508839,14.4688,-2.63843,-4.39071,4.1713,0.375167
0.065959,0.0901776,0.173202,0.241699,0.0522023,0.120022,2.09571,0.504945,0.440459,14.1696,-2.67925,-4.37181,4.16258,0.234179,0.328708,14.2442,-2.70885,-4.43993,4.16457,0.330998
0.0661887,0.0900056,0.172968,0.242016,0.0521795,0.120805,2.1887,0.504945,0.307779,13.9502,-2.62984,-4.40617,4.17429,0.227907,0.203334,13.9881,-2.51817,-4.70881,4.22131,0.462684
0.0661643,0.0897992,0.178797,0.242587,0.0530459,0.123555,2.1887,3.87322,0.177545,13.7292,-2.58135,-4.43909,4.18568,0.221599,0.238199,13.7361,-1.89222,-4.78347,4.3357,0.622101
0.0662941,0.0895973,0.186054,0.243712,0.054184,0.126549,0.461506,3.87322,0.0497099,13.5065,-2.53381,-4.47061,4.19676,0.215255,0.13986,13.4936,-1.75334,-4.89257,4.36828,0.637766
0.0661666,0.0894078,0.189047,0.244871,0.0547351,0.127953,0.461506,1.58818,-0.0757753,13.2823,-2.48728,-4.50075,4.20752,0.208878,-0.0493941,13.2578,-1.95763,-4.92905,4.33433,0.515948
0.0660407,0.0892086,0.191018,0.244909,0.0550202,0.128329,1.66237,1.58818,-0.198962,13.0566,-2.44179,-4.52955,4.21797,0.202468,-0.1722,13.0438,-1.99405,-4.78266,4.31737,0.396233
0.067065,0.0890083,0.200869,0.244906,0.056367,0.130204,1.66237,3.13824,-0.319903,12.8295,-2.39739,-4.55704,4.22809,0.196026,-0.13418,12.8211,-1.45416,-4.80127,4.4183,0.547621
0.0680759,0.0888077,0.208002,0.24444,0.0572502,0.130876,3.57259,3.13824,-0.438654,12.6011,-2.35412,-4.58326,4.23789,0.189554,-0.252042,12.5991,-1.52481,-4.68022,4.39743,0.425981
0.0688032,0.0886089,0.212274,0.243969,0.0577627,0.131036,3.57259,0.569432,-0.555273,12.3714,-2.31202,-4.60823,4.24737,0.183051,-0.391462,12.3667,-1.64596,-4.69995,4.37553,0.345743
0.0693102,0.0884204,0.21432,0.243425,0.0579323,0.13082,3.43587,0.569432,-0.669817,12.1404,-2.27111,-4.63198,4.25652,0.176519,-0.526912,12.1598,-1.78062,-4.61905,4.34445,0.243737
0.0701981,0.0882605,0.216913,0.242898,0.0581626,0.130651,3.43587,0.472324,-0.78235,11.9083,-2.23144,-4.65456,4.26535,0.169959,-0.60159,11.9466,-1.68593,-4.61521,4.36215,0.254644
0.0707547,0.0881085,0.217794,0.242396,0.0581772,0.130367,2.51523,0.472324,-0.892931,11.6751,-2.19304,-4.67598,4.27385,0.163373,-0.742409,11.7167,-1.82755,-4.61352,4.33522,0.180773
0.0706191,0.0879419,0.217447,0.24197,0.0580814,0.130406,2.51523,3.25228,-1.00163,11.4409,-2.15594,-4.69628,4.28202,0.156761,-0.976039,11.4741,-2.27077,-4.58712,4.25272,0.0177118
0.0704742,0.0877898,0.217344,0.241791,0.0580505,0.130704,1.63158,3.25228,-1.1085,11.2057,-2.12017,-4.71549,4.28985,0.150124,-1.09044,11.2462,-2.31266,-4.51836,4.23932,-0.0361535
0.0704561,0.0876719,0.219124,0.241866,0.0583347,0.131489,1.63158,0.954593,-1.21362,10.9695,-2.08575,-4.73364,4.29736,0.143463,-1.27983,11.024,-2.5602,-4.47519,4.19275,-0.109966
0.070316,0.0875181,0.218893,0.241343,0.0582394,0.131204,2.89681,0.954593,-1.31706,10.7324,-2.05273,-4.75075,4.30453,0.136779,-1.33769,10.771,-2.21009,-4.73136,4.27539,0.127087
0.0702371,0.0873397,0.218896,0.240821,0.0581659,0.130924,2.89681,0.555808,-1.41889,10.4945,-2.02111,-4.76686,4.31137,0.130074,-1.4677,10.5159,-2.24076,-4.77681,4.27377,0.114032
0.0701346,0.0871531,0.218488,0.240546,0.0580405,0.130799,1.50773,0.555808,-1.51917,10.2559,-1.99093,-4.78198,4.31787,0.123349,-1.5591,10.2474,-2.07159,-4.9471,4.31583,0.221021
0.0699987,0.0869792,0.218019,0.240128,0.0579187,0.13074,1.50773,2.12062,-1.61797,10.0165,-1.96222,-4.79615,4.32404,0.116604,-1.63994,10.0398,-1.95514,-4.90116,4.33282,0.232809
0.0698532,0.086823,0.217567,0.239633,0.0577985,0.130617,0.626477,2.12062,-1.71539,9.77637,-1.93497,-4.80939,4.32987,0.10984,-1.72717,9.81117,-1.89731,-4.85496,4.33984,0.207677
0.0697275,0.0867247,0.21741,0.239123,0.0577142,0.130643,0.626477,0.954974,-1.81147,9.53564,-1.90924,-4.82172,4.33537,0.10306,-1.78398,9.59507,-1.73216,-4.82636,4.36781,0.23968
0.0695797,0.0865874,0.217153,0.238734,0.0576336,0.130799,2.22022,0.954974,-1.90631,9.29431,-1.88502,-4.83316,4.34052,0.0962627,-1.90423,9.33793,-1.74042,-4.94894,4.37422,0.259612
0.0694435,0.0864083,0.217193,0.238629,0.0576192,0.1311,2.22022,3.94253,-1.99998,9.05243,-1.86233,-4.84374,4.34533,0.0894504,-1.98125,9.04001,-1.63591,-5.05603,4.39946,0.278616
0.0693201,0.0862296,0.217079,0.238177,0.0575536,0.131027,2.10705,3.94253,-2.09256,8.81003,-1.8412,-4.85347,4.3498,0.0826241,-2.0652,8.82116,-1.65307,-4.92878,4.38879,0.195035
0.0691935,0.086049,0.216924,0.237757,0.0574855,0.130936,2.10705,0.0650039,-2.18412,8.56717,-1.82164,-4.86238,4.35393,0.0757847,-2.15931,8.56853,-1.64547,-4.95712,4.39189,0.182882
0.0690752,0.0858755,0.216474,0.237391,0.0573667,0.130695,2.43067,0.0650039,-2.27474,8.32388,-1.80365,-4.87047,4.35772,0.0689333,-2.30407,8.30826,-1.81729,-4.99179,4.36325,0.113732
0.0689736,0.0856972,0.216488,0.236955,0.0573211,0.130642,2.43067,1.14391,-2.3645,8.0802,-1.78727,-4.87778,4.36117,0.062071,-2.32719,8.08224,-1.56738,-4.95851,4.40623,0.179508
0.0690063,0.0855578,0.216978,0.236466,0.0573202,0.130616,5.52134,1.14391,-2.45348,7.83617,-1.77248,-4.8843,4.36427,0.0551989,-2.37702,7.87575,-1.45895,-4.8712,4.42139,0.179188
0.0689124,0.085402,0.216823,0.235984,0.0572426,0.130446,5.52134,0.648241,-2.54177,7.59183,-1.75931,-4.89006,4.36703,0.0483182,-2.50158,7.62094,-1.58396,-4.91395,4.40056,0.127578
0.0688692,0.0852514,0.216956,0.235566,0.0572161,0.130411,4.44309,0.648241,-2.62944,7.34723,-1.74777,-4.89507,4.36945,0.0414297,-2.68686,7.37922,-1.99492,-4.80784,4.31908,-0.0801283
0.0689087,0.085091,0.217364,0.235136,0.0572239,0.130368,4.44309,0.212256,-2.71658,7.10238,-1.73786,-4.89933,4.37152,0.0345348,-2.79452,7.12631,-2.03867,-4.82251,4.31243,-0.0848928
0.0687972,0.0849513,0.216928,0.234659,0.0571085,0.130136,2.32495,0.212256,-2.80326,6.85734,-1.72958,-4.90286,4.37325,0.0276344,-2.83443,6.89469,-1.75517,-4.89028,4.3678,0.0739444
0.0686855,0.0849552,0.216765,0.234295,0.0570146,0.130017,2.32495,2.52908,-2.88957,6.61214,-1.72295,-4.90566,4.37463,0.0207296,-2.85889,6.69805,-1.55085,-4.79202,4.3994,0.117096
0.0686778,0.085114,0.21665,0.234394,0.0569116,0.129766,3.29947,2.52908,-2.97559,6.36681,-1.71797,-4.90774,4.37567,0.0138216,-2.90883,6.48478,-1.53209,-4.65024,4.39412,0.0407369
0.0688248,0.0853519,0.216833,0.234524,0.0568337,0.12955,3.29947,0.24762,-3.0614,6.12139,-1.71464,-4.90911,4.37636,0.00691132,-2.96267,6.25307,-1.45628,-4.64414,4.40853,0.0606977
0.068783,0.0855329,0.216606,0.234267,0.0567313,0.129345,3.83554,0.24762,-3.14709,5.87592,-1.71297,-4.90976,4.3767,-1.77E-16,-3.08964,5.99848,-1.56312,-4.752,4.3946,0.0595005
0.0687178,0.0855416,0.216293,0.233842,0.0566277,0.129138,3.83554,1.91391,-3.23274,5.63044,-1.71295,-4.9097,4.3767,-0.00691132,-3.18295,5.71811,-1.5994,-4.83948,4.3932,0.0503896
0.0685934,0.0855287,0.215915,0.23349,0.0565311,0.12893,1.69419,1.91391,-3.31843,5.38497,-1.71458,-4.90893,4.37636,-0.0138216,-3.298,5.46719,-1.78957,-4.7941,4.35512,-0.070168
0.0684577,0.0854517,0.215681,0.233067,0.0564524,0.128731,1.69419,0.580894,-3.40424,5.13955,-1.71787,-4.90745,4.37567,-0.0207296,-3.40555,5.20268,-1.86293,-4.83927,4.34491,-0.0811086
0.0683451,0.0853769,0.215276,0.232609,0.0563433,0.128547,0.633772,0.580894,-3.49026,4.89422,-1.72281,-4.90525,4.37463,-0.0276344,-3.46248,4.95792,-1.67583,-4.8952,4.38255,0.0396386
0.0682164,0.0852183,0.214892,0.232241,0.0562336,0.128336,0.633772,1.93487,-3.57657,4.64902,-1.72939,-4.90233,4.37325,-0.0345348,-3.59039,4.66878,-1.79401,-5.00475,4.3682,0.0175961
0.0681218,0.0850537,0.214876,0.231816,0.0561631,0.12812,1.63663,1.93487,-3.66325,4.40398,-1.73762,-4.89868,4.37152,-0.0414297,-3.7,4.41329,-1.94844,-4.95685,4.33786,-0.0890615
0.0682597,0.0849039,0.215651,0.231528,0.0561552,0.127931,1.63663,1.86038,-3.75039,4.15913,-1.74749,-4.8943,4.36945,-0.0483182,-3.84772,4.13286,-2.11075,-5.03395,4.31535,-0.111326
0.0683042,0.0847478,0.215411,0.231315,0.056053,0.127794,1.75799,1.86038,-3.83806,3.91452,-1.75899,-4.88918,4.36703,-0.0551989,-3.91697,3.89515,-1.89939,-5.05704,4.3531,0.0303502
0.06826,0.084584,0.215015,0.230952,0.0559448,0.127691,1.75799,0.987822,-3.92635,3.67019,-1.77212,-4.8833,4.36427,-0.062071,-3.98207,3.67029,-1.81988,-4.98319,4.36223,0.0355781
0.0682235,0.0844802,0.214703,0.230535,0.0558556,0.127447,4.00948,0.987822,-4.01533,3.42616,-1.78686,-4.87666,4.36117,-0.0689333,-4.07333,3.47706,-1.8935,-4.81884,4.33799,-0.0575159
0.0681962,0.0843774,0.214378,0.230114,0.055764,0.127209,4.00948,0.0215349,-4.10509,3.18248,-1.8032,-4.86925,4.35772,-0.0757847,-4.16578,3.23353,-1.90154,-4.81858,4.33652,-0.05555
0.0682724,0.0842463,0.214297,0.229679,0.0557015,0.126974,0.472416,0.0215349,-4.19571,2.93919,-1.82113,-4.86104,4.35393,-0.0826241,-4.28158,2.97563,-2.0134,-4.83878,4.31808,-0.105937
0.0683697,0.084086,0.214195,0.229274,0.0556231,0.126732,0.472416,1.32545,-4.28727,2.69633,-1.84065,-4.85202,4.3498,-0.0894504,-4.37759,2.69566,-2.02614,-4.91485,4.32137,-0.0899246
0.0684206,0.0839278,0.213831,0.228912,0.0555188,0.126591,0.357066,1.32545,-4.37985,2.45393,-1.86173,-4.84218,4.34533,-0.0962627,-4.46056,2.44654,-1.93073,-4.93582,4.33952,-0.0149329
0.068538,0.0838003,0.213469,0.22872,0.055414,0.126488,0.357066,0.507283,-4.47352,2.21205,-1.88436,-4.83149,4.34052,-0.10306,-4.56809,2.17497,-1.95273,-5.00219,4.34021,-0.00759565
0.0687078,0.0836486,0.213558,0.228308,0.0553588,0.126308,3.58299,0.507283,-4.56836,1.97072,-1.90853,-4.81994,4.33537,-0.10984,-4.67273,1.95448,-2.14446,-4.86672,4.29735,-0.172168
0.0690539,0.0835706,0.213823,0.228075,0.0553002,0.126094,3.58299,1.35308,-4.66444,1.72998,-1.93422,-4.80751,4.32987,-0.116604,-4.79656,1.67067,-2.20973,-4.96134,4.29338,-0.155637
0.0695701,0.0835148,0.214397,0.227821,0.0552706,0.125911,0.0930503,1.35308,-4.76186,1.48989,-1.9614,-4.79417,4.32404,-0.123349,-4.91659,1.42295,-2.29549,-4.93907,4.27733,-0.182908
0.0697885,0.0834107,0.21453,0.227414,0.0552208,0.125718,0.0930503,5.38247,-4.86067,1.25049,-1.99007,-4.7799,4.31787,-0.130074,-4.97481,1.20251,-2.2376,-4.8254,4.27819,-0.182825
0.069942,0.083261,0.214306,0.227005,0.0551451,0.125488,1.32289,5.38247,-4.96094,1.01182,-2.02019,-4.76468,4.31137,-0.136779,-5.0642,0.996907,-2.16187,-4.72438,4.28323,-0.122088
0.0699101,0.0831073,0.213936,0.226655,0.0550529,0.125267,1.32289,3.93846,-5.06277,0.77393,-2.05174,-4.74848,4.30453,-0.143463,-5.12345,0.774249,-2.10641,-4.65669,4.28759,-0.116367
0.0698601,0.0830787,0.213549,0.226365,0.0549523,0.125089,5.60444,3.93846,-5.16621,0.536876,-2.08471,-4.73127,4.29736,-0.150124,-5.22086,0.461933,-2.11212,-4.85634,4.30215,-0.0904768
0.0697467,0.0830508,0.213172,0.226044,0.0548597,0.12494,5.60444,1.60801,-5.27133,0.300706,-2.11906,-4.71303,4.28985,-0.156761,-5.29496,0.225642,-2.0777,-4.82077,4.30546,-0.0828015
0.0696359,0.0830267,0.21303,0.225758,0.0548119,0.125173,5.78208,1.60801,-5.3782,0.0654719,-2.15477,-4.69374,4.28202,-0.163373,-5.40338,-0.010692,-1.98491,-4.81879,4.32166,0.0143658
0.0695164,0.0830058,0.213248,0.225473,0.0548198,0.125492,5.78208,1.59063,-5.4869,-0.168772,-2.19181,-4.67335,4.27385,-0.169959,-5.47036,-0.245831,-1.92544,-4.79831,4.33078,0.0240794
0.0693909,0.0828553,0.213021,0.225117,0.0547306,0.12535,3.36976,1.59063,-5.59748,-0.401971,-2.23014,-4.65185,4.26535,-0.176519,-5.59291,-0.403004,-2.09315,-4.57048,4.28292,-0.0993117
0.0692755,0.0827845,0.212664,0.225119,0.0546348,0.125133,3.36976,1.9138,-5.71001,-0.634069,-2.26974,-4.62919,4.25652,-0.183051,-5.72965,-0.573933,-2.2127,-4.40368,4.24677,-0.157854
0.0691647,0.082731,0.21239,0.225083,0.0545878,0.125053,4.98268,1.9138,-5.82456,-0.865006,-2.31058,-4.60536,4.24737,-0.189554,-5.84768,-0.798737,-2.42392,-4.39034,4.20793,-0.289891
0.069041,0.082583,0.212017,0.224681,0.0544913,0.124833,4.98268,2.264,-5.94118,-1.09472,-2.35262,-4.58032,4.23789,-0.196026,-5.94462,-1.0902,-2.3838,-4.56484,4.23113,-0.214033
0.0689404,0.0824929,0.211732,0.224469,0.0544267,0.124686,3.21195,2.264,-6.05993,-1.32316,-2.39581,-4.55404,4.22809,-0.202468,-6.03027,-1.37468,-2.29012,-4.70811,4.25966,-0.12967
0.0688194,0.0823594,0.211362,0.2241,0.0543335,0.124479,3.21195,0.861483,-6.18087,-1.55025,-2.44014,-4.52648,4.21797,-0.208878,-6.17238,-1.57516,-2.41116,-4.58949,4.22866,-0.176759
0.0687047,0.082233,0.21139,0.223734,0.0542672,0.124459,2.67554,0.861483,-6.30406,-1.77593,-2.48555,-4.49762,4.20752,-0.215255,-6.32102,-1.80623,-2.70456,-4.56095,4.17715,-0.334051
0.0685833,0.0821916,0.211217,0.223561,0.0541743,0.124292,2.67554,0.77887,-6.42954,-2.00014,-2.532,-4.46742,4.19676,-0.221599,-6.42985,-2.06967,-2.68699,-4.63509,4.18703,-0.282772
0.0684777,0.0820763,0.211057,0.223175,0.0540965,0.1241,3.11772,0.77887,-6.55738,-2.22281,-2.57946,-4.43585,4.18568,-0.227907,-6.58179,-2.25987,-2.73895,-4.46769,4.16242,-0.271226
0.0684175,0.0819428,0.211092,0.222789,0.054051,0.123937,3.11772,0.218374,-6.68761,-2.44386,-2.62788,-4.40288,4.17429,-0.234179,-6.73597,-2.46615,-2.84871,-4.37542,4.13526,-0.296969
0.0684386,0.0818003,0.211324,0.222458,0.0540469,0.123795,0.812333,0.218374,-6.82029,-2.66323,-2.6772,-4.36847,4.16258,-0.240414,-6.89452,-2.66972,-2.94649,-4.28218,4.10971,-0.312948
0.068332,0.0818213,0.210982,0.222352,0.0539559,0.123634,0.812333,3.19743,-6.95546,-2.88084,-2.7274,-4.3326,4.15056,-0.246611,-6.97773,-2.96846,-2.78396,-4.52227,4.16057,-0.183953
0.0682157,0.0818867,0.210645,0.2223,0.0538932,0.123652,0.366674,3.19743,-7.09316,-3.09663,-2.7784,-4.29523,4.13823,-0.252769,-7.10304,-3.19552,-2.71786,-4.50216,4.16927,-0.124293
0.0680983,0.0818519,0.210317,0.222042,0.053819,0.123597,0.366674,1.36936,-7.23344,-3.31051,-2.83017,-4.25632,4.12559,-0.258887,-7.22819,-3.38162,-2.76316,-4.38371,4.14997,-0.152198
0.0679816,0.0820114,0.210085,0.222193,0.0537998,0.123704,4.47382,1.36936,-7.37632,-3.5224,-2.88265,-4.21586,4.11264,-0.264964,-7.37054,-3.64189,-2.75656,-4.47804,4.1606,-0.113366
0.0678734,0.0818761,0.209732,0.221837,0.0537118,0.123501,4.47382,4.32845,-7.52184,-3.73223,-2.93579,-4.1738,4.0994,-0.271,-7.54037,-3.74874,-2.96819,-4.11522,4.08753,-0.24484
0.067765,0.0817399,0.209402,0.221469,0.0536261,0.123292,0.461941,4.32845,-7.67004,-3.93992,-2.98953,-4.13012,4.08584,-0.276993,-7.68775,-3.95405,-3.04904,-4.09016,4.0718,-0.262452
0.0676542,0.0816585,0.209045,0.221147,0.0535369,0.123139,0.461941,0.704509,-7.82094,-4.14539,-3.04381,-4.08479,4.072,-0.282942,-7.83489,-4.19814,-3.05081,-4.17014,4.08078,-0.218646
0.0675415,0.0816254,0.2087,0.220922,0.0534614,0.123051,0.441998,0.704509,-7.97457,-4.34854,-3.09857,-4.03778,4.05785,-0.288846,-7.98444,-4.41982,-3.06152,-4.17776,4.07998,-0.194975
0.0674283,0.0818069,0.208424,0.221181,0.0534455,0.123124,0.441998,1.28154,-8.13095,-4.5493,-3.15376,-3.98906,4.04341,-0.294705,-8.13857,-4.67345,-3.05574,-4.27638,4.09196,-0.151755
0.0673251,0.082051,0.20887,0.221453,0.053575,0.123726,1.98848,1.28154,-8.29011,-4.74759,-3.2093,-3.93861,4.02867,-0.300517,-8.26939,-4.88371,-2.89545,-4.22946,4.11208,-0.057401
0.0672972,0.0824638,0.209938,0.222201,0.0538716,0.124564,1.98848,0.200343,-8.45204,-4.94331,-3.26514,-3.88641,4.01365,-0.306282,-8.39359,-5.10732,-2.84509,-4.27068,4.12471,-0.028514
0.0673253,0.0826689,0.211352,0.222362,0.0541328,0.125333,3.24528,0.200343,-8.61678,-5.13637,-3.32121,-3.83242,3.99833,-0.311998,-8.54158,-5.26635,-2.85038,-4.09825,4.10468,-0.0422507
0.0672768,0.0828789,0.212185,0.222431,0.0542923,0.125777,3.24528,1.98916,-8.78433,-5.32669,-3.37745,-3.77663,3.98273,-0.317665,-8.73355,-5.45794,-2.99002,-4.01882,4.07274,-0.0962985
0.0672584,0.0831445,0.213034,0.222618,0.0544747,0.126168,0.272761,1.98916,-8.95469,-5.51417,-3.43377,-3.71901,3.96685,-0.323282,-8.89317,-5.65594,-3.04215,-3.99173,4.06118,-0.110155
0.0673021,0.0833974,0.21394,0.222788,0.0546624,0.126489,0.272761,0.0899686,-9.12788,-5.69872,-3.49012,-3.65955,3.95068,-0.328848,-9.04855,-5.83869,-3.08784,-3.92859,4.04625,-0.127975
0.0675151,0.0834837,0.215398,0.222636,0.0548502,0.126814,5.27333,0.0899686,-9.30388,-5.88026,-3.54643,-3.59823,3.93424,-0.334362,-9.18899,-5.98658,-3.06195,-3.7692,4.03016,-0.132369
0.0676701,0.083346,0.215963,0.222386,0.0547914,0.126666,5.27333,3.80368,-9.4827,-6.05868,-3.60261,-3.53503,3.91752,-0.339823,-9.37825,-6.06136,-3.25582,-3.40918,3.95,-0.270989
0.0678309,0.08321,0.216263,0.222062,0.0547299,0.126504,1.19024,3.80368,-9.66432,-6.23389,-3.6586,-3.46994,3.90053,-0.34523,-9.55848,-6.24165,-3.36519,-3.39522,3.93143,-0.285276
0.0683898,0.0831635,0.217505,0.221895,0.0548794,0.126667,1.19024,0.828984,-9.84874,-6.4058,-3.71431,-3.40294,3.88327,-0.350583,-9.68195,-6.47337,-3.25489,-3.5667,3.97267,-0.18155
0.0685841,0.0830605,0.217353,0.221558,0.0548182,0.126472,7.15754,0.828984,-10.0359,-6.57431,-3.76968,-3.33404,3.86574,-0.355881,-9.92271,-6.61526,-3.6051,-3.3932,3.89672,-0.325555
0.0687059,0.0829645,0.217091,0.221215,0.0547432,0.12627,7.15754,0.642386,-10.2259,-6.73933,-3.82463,-3.26321,3.84795,-0.361122,-10.1267,-6.78413,-3.71366,-3.3122,3.86991,-0.343699
0.0688291,0.0828559,0.216758,0.220867,0.054659,0.126064,0.781924,0.642386,-10.4186,-6.90075,-3.87907,-3.19046,3.82989,-0.366306,-10.3189,-6.93729,-3.82785,-3.22958,3.84242,-0.3675
0.0688235,0.0828233,0.216408,0.22059,0.0545771,0.125862,0.781924,3.79498,-10.614,-7.05849,-3.93293,-3.11577,3.81158,-0.371433,-10.5469,-7.13059,-3.94267,-3.22052,3.82652,-0.359646
0.0687637,0.0827229,0.216136,0.220236,0.0544955,0.125681,1.48464,3.79498,-10.8121,-7.21245,-3.98613,-3.03916,3.793,-0.376501,-10.7653,-7.25375,-4.08817,-3.02173,3.77811,-0.41779
0.0686533,0.0826705,0.216039,0.219881,0.05442,0.125498,1.48464,3.43944,-11.0128,-7.36252,-4.03859,-2.96062,3.77418,-0.381509,-11.01,-7.42693,-4.22207,-2.96558,3.75393,-0.420712
0.0685458,0.0825746,0.21581,0.219577,0.0543549,0.125322,1.30703,3.43944,-11.2161,-7.50861,-4.09021,-2.88015,3.7551,-0.386458,-11.2055,-7.55207,-4.216,-2.79896,3.72767,-0.430989
0.0686109,0.0825713,0.215516,0.219339,0.0542944,0.12518,1.30703,3.50115,-11.422,-7.65064,-4.14093,-2.79777,3.73578,-0.391345,-11.3355,-7.7322,-4.05756,-2.92228,3.76575,-0.323667
0.0687038,0.0825056,0.21522,0.219006,0.0542161,0.125003,1.58499,3.50115,-11.6304,-7.78849,-4.19067,-2.71348,3.71621,-0.39617,-11.5371,-7.84688,-4.11103,-2.76076,3.73297,-0.354758
0.0689858,0.0823939,0.214997,0.218658,0.0541365,0.124822,1.58499,2.71013,-11.8413,-7.92208,-4.23932,-2.6273,3.6964,-0.400933,-11.7111,-7.9538,-4.11224,-2.6341,3.7113,-0.363879
0.0693611,0.0822635,0.214946,0.218409,0.0540508,0.124625,1.10167,2.71013,-12.0546,-8.05131,-4.28682,-2.53924,3.67636,-0.405632,-11.9091,-8.05346,-4.08884,-2.42313,3.67657,-0.397692
0.0697664,0.0821534,0.214809,0.218344,0.0539759,0.124435,1.10167,0.237342,-12.2702,-8.17609,-4.33308,-2.44932,3.65608,-0.410268,-12.1195,-8.14399,-4.16706,-2.25291,3.63723,-0.433629
0.0700648,0.0820356,0.214471,0.218024,0.053894,0.124242,2.91732,0.237342,-12.4881,-8.29633,-4.37802,-2.35756,3.63556,-0.414838,-12.3534,-8.27188,-4.37805,-2.29951,3.62523,-0.400597
0.070495,0.0819613,0.214138,0.217769,0.0538188,0.124047,2.91732,1.40091,-12.7082,-8.41193,-4.42155,-2.26399,3.61482,-0.419343,-12.5526,-8.35863,-4.39882,-2.15414,3.59697,-0.416723
0.0709871,0.0820052,0.213852,0.217956,0.05379,0.123887,1.25175,1.40091,-12.9304,-8.5228,-4.4636,-2.16863,3.59385,-0.423782,-12.7654,-8.42783,-4.38226,-1.89751,3.55022,-0.475541
0.0711568,0.0820864,0.213528,0.218374,0.0538248,0.123768,1.25175,4.08898,-13.1547,-8.62886,-4.50407,-2.07151,3.57267,-0.428154,-13.0417,-8.52398,-4.54111,-1.74599,3.50865,-0.505185
0.0711902,0.082196,0.213374,0.218588,0.0538584,0.123606,2.68403,4.08898,-13.381,-8.73002,-4.54289,-1.97267,3.55126,-0.432459,-13.2998,-8.61805,-4.69926,-1.69373,3.48752,-0.481158
0.071272,0.0825118,0.213174,0.219149,0.0539452,0.123468,2.68403,1.40745,-13.6092,-8.82619,-4.57997,-1.87214,3.52963,-0.436695,-13.5152,-8.6727,-4.71398,-1.5156,3.45267,-0.501915
0.0713683,0.0833686,0.212872,0.221654,0.0543329,0.123657,2.88179,1.40745,-13.8392,-8.91729,-4.61524,-1.76997,3.5078,-0.440862,-13.7416,-8.68738,-4.67564,-1.13292,3.37931,-0.615326
0.0715948,0.0837639,0.212554,0.222168,0.054374,0.123491,2.88179,1.82278,-14.0709,-9.00324,-4.64861,-1.6662,3.48576,-0.444959,-13.946,-8.83466,-4.6118,-1.31514,3.41939,-0.489176
0.0717027,0.0840705,0.212309,0.221989,0.0543268,0.123341,2.88852,1.82278,-14.3043,-9.08395,-4.68001,-1.56086,3.46351,-0.448987,-14.2035,-8.9297,-4.7862,-1.40774,3.42765,-0.392625
0.0719305,0.0840781,0.211984,0.221759,0.0542609,0.123479,2.88852,0.961996,-14.5391,-9.15936,-4.70936,-1.45402,3.44106,-0.452943,-14.4133,-9.07287,-4.70192,-1.58009,3.46579,-0.290685
0.072226,0.0840668,0.2117,0.221547,0.0542048,0.123576,0.414194,0.961996,-14.7754,-9.22939,-4.73658,-1.34573,3.41841,-0.456828,-14.637,-9.14911,-4.66343,-1.48146,3.44919,-0.304929
0.0722333,0.0844545,0.211466,0.221469,0.0541749,0.123389,0.414194,1.69391,-15.013,-9.29397,-4.76161,-1.23603,3.39557,-0.46064,-14.9384,-9.12496,-4.87228,-1.04198,3.35228,-0.449682
0.0721836,0.0847467,0.211273,0.221232,0.054117,0.123221,4.55045,1.69391,-15.2517,-9.35302,-4.78436,-1.125,3.37254,-0.46438,-15.1984,-9.19989,-4.91772,-1.00491,3.34316,-0.424728
0.0721058,0.0846892,0.211024,0.221153,0.0540664,0.123313,4.55045,5.34263,-15.4916,-9.40649,-4.80476,-1.01269,3.34932,-0.468047,-15.4529,-9.3436,-4.90437,-1.20617,3.38275,-0.317464
0.0720302,0.0846893,0.210707,0.220825,0.0539856,0.123164,2.18877,5.34263,-15.7324,-9.45431,-4.82275,-0.899159,3.32592,-0.47164,-15.6927,-9.36959,-4.83229,-0.925768,3.33088,-0.416597
0.0719409,0.0845776,0.21039,0.220781,0.0539511,0.123148,2.18877,2.04983,-15.9741,-9.49642,-4.83827,-0.784484,3.30233,-0.475158,-15.9439,-9.46682,-4.84412,-0.990333,3.34325,-0.357524
0.071841,0.0845234,0.210075,0.220457,0.0538712,0.122974,2.21191,2.04983,-16.2164,-9.53277,-4.85124,-0.668734,3.27858,-0.478601,-16.1969,-9.46877,-4.85554,-0.698325,3.28443,-0.448867
0.071735,0.0846232,0.209777,0.220251,0.053813,0.122801,2.21191,0.481519,-16.4594,-9.5633,-4.8616,-0.55198,3.25465,-0.481969,-16.4515,-9.45017,-4.90747,-0.416916,3.22634,-0.511549
0.0716549,0.084837,0.209468,0.220216,0.0537824,0.122663,4.83075,0.481519,-16.7027,-9.58797,-4.8693,-0.4343,3.23055,-0.48526,-16.6669,-9.44892,-4.84533,-0.226248,3.18825,-0.545964
0.07155,0.0853058,0.209185,0.220802,0.053859,0.12262,4.83075,1.43191,-16.9464,-9.60673,-4.87427,-0.315773,3.20629,-0.488475,-16.9551,-9.42212,-4.93679,0.0524607,3.13097,-0.595752
0.0714462,0.085412,0.208945,0.220478,0.0537801,0.122485,8.23876,1.43191,-17.1903,-9.61954,-4.87646,-0.196479,3.18186,-0.491613,-17.2004,-9.50377,-4.97596,-0.173778,3.1765,-0.429831
0.0713559,0.085468,0.208743,0.220158,0.0537014,0.122377,8.23876,0.508066,-17.4342,-9.62636,-4.87583,-0.0765024,3.15728,-0.494673,-17.4613,-9.52371,-4.99809,-0.104117,3.16242,-0.417153
0.0712875,0.0855837,0.208515,0.219864,0.0536272,0.122201,1.65313,0.508066,-17.6781,-9.62717,-4.87232,0.0440703,3.13255,-0.497655,-17.7202,-9.5087,-4.97821,0.111145,3.11927,-0.477395
0.0712464,0.085858,0.208326,0.21973,0.0535777,0.122024,1.65313,0.156008,-17.9216,-9.62194,-4.86588,0.165151,3.10766,-0.500558,-17.9771,-9.4691,-4.99487,0.333135,3.075,-0.511795
0.0712128,0.0863242,0.208074,0.220007,0.0535949,0.121913,0.417524,0.156008,-18.1648,-9.61064,-4.85648,0.286648,3.08264,-0.503383,-18.2234,-9.42403,-4.94327,0.586621,3.02347,-0.578727
0.0711089,0.0863581,0.20778,0.219697,0.0535183,0.121758,0.417524,2.23555,-18.4074,-9.59325,-4.84408,0.40847,3.05747,-0.506127,-18.4075,-9.49598,-4.80597,0.368292,3.06511,-0.462927
0.0710071,0.0863285,0.207479,0.219592,0.0534779,0.121765,1.75689,2.23555,-18.6493,-9.56977,-4.82864,0.530522,3.03216,-0.508792,-18.6405,-9.49425,-4.83883,0.350667,3.06925,-0.384415
0.0709041,0.0862589,0.207188,0.219627,0.0534633,0.121807,1.75689,0.265001,-18.8904,-9.54017,-4.81012,0.652707,3.00672,-0.511377,-18.8917,-9.48269,-4.8478,0.421177,3.05493,-0.376012
0.0708041,0.0861853,0.206914,0.219798,0.0534745,0.121931,3.86294,0.265001,-19.1305,-9.50446,-4.78851,0.774927,2.98115,-0.513881,-19.1194,-9.44923,-4.84876,0.502394,3.03835,-0.354731
0.0707042,0.0864988,0.206705,0.219525,0.0534013,0.121768,3.86294,3.12451,-19.3694,-9.46265,-4.76378,0.897083,2.95546,-0.516304,-19.3799,-9.30075,-4.87687,0.978936,2.94349,-0.484458
0.0706046,0.0870461,0.206424,0.219612,0.0533837,0.121634,0.89961,3.12451,-19.6069,-9.41472,-4.73591,1.01907,2.92964,-0.518645,-19.6169,-9.21339,-4.7841,1.26684,2.88273,-0.578212
0.0705229,0.088268,0.206148,0.220929,0.0535456,0.121656,0.89961,0.885869,-19.8431,-9.36071,-4.70487,1.1408,2.90371,-0.520904,-19.874,-9.07375,-4.75887,1.64156,2.80943,-0.649755
0.0704551,0.0899596,0.205896,0.222672,0.0537536,0.121608,4.78902,0.885869,-20.0775,-9.30061,-4.67066,1.26215,2.87767,-0.523081,-20.1179,-8.96399,-4.74972,1.82731,2.77433,-0.626848
0.0704072,0.0899226,0.205661,0.22286,0.0537489,0.121656,4.78902,15.0139,-20.3102,-9.23446,-4.63328,1.38303,2.85151,-0.525176,-20.2593,-9.15861,-4.54202,1.10196,2.90358,-0.387816
0.0703495,0.0898128,0.205373,0.223667,0.0538565,0.121943,1.50839,15.0139,-20.5409,-9.16227,-4.59271,1.50334,2.82525,-0.527187,-20.4951,-9.12853,-4.56708,1.08321,2.90872,-0.328714
0.0702937,0.0897555,0.205082,0.223944,0.0538792,0.122027,1.50839,0.888054,-20.7695,-9.08408,-4.54896,1.62296,2.79889,-0.529115,-20.7229,-9.01747,-4.55558,1.31673,2.86022,-0.380528
0.070213,0.0896923,0.204799,0.224096,0.0538846,0.122006,2.58089,0.888054,-20.9959,-8.99994,-4.50202,1.74179,2.77244,-0.53096,-20.9654,-8.93639,-4.53351,1.46909,2.82822,-0.416439
0.0701873,0.0895911,0.20451,0.224483,0.0539206,0.122008,2.58089,1.0695,-21.2198,-8.90987,-4.45191,1.85973,2.74589,-0.532721,-21.1594,-8.8698,-4.44974,1.52551,2.81132,-0.410196
0.0701362,0.0894799,0.204223,0.224744,0.0539368,0.121919,1.98156,1.0695,-21.4412,-8.81393,-4.39865,1.97666,2.71925,-0.534397,-21.3924,-8.7833,-4.40532,1.67293,2.77866,-0.449674
0.0701709,0.0894106,0.203942,0.226299,0.05415,0.12202,1.98156,1.13808,-21.6597,-8.71217,-4.34223,2.0925,2.69253,-0.53599,-21.5781,-8.77202,-4.31615,1.54398,2.79806,-0.382238
0.070303,0.0892914,0.203901,0.226467,0.0541076,0.121878,5.89055,1.13808,-21.8754,-8.60465,-4.2827,2.20712,2.66574,-0.537497,-21.7679,-8.62384,-4.09401,1.927,2.70167,-0.587738
0.0704876,0.0892062,0.203844,0.226798,0.0540811,0.12172,5.89055,0.0651873,-22.088,-8.49143,-4.22007,2.32043,2.63886,-0.53892,-21.9686,-8.54156,-4.03768,1.99635,2.68241,-0.571403
0.0706695,0.0891664,0.203588,0.227561,0.054141,0.121616,2.44859,0.0651873,-22.2975,-8.37258,-4.15437,2.43232,2.61191,-0.540258,-22.1782,-8.44609,-4.09091,2.01237,2.68444,-0.464641
0.070721,0.0891563,0.203308,0.228225,0.0542122,0.121515,2.44859,1.52182,-22.5035,-8.24817,-4.08564,2.5427,2.5849,-0.54151,-22.4162,-8.33359,-4.10225,2.14138,2.6605,-0.464797
0.0708214,0.0892005,0.203029,0.228826,0.0542575,0.121368,0.702809,1.52182,-22.7061,-8.11829,-4.01391,2.65145,2.55783,-0.542677,-22.6053,-8.22223,-3.99667,2.26233,2.62651,-0.500008
0.0707606,0.0891174,0.202753,0.228593,0.0541897,0.121286,0.702809,6.02748,-22.9049,-7.98301,-3.93923,2.75848,2.53069,-0.543759,-22.8615,-7.93224,-3.96428,2.87579,2.51401,-0.630653
0.0707013,0.0890677,0.202536,0.22864,0.0541836,0.121536,2.60334,6.02748,-23.1,-7.84243,-3.86163,2.8637,2.5035,-0.544754,-23.0558,-7.77371,-3.76662,3.10879,2.45158,-0.736588
0.0706053,0.0891393,0.202294,0.229164,0.0542263,0.121804,2.60334,2.08275,-23.2911,-7.69663,-3.78118,2.96699,2.47627,-0.545663,-23.2841,-7.58442,-3.70837,3.34097,2.40827,-0.74209
0.0705113,0.0891598,0.202115,0.229046,0.0541561,0.121639,2.52974,2.08275,-23.4781,-7.54572,-3.69792,3.06828,2.44898,-0.546486,-23.4896,-7.44938,-3.81823,3.24887,2.43659,-0.535583
0.0704174,0.0891165,0.201882,0.228781,0.0540825,0.121478,2.52974,0.809254,-23.6609,-7.3898,-3.61191,3.16746,2.42166,-0.547223,-23.6502,-7.31828,-3.69124,3.25727,2.41857,-0.527216
0.0703223,0.0890884,0.20176,0.228496,0.0540119,0.121366,0.859492,0.809254,-23.8393,-7.22897,-3.52321,3.26445,2.3943,-0.547874,-23.845,-7.15088,-3.67368,3.33071,2.40512,-0.478466
0.0702314,0.0889757,0.201608,0.228451,0.054005,0.121357,0.859492,2.41012,-24.0132,-7.06336,-3.43189,3.35916,2.3669,-0.548437,-23.998,-7.08641,-3.56597,3.14822,2.41833,-0.430639
0.070142,0.0888562,0.201384,0.228241,0.0539571,0.121218,1.98314,2.41012,-24.1825,-6.89307,-3.33801,3.45149,2.33948,-0.548915,-24.1655,-6.9006,-3.42302,3.32232,2.37112,-0.501439
0.0700508,0.0888594,0.201132,0.228038,0.0538868,0.121057,1.98314,2.80848,-24.347,-6.71823,-3.24166,3.54138,2.31204,-0.549305,-24.3337,-6.62819,-3.29691,3.67506,2.30201,-0.56554
0.069957,0.0888637,0.200862,0.227887,0.0538262,0.120954,3.45806,2.80848,-24.5066,-6.53895,-3.14289,3.62873,2.28457,-0.549609,-24.5019,-6.44853,-3.14144,3.79074,2.2628,-0.622459
0.0699644,0.0887505,0.20067,0.227588,0.0537583,0.120831,3.45806,5.36321,-24.6612,-6.35538,-3.0418,3.71347,2.25709,-0.549826,-24.5885,-6.33535,-2.93415,3.67966,2.24395,-0.609313
0.0699952,0.0886369,0.200465,0.227293,0.0536895,0.120684,0.310119,5.36321,-24.8107,-6.16764,-2.93846,3.79553,2.2296,-0.549957,-24.7301,-6.14916,-2.84114,3.75519,2.2185,-0.586971
0.0699297,0.0885436,0.200201,0.226994,0.0536192,0.120531,0.310119,2.85199,-24.955,-5.97587,-2.83296,3.87484,2.2021,-0.55,-24.9168,-5.93516,-2.80875,3.90306,2.19457,-0.576512
0.0698752,0.0884671,0.199935,0.226702,0.053549,0.120371,1.81093,2.85199,-25.094,-5.7802,-2.72538,3.95132,2.1746,-0.549957,-25.049,-5.72778,-2.71431,3.99168,2.16797,-0.552852
0.069826,0.0883524,0.19967,0.226421,0.053479,0.120213,1.81093,0.405092,-25.2276,-5.58079,-2.61581,4.02492,2.1471,-0.549826,-25.1797,-5.56754,-2.61485,3.96621,2.15367,-0.535549
0.0697422,0.0882358,0.19956,0.226232,0.0534527,0.120219,1.07164,0.405092,-25.3556,-5.37777,-2.50435,4.09557,2.11961,-0.549609,-25.3342,-5.38279,-2.65685,3.9577,2.16201,-0.427168
0.069651,0.0881251,0.199587,0.225964,0.0534319,0.120214,1.07164,0.588747,-25.4779,-5.1713,-2.39109,4.16322,2.09213,-0.549305,-25.4847,-5.15167,-2.60071,4.09122,2.13704,-0.430822
0.0695659,0.0880142,0.200044,0.225898,0.0535208,0.12054,5.66599,0.588747,-25.5946,-4.96152,-2.27613,4.22781,2.06467,-0.548915,-25.6133,-4.98,-2.60662,4.02863,2.14508,-0.33867
0.0694862,0.0879795,0.200669,0.226209,0.0537004,0.120923,5.66599,0.494901,-25.7055,-4.7486,-2.15956,4.2893,2.03722,-0.548437,-25.7303,-4.82223,-2.52757,3.96581,2.13822,-0.325219
0.069421,0.0879702,0.201365,0.226499,0.0538873,0.121177,0.155759,0.494901,-25.8105,-4.53268,-2.04149,4.34764,2.0098,-0.547874,-25.8476,-4.61704,-2.42507,4.02925,2.11259,-0.352658
0.0693939,0.0878901,0.202224,0.22645,0.0540438,0.121337,0.155759,0.640709,-25.9096,-4.31392,-1.92202,4.40279,1.98241,-0.547223,-25.9677,-4.36231,-2.33844,4.19607,2.07922,-0.375484
0.0693978,0.0878038,0.202185,0.22621,0.0540195,0.121225,11.5629,0.640709,-26.0027,-4.0925,-1.80125,4.45471,1.95504,-0.546486,-26.0736,-4.13615,-1.98755,4.35701,1.99877,-0.612461
0.0694157,0.0877087,0.202015,0.225984,0.0539547,0.12118,11.5629,1.75797,-26.0897,-3.86856,-1.67928,4.50337,1.92772,-0.545663,-26.1657,-3.83275,-1.7993,4.61194,1.94277,-0.647824
0.0694196,0.0876366,0.201792,0.22589,0.0539024,0.121631,2.4341,1.75797,-26.1706,-3.64227,-1.55623,4.54875,1.90044,-0.544754,-26.2415,-3.58927,-1.47805,4.73536,1.87335,-0.783522
0.0693344,0.0876534,0.201953,0.225973,0.0539324,0.122269,2.4341,4.00338,-26.2453,-3.4138,-1.4322,4.59081,1.8732,-0.543759,-26.2609,-3.31988,-1.17548,4.84672,1.80873,-0.817625
0.069245,0.0877067,0.202332,0.226062,0.0539981,0.122844,0.0201809,4.00338,-26.3138,-3.18332,-1.30729,4.62954,1.84601,-0.542677,-26.3156,-3.07698,-0.990718,4.88768,1.77078,-0.806533
0.0691971,0.0877417,0.203305,0.226018,0.0541535,0.123507,0.0201809,1.33764,-26.376,-2.95098,-1.18162,4.66493,1.81888,-0.54151,-26.3289,-2.85056,-0.740671,4.87321,1.72163,-0.821834
0.0691374,0.0877389,0.203656,0.22583,0.0541944,0.123569,2.28546,1.33764,-26.4319,-2.71697,-1.05529,4.69695,1.7918,-0.540258,-26.3924,-2.63033,-0.743725,4.83103,1.72354,-0.686076
0.0690566,0.0876339,0.203803,0.225611,0.0541819,0.123578,2.28546,6.00733,-26.4815,-2.48143,-0.928411,4.72562,1.76479,-0.53892,-26.461,-2.50377,-0.673561,4.61461,1.71574,-0.665808
0.068969,0.0875308,0.203613,0.225406,0.0541204,0.12342,1.45463,6.00733,-26.5247,-2.24456,-0.80109,4.75091,1.73784,-0.537497,-26.5198,-2.26909,-0.695207,4.62998,1.71984,-0.53779
0.0688821,0.0875026,0.203379,0.225391,0.0540526,0.123264,1.45463,1.07625,-26.5616,-2.0065,-0.673434,4.77284,1.71097,-0.53599,-26.5688,-2.08215,-0.610008,4.5534,1.70397,-0.526551
0.0687959,0.0874835,0.203131,0.225373,0.0539884,0.123193,1.88847,1.07625,-26.5921,-1.76744,-0.545553,4.79141,1.68417,-0.534397,-26.6004,-1.84706,-0.584597,4.57334,1.69793,-0.442985
0.0687125,0.0874303,0.202874,0.225241,0.0539208,0.123092,1.88847,1.18186,-26.6161,-1.52753,-0.417552,4.80664,1.65745,-0.532721,-26.6019,-1.59058,-0.429294,4.64106,1.66303,-0.45979
0.0686522,0.0874175,0.202715,0.225156,0.0538668,0.122956,1.77654,1.18186,-26.6338,-1.28695,-0.289538,4.81852,1.63081,-0.53096,-26.5958,-1.36917,-0.164385,4.62984,1.60629,-0.574825
0.0686023,0.0874339,0.202565,0.225092,0.0538155,0.122823,1.77654,0.00072927,-26.6451,-1.04586,-0.161615,4.8271,1.60427,-0.529115,-26.6005,-1.13955,-0.0313878,4.62893,1.57758,-0.574841
0.0685231,0.0875193,0.202325,0.225094,0.0537502,0.122669,5.13074,0.00072927,-26.65,-0.804425,-0.0338883,4.83238,1.57781,-0.527187,-26.6304,-0.920996,0.0137293,4.60671,1.56782,-0.536223
0.0684374,0.0875382,0.202073,0.224942,0.0536832,0.122515,5.13074,0.702959,-26.6485,-0.562812,0.0935412,4.83439,1.55145,-0.525176,-26.6448,-0.657573,0.10828,4.68151,1.54767,-0.52516
0.0683536,0.0875577,0.201931,0.224769,0.0536367,0.122472,2.33486,0.702959,-26.6406,-0.321181,0.220572,4.83317,1.52519,-0.523081,-26.6307,-0.416213,0.354397,4.69323,1.49543,-0.626778
0.0683,0.0874539,0.201997,0.224492,0.0536191,0.122457,2.33486,2.60326,-26.6264,-0.0796947,0.347104,4.82874,1.49904,-0.520904,-26.5848,-0.0990984,0.574234,4.85175,1.45299,-0.637284
0.0682433,0.08735,0.202112,0.224214,0.0536089,0.122466,2.73878,2.60326,-26.6059,0.161489,0.473041,4.82116,1.47299,-0.518645,-26.5666,0.142832,0.716933,4.83584,1.42361,-0.644737
0.0681837,0.0872745,0.20227,0.224059,0.0535939,0.122441,2.73878,1.39533,-26.5792,0.402213,0.598287,4.81045,1.44706,-0.516304,-26.542,0.450375,0.856071,4.95998,1.39988,-0.62804
0.0681031,0.0872046,0.202074,0.223899,0.0535323,0.122289,1.80561,1.39533,-26.5462,0.642323,0.722748,4.79667,1.42124,-0.513881,-26.5316,0.694204,0.817157,4.94247,1.40694,-0.508343
0.0680261,0.0872386,0.201826,0.223944,0.0534666,0.122148,1.80561,2.59673,-26.5069,0.881666,0.846334,4.77986,1.39555,-0.511377,-26.5268,0.981688,0.866379,5.02112,1.39993,-0.48123
0.0679536,0.0873958,0.201684,0.224193,0.0534325,0.122231,6.0278,2.59673,-26.4616,1.12009,0.968955,4.76007,1.36998,-0.508792,-26.4865,1.25704,0.837151,5.06897,1.40712,-0.356544
0.067882,0.0874986,0.201575,0.224255,0.0534037,0.122283,6.0278,0.297426,-26.4101,1.35745,1.09052,4.73737,1.34454,-0.506127,-26.4358,1.47976,0.939498,4.9857,1.38454,-0.364093
0.0678284,0.0875334,0.201583,0.224164,0.053393,0.122346,8.27656,0.297426,-26.3526,1.59361,1.21096,4.71181,1.31923,-0.503383,-26.3931,1.69429,1.00605,4.89493,1.36809,-0.357735
0.0678022,0.0874762,0.201719,0.223928,0.0533947,0.12239,8.27656,0.624693,-26.2891,1.82841,1.33018,4.68345,1.29407,-0.500558,-26.3452,1.88812,1.07914,4.76711,1.34818,-0.361467
0.0677712,0.0874131,0.201621,0.223673,0.0533562,0.122256,0.660269,0.624693,-26.2197,2.06173,1.44811,4.65235,1.26904,-0.497655,-26.2732,2.11768,1.29169,4.71065,1.30317,-0.45773
0.0677799,0.0873067,0.201605,0.223423,0.0533186,0.122119,0.660269,0.880398,-26.1444,2.29342,1.56467,4.61859,1.24415,-0.494673,-26.2156,2.29403,1.36947,4.55499,1.27874,-0.461179
0.0678377,0.0872011,0.201828,0.223168,0.0533136,0.122046,0.394361,0.880398,-26.0633,2.52336,1.67979,4.58223,1.21942,-0.491613,-26.1518,2.51809,1.40129,4.52743,1.27064,-0.404332
0.0679326,0.0870983,0.202091,0.222897,0.0533223,0.121973,0.394361,0.125059,-25.9765,2.75141,1.79339,4.54334,1.19484,-0.488475,-26.0761,2.7656,1.50227,4.54606,1.25164,-0.4016
0.0680079,0.0869938,0.20189,0.222643,0.0532611,0.121923,3.14949,0.125059,-25.884,2.97746,1.90543,4.502,1.17042,-0.48526,-25.9781,2.98499,1.82052,4.44954,1.18243,-0.584128
0.068056,0.0869756,0.201651,0.222426,0.0532007,0.121856,3.14949,1.4107,-25.786,3.20139,2.01582,4.45828,1.14615,-0.481969,-25.8717,3.28047,1.98933,4.55596,1.15911,-0.571888
0.068177,0.0869821,0.201427,0.222223,0.0531454,0.121761,2.09471,1.4107,-25.6826,3.42306,2.12452,4.41227,1.12206,-0.478601,-25.7898,3.5127,2.06904,4.52141,1.14163,-0.550992
0.0683049,0.0869273,0.201196,0.221959,0.0530837,0.12169,2.09471,0.317186,-25.5737,3.64238,2.23146,4.36404,1.09813,-0.475158,-25.6829,3.70232,2.18917,4.38354,1.10762,-0.562546
0.0684287,0.0868539,0.200958,0.221696,0.0530202,0.121638,1.10571,0.317186,-25.4596,3.85924,2.3366,4.31367,1.07437,-0.47164,-25.5679,3.90638,2.31583,4.28831,1.07564,-0.569295
0.0688012,0.0867503,0.200787,0.221527,0.0529576,0.121579,1.10571,3.6729,-25.3402,4.07353,2.43989,4.26125,1.05079,-0.468047,-25.5018,4.07054,2.33173,4.12826,1.05665,-0.561588
0.0691905,0.0866517,0.20061,0.221406,0.0528946,0.121518,0.567159,3.6729,-25.2157,4.28514,2.54127,4.20686,1.02738,-0.46438,-25.381,4.26653,2.43898,4.04367,1.02806,-0.556884
0.0693974,0.0865487,0.200373,0.22123,0.0528351,0.121481,0.567159,2.12661,-25.0862,4.49399,2.64071,4.15058,1.00416,-0.46064,-25.2161,4.49424,2.62985,4.02306,0.991827,-0.565216
0.0695438,0.0864476,0.200177,0.221045,0.0527725,0.121338,9.09289,2.12661,-24.9518,4.69998,2.73817,4.09251,0.981133,-0.456828,-25.0676,4.6895,2.65391,3.9726,0.981835,-0.468808
0.069783,0.0863508,0.200025,0.220868,0.0527107,0.121195,9.09289,0.395246,-24.8126,4.90303,2.83361,4.03273,0.958291,-0.452943,-24.9502,4.88304,2.71405,3.90721,0.963687,-0.462161
0.0699659,0.0862628,0.199841,0.220721,0.0526487,0.121056,2.3144,0.395246,-24.6686,5.10304,2.92701,3.97132,0.935644,-0.448987,-24.794,5.07124,2.83334,3.82579,0.933345,-0.468908
0.0700627,0.0861613,0.199616,0.220488,0.0525868,0.120917,2.3144,1.00237,-24.5201,5.29995,3.01833,3.90839,0.913195,-0.444959,-24.6233,5.29753,2.97586,3.83708,0.91114,-0.463571
0.070098,0.0860673,0.19944,0.220391,0.0525581,0.120956,0.796858,1.00237,-24.367,5.49367,3.10754,3.84401,0.890947,-0.440862,-24.4508,5.47076,3.20762,3.66966,0.852481,-0.577546
0.0700598,0.0859887,0.199371,0.220424,0.0525691,0.121053,0.796858,1.16753,-24.2095,5.68415,3.19464,3.77827,0.868904,-0.436695,-24.2608,5.64372,3.36174,3.54421,0.811814,-0.593575
0.0700203,0.0859612,0.199378,0.220751,0.0526383,0.121301,2.9655,1.16753,-24.0477,5.8713,3.27959,3.71127,0.847069,-0.432459,-24.0982,5.79805,3.48213,3.37917,0.770394,-0.633386
0.0699652,0.0859907,0.19944,0.22131,0.0527534,0.121581,2.9655,0.0141287,-23.8818,6.05508,3.36239,3.64309,0.825446,-0.428154,-23.9216,5.95725,3.58664,3.24967,0.736147,-0.637669
0.069963,0.0859925,0.199239,0.221331,0.0527032,0.121461,4.60713,0.0141287,-23.7117,6.23542,3.44302,3.57383,0.804038,-0.423782,-23.7808,6.14867,3.36958,3.34387,0.781569,-0.376723
0.0699895,0.0860492,0.199069,0.221392,0.0526525,0.121334,4.60713,0.059817,-23.5377,6.41227,3.52148,3.50357,0.782849,-0.419343,-23.6183,6.30457,3.41965,3.257,0.761041,-0.380502
0.070103,0.0861027,0.199087,0.221295,0.0525918,0.121289,1.1957,0.059817,-23.3598,6.58559,3.59775,3.4324,0.761882,-0.414838,-23.4683,6.47888,3.39072,3.25814,0.76546,-0.315054
0.0700852,0.086011,0.198957,0.221061,0.0525478,0.121312,1.1957,4.23146,-23.1781,6.75533,3.67185,3.36041,0.74114,-0.410268,-23.24,6.73134,3.54079,3.42494,0.768768,-0.279196
0.0700434,0.0859497,0.198787,0.220807,0.0524901,0.121239,5.57424,4.23146,-22.9928,6.92146,3.74376,3.28769,0.720627,-0.405632,-23.0415,6.86835,3.64296,3.27415,0.732131,-0.321621
0.0699738,0.0858668,0.198582,0.220562,0.0524346,0.12116,5.57424,0.946323,-22.804,7.08393,3.8135,3.21432,0.700345,-0.400933,-22.8298,7.04933,3.74851,3.25569,0.715153,-0.321396
0.0698936,0.0858178,0.198374,0.220349,0.052384,0.121035,2.007,0.946323,-22.6117,7.24273,3.88106,3.14038,0.680299,-0.39617,-22.6138,7.1819,3.93867,3.05264,0.659338,-0.435044
0.0698181,0.0857968,0.19815,0.220175,0.0523353,0.120915,2.007,0.315484,-22.4161,7.39781,3.94647,3.06598,0.66049,-0.391345,-22.4328,7.32172,3.97164,2.94369,0.63783,-0.435743
0.0697435,0.0858304,0.198264,0.2204,0.0524057,0.121264,2.37767,0.315484,-22.2173,7.54917,4.00974,2.99118,0.640923,-0.386458,-22.1996,7.44974,4.25249,2.68778,0.563651,-0.613493
0.0696641,0.0858336,0.198304,0.22054,0.0524506,0.121518,2.37767,2.0903,-22.0154,7.69679,4.07087,2.91607,0.6216,-0.381509,-22.0162,7.60953,4.28608,2.64106,0.552242,-0.585956
0.0695916,0.0857666,0.198086,0.220315,0.0523964,0.121384,5.7273,2.0903,-21.8105,7.84064,4.12988,2.84074,0.602525,-0.376501,-21.8307,7.79265,4.16723,2.76999,0.586645,-0.398893
0.0695212,0.0857012,0.197866,0.220092,0.0523419,0.121252,5.7273,0.0286421,-21.6026,7.98072,4.18681,2.76526,0.583699,-0.371433,-21.6256,7.9316,4.21493,2.69367,0.568658,-0.396038
0.0694714,0.0856365,0.197649,0.219854,0.052283,0.121115,1.51713,0.0286421,-21.392,8.11703,4.24166,2.68971,0.565128,-0.366306,-21.4341,8.06758,4.20659,2.6428,0.560935,-0.362447
0.0694216,0.0859365,0.197447,0.22032,0.0523018,0.121054,1.51713,4.79122,-21.1787,8.24957,4.29447,2.61416,0.546813,-0.361122,-21.2207,8.07599,4.23429,2.24103,0.486779,-0.451459
0.0694113,0.0860957,0.197556,0.220173,0.0522429,0.121011,5.16535,4.79122,-20.9628,8.37833,4.34526,2.53871,0.528756,-0.355881,-21.0275,8.23851,4.10398,2.39781,0.528769,-0.255794
0.069528,0.0861448,0.197888,0.219926,0.0522048,0.121045,5.16535,2.77928,-20.7445,8.50333,4.39406,2.46341,0.510962,-0.350583,-20.8541,8.39765,4.08185,2.45773,0.54197,-0.215362
0.0695649,0.0862427,0.197753,0.21979,0.0521509,0.120924,5.31014,2.77928,-20.5237,8.62457,4.4409,2.38835,0.493433,-0.34523,-20.6081,8.5023,4.31748,2.24102,0.478776,-0.385605
0.0695319,0.0862526,0.197546,0.21956,0.0520931,0.120795,5.31014,1.28779,-20.3006,8.74206,4.48582,2.31358,0.476172,-0.339823,-20.3535,8.65148,4.43451,2.25772,0.470921,-0.365752
0.0695506,0.0862121,0.197537,0.219372,0.0520638,0.120755,1.08185,1.28779,-20.0754,8.85583,4.52884,2.23919,0.45918,-0.334362,-20.1528,8.7902,4.33542,2.34522,0.495864,-0.233393
0.0696823,0.0862031,0.197687,0.219152,0.0520328,0.120686,1.08185,0.599512,-19.848,8.96589,4.57001,2.16524,0.442462,-0.328848,-19.9623,8.88384,4.31409,2.23483,0.477968,-0.244393
0.0699281,0.0861666,0.198157,0.219054,0.052057,0.120761,0.531779,0.599512,-19.6186,9.07227,4.60937,2.09179,0.42602,-0.323282,-19.7611,9.00443,4.25891,2.26084,0.488022,-0.172531
0.0702562,0.0862158,0.19872,0.218841,0.0520448,0.120737,0.531779,0.852215,-19.3873,9.17499,4.64694,2.01891,0.409856,-0.317665,-19.5474,9.06894,4.27267,2.09597,0.456061,-0.208164
0.0705162,0.0862379,0.198846,0.218608,0.052004,0.120606,4.92385,0.852215,-19.1542,9.27409,4.68278,1.94666,0.393973,-0.311998,-19.3007,9.1784,4.4334,1.99079,0.422058,-0.296596
0.070564,0.0862517,0.198721,0.218377,0.0519533,0.120473,4.92385,6.19819,-18.9193,9.36959,4.71692,1.8751,0.378373,-0.306282,-19.0089,9.27732,4.58654,1.91904,0.396273,-0.310366
0.0706724,0.086293,0.198602,0.218138,0.0518969,0.12036,1.72734,6.19819,-18.6827,9.46154,4.7494,1.80429,0.363059,-0.300517,-18.7919,9.35819,4.61539,1.7857,0.369164,-0.346684
0.0707155,0.0862913,0.198418,0.2179,0.0518416,0.120243,1.72734,0.66486,-18.4446,9.54997,4.78028,1.73429,0.348033,-0.294705,-18.5327,9.46445,4.70121,1.75471,0.357233,-0.33652
0.0706988,0.0864741,0.198229,0.218156,0.0518693,0.120654,5.25304,0.66486,-18.2049,9.63492,4.80959,1.66514,0.333298,-0.288846,-18.2676,9.48712,4.88164,1.35146,0.270081,-0.532939
0.0706218,0.0864691,0.198297,0.218037,0.0518487,0.120854,5.25304,2.76791,-17.9639,9.71643,4.83737,1.59691,0.318855,-0.282942,-17.959,9.63228,5.0646,1.44231,0.277439,-0.474458
0.0705471,0.0864119,0.198156,0.217809,0.0517921,0.12073,3.22007,2.76791,-17.7214,9.79457,4.86368,1.52964,0.304708,-0.276993,-17.7087,9.7403,4.98044,1.57489,0.306266,-0.30683
0.0705043,0.0863225,0.198106,0.217658,0.05174,0.1206,3.22007,0.539171,-17.4777,9.86936,4.88856,1.46338,0.290859,-0.271,-17.4308,9.84983,5.06243,1.59449,0.30513,-0.281879
0.0704753,0.0862292,0.198083,0.217504,0.0516876,0.120475,0.363834,0.539171,-17.2328,9.94087,4.91205,1.39818,0.277309,-0.264964,-17.1772,9.9343,5.09911,1.52677,0.290923,-0.290757
0.0705067,0.0861665,0.198165,0.217614,0.0516584,0.120344,0.363834,0.544975,-16.9868,10.0091,4.93421,1.33408,0.26406,-0.258887,-16.9031,10.0587,5.16737,1.59743,0.299818,-0.253585
0.0705763,0.0861165,0.198274,0.217662,0.0516234,0.120215,0.0399156,0.544975,-16.7396,10.0743,4.95507,1.27113,0.251116,-0.252769,-16.6421,10.133,5.19844,1.51019,0.282727,-0.2658
0.070626,0.0861315,0.198317,0.21785,0.0516063,0.120086,0.0399156,1.04,-16.4915,10.1363,4.97469,1.20937,0.238478,-0.246611,-16.4008,10.229,5.19174,1.5011,0.281457,-0.248491
0.0707173,0.0861868,0.198444,0.217938,0.051577,0.119971,0.429892,1.04,-16.2424,10.1952,4.99311,1.14883,0.226147,-0.240414,-16.1376,10.304,5.24362,1.40439,0.261687,-0.280708
0.0707187,0.0861223,0.198339,0.21771,0.0515216,0.119926,0.429892,1.44962,-15.9924,10.2511,5.01039,1.08956,0.214126,-0.234179,-15.921,10.2987,5.15154,1.12575,0.215145,-0.331129
0.0707162,0.0860797,0.198175,0.217524,0.0514708,0.119815,0.27078,1.44962,-15.7416,10.3041,5.02655,1.03159,0.202417,-0.227907,-15.672,10.3674,5.1218,1.1301,0.217165,-0.272348
0.0706454,0.0859937,0.197975,0.217421,0.051434,0.119816,0.27078,2.12917,-15.4899,10.3543,5.04166,0.974957,0.191022,-0.221599,-15.4719,10.3319,4.99379,0.812702,0.161328,-0.341954
0.0706369,0.0859246,0.197862,0.217824,0.0514882,0.120286,7.25243,2.12917,-15.2376,10.4016,5.05576,0.919692,0.179942,-0.215255,-15.171,10.3588,5.19094,0.559808,0.107428,-0.474411
0.070649,0.0858489,0.197782,0.218212,0.0515403,0.12068,7.25243,0.27243,-14.9846,10.4462,5.06889,0.865828,0.169179,-0.208878,-14.9085,10.4103,5.22447,0.510009,0.0973109,-0.451656
0.0706288,0.0857796,0.197574,0.218147,0.051511,0.120586,6.75856,0.27243,-14.7309,10.4882,5.0811,0.813394,0.158736,-0.202468,-14.6705,10.4461,5.05894,0.628053,0.123515,-0.265171
0.0705713,0.0859087,0.197433,0.218834,0.051598,0.120644,6.75856,1.9595,-14.4766,10.5276,5.09243,0.762418,0.148612,-0.196026,-14.4425,10.3942,4.97915,0.327571,0.0656938,-0.341531
0.0705175,0.0860877,0.197286,0.219502,0.051683,0.120665,0.57399,1.9595,-14.2218,10.5645,5.10293,0.712926,0.138811,-0.189554,-14.1845,10.4165,4.99543,0.281522,0.0562964,-0.31964
0.0706431,0.0859979,0.197147,0.219308,0.0516323,0.120553,0.57399,7.72338,-13.9665,10.5989,5.11263,0.664944,0.129333,-0.183051,-13.8509,10.6089,5.22679,0.753823,0.143235,-0.140878
0.0708022,0.08594,0.196963,0.219562,0.0516474,0.120644,0.872667,7.72338,-13.7107,10.631,5.12159,0.618495,0.12018,-0.176519,-13.5856,10.6827,5.18863,0.936159,0.178504,-0.0185438
0.0708844,0.0858508,0.196755,0.21949,0.051618,0.120609,0.872667,0.949732,-13.4545,10.6608,5.12983,0.573603,0.111354,-0.169959,-13.3518,10.671,5.12724,0.755798,0.146354,-0.0674086
0.0709932,0.0857606,0.19656,0.219292,0.0515682,0.120484,0.545976,0.949732,-13.1979,10.6884,5.13741,0.530288,0.102857,-0.163373,-13.0867,10.6914,5.18448,0.612892,0.11767,-0.148193
0.0711033,0.085752,0.196382,0.219459,0.0515715,0.120394,0.545976,3.5063,-12.9409,10.7138,5.14436,0.48857,0.0946879,-0.156761,-12.8291,10.7953,5.21573,0.776639,0.147817,-0.0920206
0.0712668,0.0858186,0.196232,0.219802,0.051599,0.120305,1.0696,3.5063,-12.6836,10.7373,5.15071,0.448467,0.0868499,-0.150124,-12.5564,10.8505,5.25278,0.795087,0.150225,-0.0853767
0.0712978,0.0857495,0.196031,0.219632,0.0515549,0.12018,1.0696,2.48327,-12.426,10.7587,5.15651,0.409998,0.0793437,-0.143463,-12.3412,10.7998,5.1285,0.521695,0.101376,-0.151321
0.0713332,0.0857033,0.195834,0.219559,0.0515268,0.120061,0.233766,2.48327,-12.1681,10.7783,5.16179,0.373177,0.0721706,-0.136779,-12.0815,10.8379,5.12544,0.554388,0.107745,-0.109707
0.0713396,0.0857631,0.195638,0.219744,0.0515402,0.119959,0.233766,1.77717,-11.91,10.7961,5.16658,0.338022,0.0653316,-0.130074,-11.8356,10.9069,5.12792,0.633646,0.122945,-0.0782202
0.071407,0.0858359,0.195439,0.219784,0.0515278,0.119835,2.80911,1.77717,-11.6516,10.8121,5.17092,0.304546,0.0588279,-0.123349,-11.5529,10.9277,5.2009,0.542958,0.10402,-0.126785
0.0713822,0.0858866,0.195256,0.2197,0.0514984,0.119717,2.80911,0.857347,-11.393,10.8265,5.17484,0.272761,0.0526604,-0.116604,-11.3348,10.9342,5.11506,0.447042,0.0871758,-0.143305
0.0713573,0.0858003,0.195057,0.220457,0.051601,0.121007,8.26927,0.857347,-11.1342,10.8394,5.17836,0.242681,0.0468302,-0.10984,-11.0762,10.8538,5.20203,-0.215117,-0.0413289,-0.515626
0.0714211,0.0857236,0.194885,0.22198,0.0518207,0.122401,8.26927,2.66151,-10.8753,10.8509,5.18152,0.214317,0.0413382,-0.10306,-10.7777,10.8196,5.2559,-0.398296,-0.0756362,-0.526364
0.0714552,0.0856605,0.194685,0.223353,0.052022,0.123289,0.701954,2.66151,-10.6161,10.8609,5.18435,0.187679,0.0361852,-0.0962627,-10.5297,10.8151,5.18849,-0.401077,-0.0771478,-0.444142
